year,ew,wili,actual_ew
1998.0,1.0,10.8434,21.0
1998.0,2.0,10.8434,22.0
1998.0,3.0,10.8434,23.0
1998.0,4.0,10.8434,24.0
1998.0,5.0,10.8434,25.0
1998.0,6.0,10.8434,26.0
1998.0,7.0,10.8434,27.0
1998.0,8.0,10.8434,28.0
1998.0,9.0,10.8434,29.0
1998.0,10.0,10.8434,30.0
1998.0,11.0,10.8434,31.0
1998.0,12.0,10.8434,32.0
1998.0,13.0,10.8434,33.0
1998.0,14.0,10.8434,34.0
1998.0,15.0,10.8434,35.0
1998.0,16.0,10.8434,36.0
1998.0,17.0,10.8434,37.0
1998.0,18.0,10.8434,38.0
1998.0,19.0,10.8434,39.0
1998.0,20.0,10.8434,40.0
1998.0,21.0,8.617239,41.0
1998.0,22.0,6.42242,42.0
1998.0,23.0,0.08484704,43.0
1998.0,24.0,10.8684,44.0
1998.0,25.0,6.340504,45.0
1998.0,26.0,5.748913,46.0
1998.0,27.0,5.262917,47.0
1998.0,28.0,6.431236,48.0
1998.0,29.0,2.294931,49.0
1998.0,30.0,3.619627,50.0
1998.0,31.0,0.09050351,51.0
1998.0,32.0,2.474525,52.0
1999.0,33.0,3.482503,1.0
1999.0,34.0,5.143944,2.0
1999.0,35.0,6.717535,3.0
1999.0,36.0,7.61696,4.0
1999.0,37.0,6.647733,5.0
1999.0,38.0,6.708328,6.0
1999.0,39.0,5.060106,7.0
1999.0,40.0,6.444619,8.0
1999.0,41.0,4.955578,9.0
1999.0,42.0,4.405237,10.0
1999.0,43.0,3.622498,11.0
1999.0,44.0,4.824361,12.0
1999.0,45.0,2.574757,13.0
1999.0,46.0,0.06787763,14.0
1999.0,47.0,2.858623,15.0
1999.0,48.0,-0.03393882,16.0
1999.0,49.0,0.0735341,17.0
1999.0,50.0,11.86438,18.0
1999.0,51.0,4.395095,19.0
1999.0,52.0,11.81253,20.0
