year,ew,wili,actual_ew
2008,1.0,0.9217241,21
2008,2.0,0.9970983,22
2008,3.0,1.253341,23
2008,4.0,0.8074251,24
2008,5.0,0.8331538,25
2008,6.0,0.7984828,26
2008,7.0,0.7290492,27
2008,8.0,0.6504905,28
2008,9.0,0.684778,29
2008,10.0,0.590441,30
2008,11.0,0.5779849,31
2008,12.0,0.6141313,32
2008,13.0,0.6120076,33
2008,14.0,0.5158658,34
2008,15.0,0.642723,35
2008,16.0,0.5973372,36
2008,17.0,0.572782,37
2008,18.0,0.7981013,38
2008,19.0,0.9004523,39
2008,20.0,0.7184321,40
2008,21.0,0.9510379,41
2008,22.0,0.8320115,42
2008,23.0,0.8181241,43
2008,24.0,0.9949168,44
2008,25.0,1.208816,45
2008,26.0,1.181551,46
2008,27.0,1.235583,47
2008,28.0,1.60482,48
2008,29.0,1.73748,49
2008,30.0,1.635607,50
2008,31.0,1.637669,51
2008,32.0,1.763325,52
2009,33.0,1.660629,1
2009,34.0,1.695795,2
2009,35.0,2.13432,3
2009,36.0,2.725466,4
2009,37.0,2.904207,5
2009,38.0,3.370197,6
2009,39.0,3.688163,7
2009,40.0,3.945387,8
2009,41.0,3.565041,9
2009,42.0,3.90163,10
2009,43.0,3.208835,11
2009,44.0,2.441526,12
2009,45.0,2.076774,13
2009,46.0,1.902161,14
2009,47.0,1.428717,15
2009,48.0,1.364547,16
2009,49.0,2.856052,17
2009,50.0,2.196838,18
2009,51.0,2.91314,19
2009,52.0,5.395856,20
