year,ew,wili,actual_ew
2012,1.0,0.6773273,21
2012,2.0,0.681091,22
2012,3.0,0.5740253,23
2012,4.0,0.5365903,24
2012,5.0,0.5846015,25
2012,6.0,0.5523281,26
2012,7.0,0.6209335,27
2012,8.0,0.4758069,28
2012,9.0,0.4282113,29
2012,10.0,0.4343927,30
2012,11.0,0.4248137,31
2012,12.0,0.3482523,32
2012,13.0,0.3750859,33
2012,14.0,0.4860115,34
2012,15.0,0.4834585,35
2012,16.0,0.5536661,36
2012,17.0,0.6396197,37
2012,18.0,0.6843049,38
2012,19.0,0.7705357,39
2012,20.0,0.9660469,40
2012,21.0,1.217194,41
2012,22.0,1.304667,42
2012,23.0,1.257165,43
2012,24.0,1.179461,44
2012,25.0,1.351221,45
2012,26.0,1.319391,46
2012,27.0,1.719885,47
2012,28.0,2.040247,48
2012,29.0,2.353164,49
2012,30.0,2.826787,50
2012,31.0,3.820966,51
2012,32.0,5.508758,52
2013,33.0,4.524396,1
2013,34.0,4.777676,2
2013,35.0,5.322728,3
2013,36.0,4.639935,4
2013,37.0,3.824763,5
2013,38.0,3.578576,6
2013,39.0,3.714443,7
2013,40.0,3.434394,8
2013,41.0,2.772482,9
2013,42.0,2.985614,10
2013,43.0,2.862263,11
2013,44.0,2.538347,12
2013,45.0,2.180617,13
2013,46.0,1.925873,14
2013,47.0,1.610814,15
2013,48.0,1.393592,16
2013,49.0,1.458245,17
2013,50.0,1.436731,18
2013,51.0,1.260948,19
2013,52.0,1.337471,20
