year,ew,wili,actual_ew
2015,1.0,1.216623,21
2015,2.0,1.16655,22
2015,3.0,1.046803,23
2015,4.0,0.9449774,24
2015,5.0,0.9339929,25
2015,6.0,0.9331463,26
2015,7.0,0.867804,27
2015,8.0,0.8023224,28
2015,9.0,0.7469596,29
2015,10.0,0.7336464,30
2015,11.0,0.74691,31
2015,12.0,0.8036713,32
2015,13.0,0.8153633,33
2015,14.0,0.818204,34
2015,15.0,0.8564574,35
2015,16.0,0.89039,36
2015,17.0,1.00687,37
2015,18.0,1.06467,38
2015,19.0,1.063636,39
2015,20.0,1.221377,40
2015,21.0,1.314873,41
2015,22.0,1.366887,42
2015,23.0,1.395396,43
2015,24.0,1.43554,44
2015,25.0,1.50007,45
2015,26.0,1.601736,46
2015,27.0,1.892467,47
2015,28.0,1.681493,48
2015,29.0,1.778747,49
2015,30.0,1.877046,50
2015,31.0,2.3199,51
2015,32.0,2.40833,52
2016,33.0,1.946439,1
2016,34.0,1.995854,2
2016,35.0,2.119343,3
2016,36.0,2.249014,4
2016,37.0,2.374319,5
2016,38.0,2.79877,6
2016,39.0,3.163697,7
2016,40.0,3.152883,8
2016,41.0,3.33368,9
2016,42.0,3.556554,10
2016,43.0,3.058476,11
2016,44.0,2.76574,12
2016,45.0,2.44003,13
2016,46.0,2.036639,14
2016,47.0,1.98435,15
2016,48.0,1.91356,16
2016,49.0,1.703103,17
2016,50.0,1.573454,18
2016,51.0,1.394816,19
2016,52.0,1.299147,20
