year,ew,wili,num_ili,num_patients,age_0,age_1,age_2,age_3,age_4,age_5
1997,40,1.8076068124,243,10758,80,74,76,,,13
1997,41,1.39478182851,274,10677,103,84,76,,,11
1997,42,2.07268851701,241,9978,86,79,67,,,9
1997,43,1.31690773798,214,8105,53,76,73,,,12
1997,44,2.24783673125,224,7108,91,58,67,,,8
1997,45,0.22458856151,173,7815,69,63,27,,,14
1997,46,2.60273220168,298,10417,136,89,51,,,22
1997,47,2.314555433,363,12033,146,109,94,,,14
1997,48,2.3607664838,302,10688,131,94,60,,,17
1997,49,2.28603922869,282,12865,139,77,53,,,13
1997,50,3.47037003116,324,12360,162,91,55,,,16
1997,51,2.95297321002,434,10941,208,141,72,,,13
1997,52,7.90666415722,495,11535,208,144,107,,,36
1998,1,8.99298166032,966,14105,324,281,262,,,99
1998,2,5.63842491641,946,14672,315,381,183,,,67
1998,3,6.67665554463,906,13453,355,339,166,,,46
1998,4,4.79764224385,562,9908,148,229,145,,,40
1998,5,4.33190653241,579,13325,187,227,123,,,42
1998,6,3.68600659074,333,10762,144,99,73,,,17
1998,7,4.77553142692,311,11062,128,91,75,,,17
1998,8,3.35501369969,261,11273,111,85,41,,,24
1998,9,1.52452450973,163,10801,70,49,34,,,10
1998,10,2.13712420657,159,10146,65,49,32,,,13
1998,11,0.720646184907,115,11114,48,40,22,,,5
1998,12,1.50724290722,174,10585,94,52,20,,,8
1998,13,0.741921378259,56,6506,24,14,12,,,6
1998,14,1.33855859739,50,5171,23,15,7,,,5
1998,15,0.986763695418,50,5545,25,14,8,,,3
1998,16,0.754941994384,48,6405,18,16,12,,,2
1998,17,1.55384874166,48,4537,16,16,14,,,2
1998,18,0.859655529679,30,3832,8,8,13,,,1
1998,19,0.517265642271,49,4143,28,11,8,,,2
1998,20,1.52957793287,48,2988,19,14,9,,,6
