year,ew,wili,num_ili,num_patients,age_0,age_1,age_2,age_3,age_4,age_5
2010,21,2.23124163038,1070,76105,298,313,,215,154,90
2010,22,2.66384945861,1022,55104,252,262,,236,161,111
2010,23,2.17439423741,823,61745,230,231,,185,95,82
2010,24,2.30316880171,758,59089,204,206,,176,103,69
2010,25,2.31779322029,784,60946,236,245,,137,109,57
2010,26,1.98961106344,695,59208,197,167,,148,99,84
2010,27,2.07308885374,656,54776,189,190,,142,70,65
2010,28,1.95519609934,669,65624,171,183,,146,91,78
2010,29,1.9341665117,582,46966,122,196,,127,92,45
2010,30,2.0785467209,557,43940,124,168,,113,97,55
2010,31,1.96895852189,642,47597,186,177,,152,76,51
2010,32,1.99169772074,569,45579,139,181,,117,85,47
2010,33,1.94915306478,626,41973,139,207,,147,92,41
2010,34,1.20122832923,395,43419,97,157,,85,32,24
2010,35,1.71333093109,619,44845,144,209,,141,80,45
2010,36,1.51810119459,447,44306,144,171,,80,28,24
2010,37,2.00122294019,742,54057,180,279,,130,96,57
2010,38,2.36168890152,1032,54587,292,355,,194,123,68
2010,39,2.25232148682,943,53720,249,333,,186,111,64
2010,40,1.73524,999,70276,255,352,,224,100,68
2010,41,1.91822,1144,72125,304,467,,192,111,70
2010,42,1.98148,1191,72533,288,463,,253,107,80
2010,43,1.77791,1167,73901,318,442,,202,125,80
2010,44,2.27503,1430,74529,371,553,,292,135,79
2010,45,2.34478,1239,69212,335,442,,255,119,88
2010,46,2.52885,1621,74992,439,626,,295,149,112
2010,47,2.83317,1407,62968,426,469,,264,131,117
2010,48,2.44015,1669,75089,535,568,,308,161,97
2010,49,2.92539,2025,72878,597,729,,326,225,148
2010,50,3.43547,2139,68042,749,702,,326,212,150
2010,51,4.16915,2025,57722,788,563,,346,165,163
2010,52,4.16749,1916,59229,762,432,,353,214,155
2011,1,3.23196,2237,80189,696,672,,432,247,190
2011,2,3.4291,2460,82491,696,837,,470,259,198
2011,3,3.76368,2649,77492,741,1000,,436,294,178
2011,4,4.22906,3364,92619,936,1392,,550,304,182
2011,5,4.04219,3267,89136,886,1424,,541,241,175
2011,6,4.52405,3593,90431,896,1605,,644,273,175
2011,7,4.6947,3687,90371,845,1685,,671,296,190
2011,8,4.72162,3306,84414,818,1432,,572,288,196
2011,9,4.53929,3090,79610,757,1291,,588,267,187
2011,10,4.21272,2976,85608,785,1221,,511,274,185
2011,11,3.92503,2545,79380,768,939,,458,221,159
2011,12,2.99716,1901,74008,563,691,,340,174,133
2011,13,2.84696,1910,81335,550,703,,339,190,128
2011,14,2.39777,1624,79663,496,613,,264,163,88
2011,15,2.29387,1456,75623,417,517,,255,164,103
2011,16,2.13977,1399,69631,441,480,,236,121,121
2011,17,2.07516,1322,81235,414,426,,255,128,99
2011,18,1.93387,1196,69814,344,363,,228,132,129
2011,19,1.86598,1096,67076,303,367,,207,127,92
2011,20,1.82117,907,64057,248,309,,169,97,84
