year,ew,wili,num_ili,num_patients,age_0,age_1,age_2,age_3,age_4,age_5
2011,21,1.80521,794,60995,183,265,,148,115,83
2011,22,2.15327,747,49372,189,228,,156,101,73
2011,23,1.91803,769,54632,165,239,,165,122,78
2011,24,1.56212,610,53351,149,162,,153,76,70
2011,25,1.47918,592,54635,153,170,,132,83,54
2011,26,1.43733,567,54076,128,178,,108,93,60
2011,27,1.46441,479,45655,128,128,,123,43,57
2011,28,1.38325,533,52958,103,169,,114,92,55
2011,29,1.23902,450,51398,93,132,,94,68,63
2011,30,1.16745,424,50736,103,118,,100,53,50
2011,31,0.523629,222,46414,68,77,,46,18,13
2011,32,1.13543,402,52839,84,124,,92,65,37
2011,33,1.01117,420,54749,91,147,,90,48,44
2011,34,1.18488,525,55568,110,204,,95,65,51
2011,35,1.28169,557,55492,104,233,,91,76,53
2011,36,1.36204,460,48483,112,201,,82,37,28
2011,37,1.4992,602,56544,131,225,,123,76,47
2011,38,1.48556,604,57513,130,223,,120,72,59
2011,39,1.57733,667,58014,160,242,,131,80,54
2011,40,1.54554,877,81545,203,361,,156,87,70
2011,41,1.73834,1000,90657,253,370,,190,106,81
2011,42,2.00711,1147,86004,290,481,,194,95,87
2011,43,1.95815,1196,86851,294,501,,210,114,77
2011,44,2.15899,1312,79289,343,525,,216,141,87
2011,45,1.89203,1190,83872,336,474,,210,67,103
2011,46,2.27028,1467,89971,367,559,,263,149,129
2011,47,2.20507,988,62168,295,305,,187,109,92
2011,48,1.53376,981,80718,305,404,,161,66,45
2011,49,2.33479,1307,75807,300,447,,270,166,124
2011,50,2.56613,1379,79032,374,460,,246,150,149
2011,51,3.05014,1230,61275,373,336,,229,163,129
2011,52,3.68816,1147,50050,314,287,,227,167,152
2012,1,2.99636,1291,61883,326,329,,257,189,190
2012,2,2.50573,1357,75175,345,416,,270,183,143
2012,3,2.36802,1346,77897,361,459,,284,169,73
2012,4,3.01277,1719,78511,462,656,,284,174,143
2012,5,3.34077,1961,77717,577,727,,306,208,143
2012,6,2.93438,1913,81415,560,714,,336,164,139
2012,7,3.17132,2073,85701,618,740,,369,188,158
2012,8,3.65957,2036,77642,501,782,,370,195,188
2012,9,3.14123,2030,83552,505,721,,394,214,196
2012,10,2.49756,1533,72535,412,638,,286,116,81
2012,11,2.81932,1793,79580,457,767,,333,159,77
2012,12,2.62173,1637,70152,439,654,,308,140,96
2012,13,3.43265,2075,75580,448,772,,453,233,169
2012,14,2.70898,1779,76727,424,603,,383,190,179
2012,15,2.5828,1396,68063,295,502,,290,162,147
2012,16,1.98471,1127,68360,256,452,,247,130,42
2012,17,1.93868,1304,76694,260,482,,276,168,118
2012,18,2.12065,1315,66915,244,512,,301,148,110
2012,19,1.98364,1278,66332,267,496,,239,146,130
2012,20,1.85652,1183,69371,235,428,,265,145,110
