year,ew,wili,num_ili,num_patients,age_0,age_1,age_2,age_3,age_4,age_5
2017,21,0.875947,1152,121654,290,405,,284,98,75
2017,22,1.03431,1145,109358,295,411,,278,89,72
2017,23,0.867823,949,105855,271,316,,226,83,53
2017,24,0.763187,774,103799,197,269,,182,64,62
2017,25,0.803839,847,105017,243,258,,221,74,51
2017,26,0.772005,710,91822,188,234,,175,65,48
2017,27,0.78873,652,95160,199,196,,160,62,35
2017,28,0.749312,613,97354,185,191,,159,49,29
2017,29,0.671758,587,93291,176,173,,148,52,38
2017,30,0.714908,586,94976,171,182,,151,48,34
2017,31,0.809792,647,95026,167,220,,161,53,46
2017,32,0.593181,557,92435,155,163,,167,48,24
2017,33,0.618561,546,87727,160,172,,155,31,28
2017,34,0.632169,606,96300,208,195,,138,40,25
2017,35,0.800751,708,95151,216,251,,147,58,36
2017,36,0.855259,842,102461,261,299,,169,59,54
2017,37,0.755999,899,115897,241,290,,233,76,59
2017,38,0.85242,999,115598,286,361,,227,68,57
2017,39,0.980626,975,99174,268,376,,213,71,47
2017,40,0.926918,2189,204284,600,739,,506,202,142
2017,41,0.990479,2142,189380,595,706,,478,196,167
2017,42,1.02534,2287,188869,706,765,,499,173,144
2017,43,1.12025,2454,185274,711,853,,535,205,150
2017,44,1.18251,2559,184335,758,827,,625,201,148
2017,45,1.30856,2828,189029,950,865,,609,236,168
2017,46,1.58923,3234,191110,1027,1045,,707,270,185
2017,47,1.64729,3070,167244,1021,911,,648,261,229
2017,48,1.61476,3766,198909,1191,1118,,894,334,229
2017,49,1.63816,3525,185290,997,1049,,841,355,283
2017,50,1.84744,3894,181502,1106,1153,,972,365,298
2017,51,2.30586,4674,183637,1202,1319,,1203,520,430
2017,52,3.56431,6142,168403,1519,1384,,1704,805,730
2018,1,3.31274,6414,178246,1122,1445,,1982,1003,862
2018,2,3.73765,7554,186310,1082,1918,,2456,1176,922
2018,3,4.816,8880,171950,1315,2495,,2865,1314,891
