year,ew,wili,actual_ew
2003,1.0,0.5833233,21
2003,2.0,0.6409856,22
2003,3.0,0.4376243,23
2003,4.0,0.2163146,24
2003,5.0,0.005991819,25
2003,6.0,0.1327156,26
2003,7.0,0.005991819,27
2003,8.0,0.1142194,28
2003,9.0,0.1482559,29
2003,10.0,1.198116,30
2003,11.0,0.185693,31
2003,12.0,-0.00299591,32
2003,13.0,0.0007489774,33
2003,14.0,0.0007489774,34
2003,15.0,-0.002246932,35
2003,16.0,0.001497955,36
2003,17.0,0.2586989,37
2003,18.0,0.795076,38
2003,19.0,0.9908626,39
2003,20.0,0.7542523,40
2003,21.0,0.5350344,41
2003,22.0,0.8611495,42
2003,23.0,1.379762,43
2003,24.0,2.307944,44
2003,25.0,2.008878,45
2003,26.0,3.279472,46
2003,27.0,6.163925,47
2003,28.0,8.82239,48
2003,29.0,7.39766,49
2003,30.0,7.3491,50
2003,31.0,5.892095,51
2003,32.0,3.952549,52
2004,33.0,2.1208,1
2004,34.0,0.9871848,2
2004,35.0,1.517623,3
2004,36.0,2.350342,4
2004,37.0,1.376445,5
2004,38.0,1.256262,6
2004,39.0,0.9862962,7
2004,40.0,0.7068101,8
2004,41.0,0.898137,9
2004,42.0,0.8921531,10
2004,43.0,0.5487554,11
2004,44.0,0.352624,12
2004,45.0,0.3936128,13
2004,46.0,0.2408827,14
2004,47.0,0.5799753,15
2004,48.0,0.2785131,16
2004,49.0,0.4647753,17
2004,50.0,0.5098244,18
2004,51.0,0.4898663,19
2004,52.0,0.2204387,20
