year,ew,wili,actual_ew
2007,1.0,1.206162,21
2007,2.0,1.174641,22
2007,3.0,0.617809,23
2007,4.0,0.5308206,24
2007,5.0,0.7484535,25
2007,6.0,0.409172,26
2007,7.0,0.780309,27
2007,8.0,0.5962628,28
2007,9.0,0.5390745,29
2007,10.0,0.6990935,30
2007,11.0,0.5564475,31
2007,12.0,0.6012244,32
2007,13.0,0.6473534,33
2007,14.0,0.5849372,34
2007,15.0,0.5600828,35
2007,16.0,0.7015427,36
2007,17.0,0.66225,37
2007,18.0,0.9538428,38
2007,19.0,0.9594098,39
2007,20.0,0.3204568,40
2007,21.0,0.8831614,41
2007,22.0,1.209755,42
2007,23.0,1.436186,43
2007,24.0,1.698402,44
2007,25.0,2.189761,45
2007,26.0,2.340746,46
2007,27.0,2.175848,47
2007,28.0,1.364586,48
2007,29.0,2.933125,49
2007,30.0,2.908718,50
2007,31.0,2.19927,51
2007,32.0,2.758665,52
2008,33.0,1.445,1
2008,34.0,3.005354,2
2008,35.0,3.848751,3
2008,36.0,7.432485,4
2008,37.0,8.368988,5
2008,38.0,6.038392,6
2008,39.0,7.200607,7
2008,40.0,7.32079,8
2008,41.0,5.902947,9
2008,42.0,3.81851,10
2008,43.0,3.500047,11
2008,44.0,2.816843,12
2008,45.0,2.475503,13
2008,46.0,1.265985,14
2008,47.0,0.8842041,15
2008,48.0,0.5666119,16
2008,49.0,1.000716,17
2008,50.0,1.674465,18
2008,51.0,1.697471,19
2008,52.0,0.7323955,20
