year,ew,wili,num_ili,num_patients,age_0,age_1,age_2,age_3,age_4,age_5
1998,40,0.0215988641641,2,3452,0,0,2,,,0
1998,41,0.0135214585956,6,5666,0,2,4,,,0
1998,42,0.164406478794,46,7486,15,9,16,,,6
1998,43,0.0918423689725,17,5707,1,5,10,,,1
1998,44,0.272294286449,88,10077,26,15,42,,,5
1998,45,0.113875085292,45,8846,6,14,19,,,6
1998,46,1.82054115168,73,12380,18,31,16,,,8
1998,47,2.16039158438,59,9180,6,25,22,,,6
1998,48,2.26697585657,60,8786,15,14,24,,,7
1998,49,2.57479492638,58,10880,14,6,21,,,17
1998,50,2.48661311287,71,10645,25,9,30,,,7
1998,51,8.57078648174,51,8835,20,15,11,,,5
1998,52,11.7203261207,162,10660,39,26,53,,,44
1999,1,5.4794748354,151,12065,16,20,99,,,16
1999,2,6.52803166741,338,8017,20,38,241,,,39
1999,3,6.35483893791,344,13869,38,65,178,,,63
1999,4,4.51048309083,374,12312,39,136,182,,,17
1999,5,9.97783245413,364,9835,23,151,169,,,21
1999,6,10.8928813057,316,11516,24,107,171,,,14
1999,7,10.4480200214,378,9633,15,103,240,,,20
1999,8,8.15634986517,362,11067,17,81,249,,,15
1999,9,6.50947253845,274,5844,29,47,188,,,10
1999,10,8.84811408807,178,8268,7,33,118,,,20
1999,11,4.08477319918,128,8404,5,16,102,,,5
1999,12,4.11259180964,84,3366,3,10,65,,,6
1999,13,1.86255163918,63,6310,2,8,52,,,1
1999,14,0.895034473331,24,9389,0,2,20,,,2
1999,15,0.651761839886,10,3600,0,1,8,,,1
1999,16,0.220087516235,6,7146,0,0,4,,,2
1999,17,0.654989788321,9,8495,2,2,3,,,2
1999,18,0.118360451149,1,8453,0,0,0,,,1
1999,19,0.234714792957,2,8034,0,0,1,,,1
1999,20,0.0,0,8313,0,0,0,,,0
