year,ew,wili,num_ili,num_patients,age_0,age_1,age_2,age_3,age_4,age_5
2009,21,1.49154395077,843,56076,221,359,208,,,55
2009,22,1.09285663034,714,63759,198,288,179,,,49
2009,23,1.73939033356,502,33662,166,203,108,,,25
2009,24,0.857873750509,603,60865,154,244,172,,,33
2009,25,0.902505884119,563,56535,163,204,156,,,40
2009,26,0.990338967121,666,59527,172,252,179,,,63
2009,27,1.45039706135,662,39705,199,240,169,,,54
2009,28,0.932089300303,687,59787,194,232,211,,,50
2009,29,0.952242036802,654,59019,194,260,180,,,20
2009,30,1.16424253886,531,33035,156,196,124,,,55
2009,31,0.750677256551,507,60499,147,185,156,,,19
2009,32,0.891254743146,613,61140,154,259,162,,,38
2009,33,1.70169221411,1753,68108,310,858,440,,,145
2009,34,3.37151401914,3224,72841,506,1794,735,,,189
2009,35,4.70666482839,3982,51621,579,2520,808,,,75
2009,36,5.50065138913,3367,49064,615,1949,741,,,62
2009,37,7.27392072361,5142,57809,913,2708,1309,,,212
2009,38,7.6538867915,3444,41253,683,1864,786,,,111
2009,39,9.45473480535,5356,54288,926,3138,1220,,,72
2009,40,12.8256743396,9116,76445,2304,4694,,1342,576,200
2009,41,13.3821802308,9027,68511,2563,4499,,1378,417,170
2009,42,11.310620313,7747,71094,2293,3801,,1130,374,149
2009,43,9.2069878818,5809,65962,1940,2460,,966,279,164
2009,44,6.69823401248,5606,84417,1671,2575,,954,285,121
2009,45,6.42334430951,4183,68606,1296,1908,,633,231,115
2009,46,5.81342666431,3502,63389,1239,1425,,546,200,92
2009,47,4.38152055998,2740,60045,1080,970,,440,164,86
2009,48,3.89652314606,3014,74709,1179,1069,,501,172,93
2009,49,3.56213727649,2749,72516,1028,995,,435,202,89
2009,50,4.59567441488,2427,57307,1015,781,,396,145,90
2009,51,3.96591967536,1979,47127,861,600,,321,124,73
2009,52,3.65888902316,2334,59445,1027,592,,462,170,83
2010,1,2.68679913962,2278,77398,755,671,,489,237,126
2010,2,3.03235741956,2614,82863,962,869,,486,207,90
2010,3,2.73487322844,2463,81261,855,838,,452,212,106
2010,4,2.780970678,2331,78330,816,917,,391,143,64
2010,5,3.35978956381,2744,74874,1092,986,,415,158,93
2010,6,2.74204982804,2323,78298,822,820,,405,172,104
2010,7,2.89691025782,2741,85233,929,894,,571,237,110
2010,8,2.92040871202,3035,89245,866,1093,,633,283,160
2010,9,2.8744292996,2629,84309,777,950,,567,215,120
2010,10,2.91635919746,2661,86135,910,921,,482,234,114
2010,11,2.15222083001,1841,74093,554,577,,434,183,93
2010,12,1.88832192788,1671,79013,483,555,,385,178,70
2010,13,1.65918760714,1390,74234,436,483,,284,123,64
2010,14,1.48764762838,1283,75828,388,424,,314,113,44
2010,15,1.48392389115,1262,80051,433,438,,229,100,62
2010,16,1.51426765294,1146,71493,421,443,,178,61,43
2010,17,1.43873473912,1257,78737,471,395,,237,90,64
2010,18,1.41357880044,1128,73239,398,393,,207,90,40
2010,19,1.39148769457,1083,71669,405,363,,214,70,31
2010,20,1.18618985428,895,67795,312,317,,161,55,50
