year,ew,wili,num_ili,num_patients,age_0,age_1,age_2,age_3,age_4,age_5
2013,21,1.47642,1250,72263,402,431,,284,77,56
2013,22,1.51067,1134,69244,354,406,,234,89,51
2013,23,1.3348,1001,70380,310,320,,240,83,48
2013,24,1.24818,947,72200,272,296,,237,95,47
2013,25,1.58591,1101,71492,305,375,,234,119,68
2013,26,1.42071,927,69126,256,329,,239,71,32
2013,27,1.55464,910,61957,250,323,,227,61,49
2013,28,1.42515,896,66912,246,307,,233,65,45
2013,29,1.35908,808,61767,230,286,,196,62,34
2013,30,1.20512,783,64116,202,285,,195,62,39
2013,31,1.37829,699,46679,145,259,,179,76,40
2013,32,1.161,822,67707,233,278,,204,57,50
2013,33,1.29592,905,68533,245,330,,226,68,36
2013,34,1.41086,1047,74057,275,417,,252,62,41
2013,35,1.69677,1327,77389,364,444,,263,133,123
2013,36,2.33453,1543,72251,426,489,,357,137,134
2013,37,2.29547,1792,79428,511,655,,369,128,129
2013,38,2.4592,1936,81822,494,707,,405,151,179
2013,39,2.63031,2058,79741,550,660,,434,221,193
2013,40,2.1557,1910,91046,585,709,,418,120,78
2013,41,2.23693,2153,97092,644,774,,469,163,103
2013,42,2.43559,2135,90860,669,728,,506,151,81
2013,43,2.39649,2393,98990,716,888,,559,161,69
2013,44,2.51041,2362,94342,757,807,,505,191,102
2013,45,2.91517,2574,90154,778,972,,559,181,84
2013,46,3.29638,3152,99368,884,1112,,786,261,109
2013,47,3.70307,3353,97614,867,1258,,890,249,89
2013,48,4.39287,3180,76959,896,940,,935,286,123
2013,49,4.94593,4463,96723,934,1415,,1440,474,200
2013,50,5.60209,5145,96266,991,1788,,1626,542,198
2013,51,8.00422,6695,97027,1156,2308,,2286,741,204
2013,52,9.86221,7431,80603,1643,1992,,2524,949,323
2014,1,8.5737,7727,93439,1635,1822,,2785,1032,453
2014,2,6.94006,6658,96633,1275,1839,,2315,876,353
2014,3,5.78707,5693,98976,1120,1864,,1830,601,278
2014,4,5.30023,4681,91694,1019,1575,,1396,480,211
2014,5,5.2044,4550,94633,1040,1589,,1262,428,231
2014,6,4.56823,3946,96581,934,1276,,1100,424,212
2014,7,3.88266,3363,92324,772,1202,,896,301,192
2014,8,3.7722,3328,97185,801,1206,,901,284,136
2014,9,3.59481,2972,90514,729,1088,,769,241,145
2014,10,3.43723,2893,91400,757,973,,794,235,134
2014,11,3.19107,2470,88844,629,755,,694,252,140
2014,12,3.00339,2551,91701,640,835,,693,247,136
2014,13,2.85576,2311,85940,521,850,,644,198,98
2014,14,2.7703,2313,89028,559,844,,592,220,98
2014,15,2.87728,2423,90580,610,944,,570,182,117
2014,16,2.61257,2195,89005,563,812,,565,173,82
2014,17,2.46958,2053,88541,476,744,,558,171,104
2014,18,2.1299,1771,88017,513,649,,415,128,66
2014,19,2.13556,1813,89416,491,615,,453,149,105
2014,20,2.35974,1848,85619,462,674,,462,164,86
