year,ew,wili,num_ili,num_patients,age_0,age_1,age_2,age_3,age_4,age_5
2001,40,0.488422544696,93,15759,21,26,37,,,9
2001,41,0.579226503846,122,16897,26,31,44,,,21
2001,42,0.757277784609,171,19128,29,61,59,,,22
2001,43,0.770255280712,196,20974,38,75,67,,,16
2001,44,0.76188302702,166,20648,34,60,68,,,4
2001,45,0.677909715184,158,21569,27,60,63,,,8
2001,46,0.568567849125,104,21009,12,50,32,,,10
2001,47,0.92013267928,125,16089,16,41,57,,,11
2001,48,0.592136254634,143,20315,22,55,53,,,13
2001,49,0.711386028398,152,21315,23,54,61,,,14
2001,50,0.806870567087,158,19238,33,54,58,,,13
2001,51,0.79642948572,135,18283,24,55,49,,,7
2001,52,1.17226896258,164,12292,36,61,53,,,14
2002,1,1.09468956106,179,15045,31,55,68,,,25
2002,2,1.11743438267,219,17824,45,67,83,,,24
2002,3,1.29292366216,220,17037,50,91,66,,,13
2002,4,1.82990218791,297,18502,56,125,99,,,17
2002,5,2.69835793679,519,20206,87,265,141,,,26
2002,6,2.5092555606,509,20271,90,232,165,,,22
2002,7,2.51279087772,552,19247,117,230,176,,,29
2002,8,1.96675837225,405,17142,87,155,135,,,28
2002,9,1.42522680783,304,17787,58,121,111,,,14
2002,10,0.898280807127,157,17637,23,62,60,,,12
2002,11,0.755994977832,126,16513,27,47,48,,,4
2002,12,1.18248588288,115,15079,16,47,44,,,8
2002,13,0.709017182157,101,15488,18,42,32,,,9
2002,14,0.636121709244,113,15078,9,68,29,,,7
2002,15,0.571710787594,79,14817,9,32,32,,,6
2002,16,0.72251707041,98,14199,9,40,42,,,7
2002,17,0.470526301706,52,14321,13,22,14,,,3
2002,18,0.201944299283,27,13040,4,13,8,,,2
2002,19,0.232078849308,28,12989,9,9,8,,,2
2002,20,0.376306859532,31,11975,5,13,9,,,4
