year,ew,wili,num_ili,num_patients,age_0,age_1,age_2,age_3,age_4,age_5
2003,21,0.120849672746,13,9382,3,3,6,,,1
2003,22,0.110874766361,13,8663,0,4,8,,,1
2003,23,0.0463557864646,5,7604,1,2,1,,,1
2003,24,0.161721559777,7,7276,0,1,5,,,1
2003,25,0.279170423267,17,6951,5,7,5,,,0
2003,26,0.117382870082,10,7174,1,0,6,,,3
2003,27,0.149165169356,7,6537,0,2,4,,,1
2003,28,0.151358020158,8,6579,1,1,4,,,2
2003,29,0.144815069505,7,6551,1,3,2,,,1
2003,30,0.160461819772,9,7119,0,3,4,,,2
2003,31,0.171811068997,9,7239,1,3,3,,,2
2003,32,0.185561605918,15,7045,1,4,9,,,1
2003,33,0.146247642057,9,7407,0,2,7,,,0
2003,34,0.101355289772,9,7658,1,1,4,,,3
2003,35,0.558680155968,20,7756,5,8,7,,,0
2003,36,0.422583507134,11,7082,1,4,5,,,1
2003,37,0.0677160150174,5,7227,0,2,2,,,1
2003,38,0.0694393548186,5,7156,2,2,1,,,0
2003,39,0.593851839678,32,7756,3,14,13,,,2
2003,40,0.572030612466,86,18256,14,40,27,,,5
2003,41,0.449279315501,84,20646,6,35,35,,,8
2003,42,0.613789076908,116,20778,19,60,32,,,5
2003,43,0.661169996998,123,21682,32,56,33,,,2
2003,44,0.760914476984,168,23108,31,74,38,,,25
2003,45,0.877168047057,186,23259,24,93,50,,,19
2003,46,0.944298783753,199,22517,47,73,62,,,17
2003,47,1.35564653899,275,22542,43,126,83,,,23
2003,48,1.8120557633,259,16119,42,97,83,,,37
2003,49,2.36008356696,563,24907,97,308,114,,,44
2003,50,5.24669667427,1225,25459,135,851,172,,,67
2003,51,6.41498726219,1501,23713,326,785,288,,,102
2003,52,6.65924287951,1134,16879,321,426,277,,,110
2004,1,3.13999332922,694,22483,175,235,219,,,65
2004,2,1.89527032862,422,22788,109,147,139,,,27
2004,3,1.42111002039,302,21253,74,98,110,,,20
2004,4,0.863052138388,174,20824,51,76,42,,,5
2004,5,0.641845279176,131,20236,37,55,30,,,9
2004,6,0.559535662435,116,20787,40,44,25,,,7
2004,7,0.546139379863,100,18739,29,39,28,,,4
2004,8,0.449425172583,79,18593,20,36,21,,,2
2004,9,0.406700959703,63,18457,20,24,16,,,3
2004,10,0.468584283358,63,16879,30,19,11,,,3
2004,11,0.370329887021,61,17135,14,25,15,,,7
2004,12,0.364549766155,57,16914,20,18,14,,,5
2004,13,0.375642911297,48,14959,13,24,6,,,5
2004,14,0.234203959277,30,15850,11,13,4,,,2
2004,15,0.229880220715,34,15763,7,15,11,,,1
2004,16,0.278676435743,38,15734,7,19,10,,,2
2004,17,0.196463307752,23,13966,10,8,2,,,3
2004,18,0.19460211959,22,14059,5,8,6,,,3
2004,19,0.255416735037,29,13115,13,8,6,,,2
2004,20,0.270333871367,33,12443,12,9,8,,,4
