year,ew,wili,num_ili,num_patients,age_0,age_1,age_2,age_3,age_4,age_5
2007,21,0.202560820411,33,16492,5,18,7,,,3
2007,22,0.373541449484,41,13171,12,14,10,,,5
2007,23,0.360670333208,25,13034,6,10,8,,,1
2007,24,0.39208337371,35,12172,11,13,5,,,6
2007,25,0.558160475255,41,12271,9,16,13,,,3
2007,26,0.412046286053,42,12555,10,7,20,,,5
2007,27,0.556125858502,32,10209,14,9,5,,,4
2007,28,0.760774740595,37,11738,11,9,7,,,10
2007,29,0.417172890265,31,11806,8,12,9,,,2
2007,30,0.169600393185,18,10171,2,4,8,,,4
2007,31,0.448218368952,20,10931,2,5,7,,,6
2007,32,0.136980221044,21,11163,5,7,5,,,4
2007,33,0.292500108994,26,11428,4,12,7,,,3
2007,34,0.310451072289,31,12273,8,9,11,,,3
2007,35,0.362904902395,32,13152,6,8,14,,,4
2007,36,0.314986744839,29,12920,4,14,9,,,2
2007,37,0.267262488837,33,14805,4,15,12,,,2
2007,38,0.31088223846,43,14414,10,16,12,,,5
2007,39,0.488590172969,62,15592,10,27,17,,,8
2007,40,0.639187762819,173,26727,27,67,52,,,27
2007,41,0.654940865799,189,25598,21,74,59,,,35
2007,42,0.722342349622,190,28770,31,90,46,,,23
2007,43,0.94454549359,244,29133,29,107,51,,,57
2007,44,0.98892260086,249,29222,48,131,48,,,22
2007,45,0.906593246575,241,29883,40,131,51,,,19
2007,46,0.751595793227,209,28186,37,93,51,,,28
2007,47,1.01988688561,211,18776,37,72,76,,,26
2007,48,0.938472175759,251,27805,40,128,62,,,21
2007,49,1.00604802147,256,25383,53,122,58,,,23
2007,50,0.893557836046,222,25667,34,99,63,,,26
2007,51,0.939967804423,197,22252,42,76,54,,,25
2007,52,1.18507457615,215,16140,52,56,75,,,32
2008,1,1.55353453651,245,18341,60,59,88,,,38
2008,2,1.30912987689,266,23616,54,84,82,,,46
2008,3,1.21743712787,228,23088,45,85,64,,,34
2008,4,1.362789007,309,25377,49,154,80,,,26
2008,5,2.20173319671,507,27375,82,279,115,,,31
2008,6,3.13469712816,922,30178,94,601,193,,,34
2008,7,4.20399146059,1049,28577,103,628,267,,,51
2008,8,3.98496814461,1017,26979,111,522,319,,,65
2008,9,3.17720500672,940,28131,94,458,326,,,62
2008,10,2.93119028406,860,27905,89,381,306,,,84
2008,11,2.45089111213,612,24915,73,230,246,,,63
2008,12,1.91642369136,494,22596,40,187,222,,,45
2008,13,1.4596226926,365,23298,41,139,134,,,51
2008,14,1.21643617784,324,24490,35,132,127,,,30
2008,15,0.911753309637,257,24802,34,94,96,,,33
2008,16,0.797581164517,191,23210,23,87,63,,,18
2008,17,0.859879088463,165,23400,27,74,50,,,14
2008,18,0.525096072979,125,22352,13,61,41,,,10
2008,19,0.461101525653,72,20792,14,38,18,,,2
2008,20,0.346685384672,46,17688,11,23,8,,,4
