year,ew,wili,num_ili,num_patients,age_0,age_1,age_2,age_3,age_4,age_5
2014,21,0.513504,289,42528,116,89,,37,27,20
2014,22,0.480187,222,33764,100,56,,37,13,16
2014,23,0.549795,273,37513,114,91,,37,17,14
2014,24,0.445091,236,38797,101,78,,27,18,12
2014,25,0.440756,224,37940,90,83,,25,12,14
2014,26,0.469904,233,36127,108,66,,31,15,13
2014,27,0.702276,216,29425,97,64,,24,13,18
2014,28,0.355917,171,35355,88,46,,17,11,9
2014,29,0.401355,181,35147,85,58,,22,10,6
2014,30,0.391262,188,35454,79,62,,26,11,10
2014,31,0.533088,168,34703,73,44,,28,8,15
2014,32,0.357373,165,34347,74,59,,18,7,7
2014,33,0.39934,180,33409,67,61,,25,13,14
2014,34,0.37084,169,34061,60,55,,27,19,8
2014,35,0.378678,168,35599,61,52,,28,11,16
2014,36,0.443777,181,33346,67,70,,27,7,10
2014,37,0.453362,204,38898,81,77,,22,14,10
2014,38,0.532114,245,40607,77,102,,31,17,18
2014,39,0.594496,248,39024,95,92,,29,15,17
2014,40,0.83061,352,51688,101,185,,44,13,9
2014,41,0.911129,386,51169,109,199,,37,24,17
2014,42,0.924083,357,45797,82,192,,53,21,9
2014,43,0.785985,330,52589,84,165,,47,20,14
2014,44,1.03529,433,53504,115,218,,55,30,15
2014,45,1.17701,504,53872,145,262,,54,24,19
2014,46,1.12824,463,52595,129,226,,53,31,24
2014,47,1.00111,425,52399,148,174,,64,27,12
2014,48,1.14027,359,35683,134,132,,50,23,20
2014,49,1.10299,542,55117,152,249,,79,34,28
2014,50,1.23213,594,51222,179,273,,67,34,41
2014,51,1.31102,625,50026,211,259,,79,35,41
2014,52,1.96586,651,32717,226,207,,100,59,59
2015,1,1.94392,915,48019,241,341,,158,95,80
2015,2,2.61241,1306,51021,308,584,,215,110,89
2015,3,3.93773,1923,50890,460,953,,247,138,125
2015,4,3.59462,1557,44917,322,887,,189,101,58
2015,5,3.55818,1463,45708,284,809,,191,115,64
2015,6,3.26275,1271,45626,267,694,,149,98,63
2015,7,2.93637,973,42015,210,492,,117,86,68
2015,8,1.94445,890,53347,159,414,,153,100,64
2015,9,1.76866,797,49598,201,383,,107,60,46
2015,10,1.72719,767,49715,160,372,,115,72,48
2015,11,1.51214,695,49795,204,249,,116,79,47
2015,12,1.5203,728,52403,210,337,,95,58,28
2015,13,1.58312,756,52317,198,342,,109,64,43
2015,14,1.38746,691,53033,178,321,,99,62,31
2015,15,1.29744,621,51230,183,244,,100,67,27
2015,16,1.25879,551,46706,146,245,,72,55,33
2015,17,1.01564,439,49875,120,197,,60,31,31
2015,18,1.00593,389,45285,118,142,,65,40,24
2015,19,0.780414,286,44660,88,95,,51,33,19
2015,20,0.795374,283,42619,93,119,,38,14,19
