year,ew,wili,num_ili,num_patients,age_0,age_1,age_2,age_3,age_4,age_5
1997,40,0.871790835408,27,2342,0,18,4,,,5
1997,41,0.449154095778,15,2315,0,13,0,,,2
1997,42,0.346781116981,13,2140,0,8,3,,,2
1997,43,0.64738791369,16,2325,2,8,5,,,1
1997,44,0.492672203751,12,2396,4,6,0,,,2
1997,45,0.616256252611,9,1800,0,3,5,,,1
1997,46,0.720111791078,31,3645,1,19,7,,,4
1997,47,0.766084401957,29,3108,4,14,11,,,0
1997,48,0.667747195019,13,2255,1,6,4,,,2
1997,49,0.69962036628,24,2796,1,14,6,,,3
1997,50,1.6093614168,37,2403,5,23,8,,,1
1997,51,1.66342215205,22,1819,4,7,8,,,3
1997,52,0.953704706582,20,1778,4,6,7,,,3
1998,1,1.56188734099,72,2950,9,34,19,,,10
1998,2,2.92684910973,122,3075,31,65,19,,,7
1998,3,6.96129047117,222,2643,50,118,41,,,13
1998,4,8.21879747198,318,3198,77,149,65,,,27
1998,5,8.12635794653,295,2895,106,106,53,,,30
1998,6,4.46488048092,186,2970,57,87,33,,,9
1998,7,2.60365383015,83,2674,21,35,21,,,6
1998,8,2.10151467214,73,2796,14,33,16,,,10
1998,9,1.2672348975,49,2905,9,21,16,,,3
1998,10,0.55083648779,20,2629,4,12,3,,,1
1998,11,1.02868565686,27,2260,6,15,4,,,2
1998,12,0.100841150198,4,2396,0,2,0,,,2
1998,13,0.260315284942,13,2996,2,8,2,,,1
1998,14,0.343052636537,14,2552,0,7,3,,,4
1998,15,0.755350405892,20,2073,3,10,6,,,1
1998,16,0.203649932595,10,2217,2,6,2,,,0
1998,17,0.258613886892,13,2057,3,8,0,,,2
1998,18,0.232639613983,11,1863,1,5,4,,,1
1998,19,0.383957508789,11,1857,2,5,0,,,4
1998,20,0.365206967729,3,1599,0,1,2,,,0
