year,ew,wili,num_ili,num_patients,age_0,age_1,age_2,age_3,age_4,age_5
2000,40,1.63247576498,97,5888,11,45,35,,,6
2000,41,1.71489998985,120,6555,22,46,46,,,6
2000,42,1.13901575595,97,8129,18,41,31,,,7
2000,43,1.42194251142,132,8693,18,50,57,,,7
2000,44,0.605629180728,57,9222,9,24,19,,,5
2000,45,1.37846007451,125,10126,23,52,46,,,4
2000,46,1.42523802705,131,10309,13,64,42,,,12
2000,47,2.10321193122,107,6966,23,36,43,,,5
2000,48,0.748801206595,68,10783,8,26,31,,,3
2000,49,1.42964971204,136,10476,19,44,59,,,14
2000,50,1.78854889004,119,8241,17,37,54,,,11
2000,51,1.28386792072,89,8605,13,23,50,,,3
2000,52,2.09198508293,105,6705,16,27,54,,,8
2001,1,1.41867452326,92,8280,13,27,48,,,4
2001,2,2.39169775977,235,11776,27,124,67,,,17
2001,3,3.72300521952,372,11204,64,214,79,,,15
2001,4,3.95196690143,465,13070,58,265,121,,,21
2001,5,3.5657099364,377,12135,48,219,91,,,19
2001,6,3.06987907441,315,11434,23,176,99,,,17
2001,7,1.97718420704,189,10004,22,104,52,,,11
2001,8,2.14849693571,244,13304,38,109,81,,,16
2001,9,1.63535137131,166,11513,22,72,61,,,11
2001,10,1.47005222958,139,12008,19,54,60,,,6
2001,11,0.855565539346,77,11200,13,37,23,,,4
2001,12,0.994786257885,87,9173,19,26,35,,,7
2001,13,0.898299958013,62,8396,4,26,31,,,1
2001,14,0.969960115931,68,8219,13,24,28,,,3
2001,15,0.697676685892,49,7319,5,22,20,,,2
2001,16,0.601854049417,43,7681,10,15,18,,,0
2001,17,0.834769295916,43,6637,12,8,22,,,1
2001,18,0.74299321455,34,6637,11,9,10,,,4
2001,19,0.668031007747,35,6419,9,10,11,,,5
2001,20,1.05693230431,35,4550,8,8,16,,,3
