year,ew,wili,num_ili,num_patients,age_0,age_1,age_2,age_3,age_4,age_5
2015,21,0.253158,30,8643,12,6,,6,1,5
2015,22,0.251815,27,8282,7,8,,4,0,8
2015,23,0.212758,27,8743,4,7,,9,4,3
2015,24,0.229008,27,8836,6,5,,7,5,4
2015,25,0.382385,41,8713,12,6,,11,6,6
2015,26,0.298164,24,7735,4,7,,7,3,3
2015,27,0.115022,14,8368,2,3,,6,2,1
2015,28,0.290084,25,8232,3,9,,5,5,3
2015,29,0.228075,21,8203,2,7,,8,2,2
2015,30,0.213522,24,8251,2,9,,6,3,4
2015,31,0.280848,23,7733,4,4,,6,3,6
2015,32,0.116262,12,8226,2,2,,3,4,1
2015,33,0.283492,30,10362,4,8,,12,5,1
2015,34,0.212095,29,11010,5,16,,4,1,3
2015,35,0.180017,24,11488,4,5,,6,5,4
2015,36,0.315453,29,9105,7,7,,8,5,2
2015,37,0.526178,60,9716,13,21,,18,6,2
2015,38,0.684635,74,9220,12,23,,20,12,7
2015,39,1.02699,98,8917,22,37,,19,9,11
2015,40,0.873934,198,20672,46,77,,46,15,14
2015,41,0.887407,204,21999,43,74,,50,18,19
2015,42,1.12273,251,22388,63,89,,57,20,22
2015,43,0.854524,209,22558,45,70,,55,24,15
2015,44,1.15375,276,22555,65,89,,72,30,20
2015,45,1.20878,284,22410,78,107,,67,22,10
2015,46,1.05016,255,22085,63,91,,64,18,19
2015,47,1.31092,208,14485,48,66,,63,18,13
2015,48,0.95359,222,21097,49,85,,53,23,12
2015,49,0.912263,210,20553,54,72,,51,15,18
2015,50,1.19874,242,19332,59,90,,63,20,10
2015,51,1.39056,183,13049,51,51,,49,20,12
2015,52,1.55082,194,12590,40,52,,60,18,24
2016,1,1.41906,255,17922,62,55,,83,34,21
2016,2,1.1452,218,19054,37,78,,58,26,19
2016,3,1.15409,225,19084,66,93,,41,12,13
2016,4,1.175,268,21533,54,114,,66,22,12
2016,5,1.12489,252,19507,69,98,,59,15,11
2016,6,1.50883,332,21296,87,127,,75,35,8
2016,7,1.81036,416,21759,102,164,,95,33,22
2016,8,1.8449,441,22558,98,176,,104,43,20
2016,9,2.40642,541,21483,118,209,,131,50,33
2016,10,2.50362,583,21393,126,239,,127,60,31
2016,11,1.99971,401,18376,106,130,,114,34,17
2016,12,2.05839,418,19005,80,160,,114,36,28
2016,13,2.09375,399,18739,90,156,,88,44,21
2016,14,1.54483,338,19369,61,163,,69,26,19
2016,15,1.39301,316,20471,58,122,,81,36,19
2016,16,1.20827,262,20634,44,125,,59,16,18
2016,17,0.986163,201,19230,35,90,,51,16,9
2016,18,0.908619,180,18694,38,71,,41,16,14
2016,19,0.704888,140,17494,28,56,,38,11,7
2016,20,0.59335,75,12084,12,27,,22,8,6
