year,ew,wili,actual_ew
1998.0,1.0,0.3902037,21.0
1998.0,2.0,0.3902037,22.0
1998.0,3.0,0.3902037,23.0
1998.0,4.0,0.3902037,24.0
1998.0,5.0,0.3902037,25.0
1998.0,6.0,0.3902037,26.0
1998.0,7.0,0.3902037,27.0
1998.0,8.0,0.3902037,28.0
1998.0,9.0,0.3902037,29.0
1998.0,10.0,0.3902037,30.0
1998.0,11.0,0.3902037,31.0
1998.0,12.0,0.3902037,32.0
1998.0,13.0,0.3902037,33.0
1998.0,14.0,0.3902037,34.0
1998.0,15.0,0.3902037,35.0
1998.0,16.0,0.3902037,36.0
1998.0,17.0,0.3902037,37.0
1998.0,18.0,0.3902037,38.0
1998.0,19.0,0.3902037,39.0
1998.0,20.0,0.3902037,40.0
1998.0,21.0,0.7657268,41.0
1998.0,22.0,0.6865998,42.0
1998.0,23.0,0.9747335,43.0
1998.0,24.0,0.9169993,44.0
1998.0,25.0,1.34633,45.0
1998.0,26.0,1.668571,46.0
1998.0,27.0,1.69713,47.0
1998.0,28.0,1.208067,48.0
1998.0,29.0,1.319816,49.0
1998.0,30.0,1.496432,50.0
1998.0,31.0,1.834587,51.0
1998.0,32.0,1.514821,52.0
1999.0,33.0,1.450553,1.0
1999.0,34.0,2.279866,2.0
1999.0,35.0,3.460606,3.0
1999.0,36.0,3.758756,4.0
1999.0,37.0,4.26878,5.0
1999.0,38.0,3.783486,6.0
1999.0,39.0,3.386505,7.0
1999.0,40.0,3.652844,8.0
1999.0,41.0,3.243585,9.0
1999.0,42.0,3.425675,10.0
1999.0,43.0,2.340255,11.0
1999.0,44.0,1.722766,12.0
1999.0,45.0,1.296968,13.0
1999.0,46.0,0.7866247,14.0
1999.0,47.0,0.3661018,15.0
1999.0,48.0,0.3758528,16.0
1999.0,49.0,0.2506197,17.0
1999.0,50.0,0.2064647,18.0
1999.0,51.0,0.2556085,19.0
1999.0,52.0,0.1672733,20.0
