year,ew,wili,actual_ew
2001.0,1.0,0.6460347,21.0
2001.0,2.0,0.6460347,22.0
2001.0,3.0,0.6460347,23.0
2001.0,4.0,0.6460347,24.0
2001.0,5.0,0.6460347,25.0
2001.0,6.0,0.6460347,26.0
2001.0,7.0,0.6460347,27.0
2001.0,8.0,0.6460347,28.0
2001.0,9.0,0.6460347,29.0
2001.0,10.0,0.6460347,30.0
2001.0,11.0,0.6460347,31.0
2001.0,12.0,0.6460347,32.0
2001.0,13.0,0.6460347,33.0
2001.0,14.0,0.6460347,34.0
2001.0,15.0,0.6460347,35.0
2001.0,16.0,0.6460347,36.0
2001.0,17.0,0.6460347,37.0
2001.0,18.0,0.6460347,38.0
2001.0,19.0,0.6460347,39.0
2001.0,20.0,0.6460347,40.0
2001.0,21.0,0.8284377,41.0
2001.0,22.0,0.7941977,42.0
2001.0,23.0,0.8291523,43.0
2001.0,24.0,1.532444,44.0
2001.0,25.0,1.080089,45.0
2001.0,26.0,0.9133531,46.0
2001.0,27.0,0.885537,47.0
2001.0,28.0,0.8771317,48.0
2001.0,29.0,0.7314794,49.0
2001.0,30.0,0.6400635,50.0
2001.0,31.0,0.7943674,51.0
2001.0,32.0,1.25546,52.0
2002.0,33.0,1.125699,1.0
2002.0,34.0,1.435728,2.0
2002.0,35.0,1.911742,3.0
2002.0,36.0,2.46943,4.0
2002.0,37.0,1.937555,5.0
2002.0,38.0,1.949382,6.0
2002.0,39.0,2.248798,7.0
2002.0,40.0,2.149984,8.0
2002.0,41.0,2.031138,9.0
2002.0,42.0,1.531529,10.0
2002.0,43.0,1.07926,11.0
2002.0,44.0,0.7444238,12.0
2002.0,45.0,0.5255011,13.0
2002.0,46.0,0.6293245,14.0
2002.0,47.0,0.3167836,15.0
2002.0,48.0,0.3312873,16.0
2002.0,49.0,0.3940745,17.0
2002.0,50.0,0.2087753,18.0
2002.0,51.0,0.3424719,19.0
2002.0,52.0,0.1928647,20.0
