year,ew,wili,actual_ew
2003,1.0,0.7956122,21
2003,2.0,0.4765587,22
2003,3.0,0.394891,23
2003,4.0,0.5218863,24
2003,5.0,0.3958016,25
2003,6.0,0.3592118,26
2003,7.0,0.2486858,27
2003,8.0,0.3088151,28
2003,9.0,0.4084377,29
2003,10.0,0.4357646,30
2003,11.0,0.2457559,31
2003,12.0,0.3749091,32
2003,13.0,0.3137233,33
2003,14.0,0.3198524,34
2003,15.0,0.3651987,35
2003,16.0,0.4350271,36
2003,17.0,0.2610221,37
2003,18.0,0.2273059,38
2003,19.0,0.3296337,39
2003,20.0,0.8243263,40
2003,21.0,0.9082531,41
2003,22.0,0.9857393,42
2003,23.0,0.9084804,43
2003,24.0,1.219291,44
2003,25.0,1.409875,45
2003,26.0,1.64427,46
2003,27.0,1.927564,47
2003,28.0,2.75581,48
2003,29.0,4.05395,49
2003,30.0,6.144556,50
2003,31.0,6.856882,51
2003,32.0,7.13579,52
2004,33.0,2.626605,1
2004,34.0,1.810256,2
2004,35.0,1.732826,3
2004,36.0,1.601645,4
2004,37.0,1.236927,5
2004,38.0,1.028362,6
2004,39.0,1.112022,7
2004,40.0,0.7901339,8
2004,41.0,0.8452223,9
2004,42.0,0.7704541,10
2004,43.0,0.8072196,11
2004,44.0,0.5504629,12
2004,45.0,0.4327868,13
2004,46.0,0.5009582,14
2004,47.0,0.4923285,15
2004,48.0,0.4698856,16
2004,49.0,0.38333,17
2004,50.0,0.4175483,18
2004,51.0,0.4822592,19
2004,52.0,0.4871817,20
