year,ew,wili,actual_ew
2014,1.0,0.8188956,21
2014,2.0,0.7221242,22
2014,3.0,0.7500431,23
2014,4.0,0.6874147,24
2014,5.0,0.6166208,25
2014,6.0,0.5701942,26
2014,7.0,0.5806677,27
2014,8.0,0.5148327,28
2014,9.0,0.5161997,29
2014,10.0,0.5424907,30
2014,11.0,0.5185032,31
2014,12.0,0.5562618,32
2014,13.0,0.5246152,33
2014,14.0,0.5738398,34
2014,15.0,0.6408113,35
2014,16.0,0.7128543,36
2014,17.0,0.7590523,37
2014,18.0,0.7910983,38
2014,19.0,0.8667458,39
2014,20.0,0.8332792,40
2014,21.0,1.110801,41
2014,22.0,1.130029,42
2014,23.0,1.317231,43
2014,24.0,1.315939,44
2014,25.0,1.472906,45
2014,26.0,1.686105,46
2014,27.0,2.191465,47
2014,28.0,3.048811,48
2014,29.0,2.91171,49
2014,30.0,3.78694,50
2014,31.0,5.68279,51
2014,32.0,7.513176,52
2015,33.0,3.460174,1
2015,34.0,3.003615,2
2015,35.0,3.341965,3
2015,36.0,3.053494,4
2015,37.0,2.841481,5
2015,38.0,2.610629,6
2015,39.0,2.584031,7
2015,40.0,2.371494,8
2015,41.0,2.250635,9
2015,42.0,1.889955,10
2015,43.0,1.452369,11
2015,44.0,1.368225,12
2015,45.0,1.31223,13
2015,46.0,1.110535,14
2015,47.0,0.9325482,15
2015,48.0,0.9174616,16
2015,49.0,0.9662872,17
2015,50.0,0.9445359,18
2015,51.0,1.004628,19
2015,52.0,0.9192984,20
