year,ew,wili,actual_ew
2000.0,1.0,1.632686,21.0
2000.0,2.0,1.632686,22.0
2000.0,3.0,1.632686,23.0
2000.0,4.0,1.632686,24.0
2000.0,5.0,1.632686,25.0
2000.0,6.0,1.632686,26.0
2000.0,7.0,1.632686,27.0
2000.0,8.0,1.632686,28.0
2000.0,9.0,1.632686,29.0
2000.0,10.0,1.632686,30.0
2000.0,11.0,1.632686,31.0
2000.0,12.0,1.632686,32.0
2000.0,13.0,1.632686,33.0
2000.0,14.0,1.632686,34.0
2000.0,15.0,1.632686,35.0
2000.0,16.0,1.632686,36.0
2000.0,17.0,1.632686,37.0
2000.0,18.0,1.632686,38.0
2000.0,19.0,1.632686,39.0
2000.0,20.0,1.632686,40.0
2000.0,21.0,1.713848,41.0
2000.0,22.0,1.14133,42.0
2000.0,23.0,1.418786,43.0
2000.0,24.0,0.608996,44.0
2000.0,25.0,1.375093,45.0
2000.0,26.0,1.428605,46.0
2000.0,27.0,2.099845,47.0
2000.0,28.0,0.7517472,48.0
2000.0,29.0,1.428387,49.0
2000.0,30.0,1.787286,50.0
2000.0,31.0,1.286814,51.0
2000.0,32.0,2.089039,52.0
2001.0,33.0,1.419937,1.0
2001.0,34.0,2.392539,2.0
2001.0,35.0,3.722164,3.0
2001.0,36.0,3.950704,4.0
2001.0,37.0,3.568656,5.0
2001.0,38.0,3.066512,6.0
2001.0,39.0,1.980551,7.0
2001.0,40.0,2.14513,8.0
2001.0,41.0,1.638718,9.0
2001.0,42.0,1.466685,10.0
2001.0,43.0,0.8589324,11.0
2001.0,44.0,0.9914194,12.0
2001.0,45.0,0.9016668,13.0
2001.0,46.0,0.9670141,14.0
2001.0,47.0,0.6989393,15.0
2001.0,48.0,0.6026958,16.0
2001.0,49.0,0.8337172,17.0
2001.0,50.0,0.7427828,18.0
2001.0,51.0,0.6686623,19.0
2001.0,52.0,1.056722,20.0
