year,ew,wili,actual_ew
2001.0,1.0,1.555534,21.0
2001.0,2.0,1.555534,22.0
2001.0,3.0,1.555534,23.0
2001.0,4.0,1.555534,24.0
2001.0,5.0,1.555534,25.0
2001.0,6.0,1.555534,26.0
2001.0,7.0,1.555534,27.0
2001.0,8.0,1.555534,28.0
2001.0,9.0,1.555534,29.0
2001.0,10.0,1.555534,30.0
2001.0,11.0,1.555534,31.0
2001.0,12.0,1.555534,32.0
2001.0,13.0,1.555534,33.0
2001.0,14.0,1.555534,34.0
2001.0,15.0,1.555534,35.0
2001.0,16.0,1.555534,36.0
2001.0,17.0,1.555534,37.0
2001.0,18.0,1.555534,38.0
2001.0,19.0,1.555534,39.0
2001.0,20.0,1.555534,40.0
2001.0,21.0,1.248476,41.0
2001.0,22.0,1.257813,42.0
2001.0,23.0,1.263764,43.0
2001.0,24.0,1.605996,44.0
2001.0,25.0,1.454421,45.0
2001.0,26.0,1.397157,46.0
2001.0,27.0,1.809359,47.0
2001.0,28.0,1.38558,48.0
2001.0,29.0,1.100882,49.0
2001.0,30.0,1.123656,50.0
2001.0,31.0,1.374014,51.0
2001.0,32.0,1.264278,52.0
2002.0,33.0,1.348014,1.0
2002.0,34.0,1.789005,2.0
2002.0,35.0,2.339099,3.0
2002.0,36.0,2.903773,4.0
2002.0,37.0,3.632037,5.0
2002.0,38.0,4.337371,6.0
2002.0,39.0,4.928779,7.0
2002.0,40.0,4.053032,8.0
2002.0,41.0,3.356257,9.0
2002.0,42.0,2.982091,10.0
2002.0,43.0,1.909038,11.0
2002.0,44.0,1.570871,12.0
2002.0,45.0,1.101262,13.0
2002.0,46.0,1.340965,14.0
2002.0,47.0,1.059647,15.0
2002.0,48.0,1.050011,16.0
2002.0,49.0,0.8554183,17.0
2002.0,50.0,0.7245169,18.0
2002.0,51.0,0.9059568,19.0
2002.0,52.0,1.020321,20.0
