year,ew,wili,actual_ew
2015,1.0,0.2534034,21
2015,2.0,0.2510789,22
2015,3.0,0.2130034,23
2015,4.0,0.2302348,24
2015,5.0,0.3814036,25
2015,6.0,0.2966918,26
2015,7.0,0.1184571,27
2015,8.0,0.2866489,28
2015,9.0,0.2295472,29
2015,10.0,0.2149942,30
2015,11.0,0.2774129,31
2015,12.0,0.1201878,32
2015,13.0,0.2800569,33
2015,14.0,0.2140579,34
2015,15.0,0.1790356,35
2015,16.0,0.3174159,36
2015,17.0,0.5227429,37
2015,18.0,0.6885608,38
2015,19.0,1.023555,39
2015,20.0,0.8754062,40
2015,21.0,0.8888792,41
2015,22.0,1.119295,42
2015,23.0,0.8579591,43
2015,24.0,1.152278,44
2015,25.0,1.207308,45
2015,26.0,1.053595,46
2015,27.0,1.307485,47
2015,28.0,0.9550622,48
2015,29.0,0.9137352,49
2015,30.0,1.195305,50
2015,31.0,1.393995,51
2015,32.0,1.549348,52
2016,33.0,1.417588,1
2016,34.0,1.148144,2
2016,35.0,1.152618,3
2016,36.0,1.173528,4
2016,37.0,1.127834,5
2016,38.0,1.507358,6
2016,39.0,1.808888,7
2016,40.0,1.847844,8
2016,41.0,2.404948,9
2016,42.0,2.502148,10
2016,43.0,2.002654,11
2016,44.0,2.056918,12
2016,45.0,2.092278,13
2016,46.0,1.547774,14
2016,47.0,1.391538,15
2016,48.0,1.206798,16
2016,49.0,0.9893527,17
2016,50.0,0.90592,18
2016,51.0,0.7061148,19
2016,52.0,0.5931046,20
