year,ew,wili,actual_ew
2016,1.0,0.3227555,21
2016,2.0,0.3967883,22
2016,3.0,0.525549,23
2016,4.0,0.3123158,24
2016,5.0,0.3027237,25
2016,6.0,0.2971283,26
2016,7.0,0.3722893,27
2016,8.0,0.2656173,28
2016,9.0,0.1658583,29
2016,10.0,0.3216877,30
2016,11.0,0.2255563,31
2016,12.0,0.2757457,32
2016,13.0,0.1451893,33
2016,14.0,0.2802397,34
2016,15.0,0.3031613,35
2016,16.0,0.4254747,36
2016,17.0,0.2769403,37
2016,18.0,0.3570037,38
2016,19.0,0.2903383,39
2016,20.0,0.5969727,40
2016,21.0,0.6982643,41
2016,22.0,0.7756387,42
2016,23.0,0.6955053,43
2016,24.0,0.8410103,44
2016,25.0,0.9140023,45
2016,26.0,0.9721443,46
2016,27.0,1.425689,47
2016,28.0,1.391641,48
2016,29.0,1.265348,49
2016,30.0,1.269047,50
2016,31.0,1.758538,51
2016,32.0,2.692882,52
2017,33.0,2.905812,1
2017,34.0,2.756668,2
2017,35.0,3.466567,3
2017,36.0,4.566908,4
2017,37.0,5.529961,5
2017,38.0,6.356049,6
2017,39.0,4.922351,7
2017,40.0,4.039799,8
2017,41.0,2.831161,9
2017,42.0,2.763209,10
2017,43.0,2.394091,11
2017,44.0,2.037179,12
2017,45.0,1.693661,13
2017,46.0,1.364729,14
2017,47.0,0.9754703,15
2017,48.0,0.8486277,16
2017,49.0,0.7634608,17
2017,50.0,0.744112,18
2017,51.0,0.4407953,19
2017,52.0,0.3048735,20
