season,noise
2009-2010,4.35111095885e-05
2002-2003,1.74882931953e-06
2014-2015,2.49481476925e-05
2013-2014,3.72202809231e-07
2005-2006,3.60878161321e-07
2016-2017,8.28496729462e-06
2007-2008,2.12904338184e-06
1999-2000,9.11848608257e-05
2011-2012,1.70297593781e-07
2012-2013,7.85829969192e-06
2004-2005,3.24923485909e-07
2008-2009,0.000116294175705
2015-2016,5.61700988885e-06
2003-2004,1.97622440592e-06
2001-2002,2.10208128241e-05
1997-1998,1.06416473435e-05
2006-2007,3.27818403069e-07
2010-2011,1.01030248023e-08
2000-2001,6.29060354189e-06
1998-1999,0.000262703048426
