Location,Target,Type,Unit,Bin_start_incl,Bin_end_notincl,Value
HHS Region 3,Season onset,Point,week,,,51.0
HHS Region 3,Season onset,Bin,week,40,41,7.6196619582e-24
HHS Region 3,Season onset,Bin,week,41,42,1.12851220742e-19
HHS Region 3,Season onset,Bin,week,42,43,6.21983198587e-16
HHS Region 3,Season onset,Bin,week,43,44,1.27919044783e-12
HHS Region 3,Season onset,Bin,week,44,45,9.85307832494e-10
HHS Region 3,Season onset,Bin,week,45,46,2.85664984234e-07
HHS Region 3,Season onset,Bin,week,46,47,3.13845902612e-05
HHS Region 3,Season onset,Bin,week,47,48,0.0013182267898
HHS Region 3,Season onset,Bin,week,48,49,0.0214002339165
HHS Region 3,Season onset,Bin,week,49,50,0.135905121983
HHS Region 3,Season onset,Bin,week,50,51,0.341344746069
HHS Region 3,Season onset,Bin,week,51,52,0.341344746069
HHS Region 3,Season onset,Bin,week,52,53,0.135905121983
HHS Region 3,Season onset,Bin,week,1,2,0.0214002339165
HHS Region 3,Season onset,Bin,week,2,3,0.0013182267898
HHS Region 3,Season onset,Bin,week,3,4,3.13845902612e-05
HHS Region 3,Season onset,Bin,week,4,5,2.85664984223e-07
HHS Region 3,Season onset,Bin,week,5,6,9.85307835322e-10
HHS Region 3,Season onset,Bin,week,6,7,1.27919896897e-12
HHS Region 3,Season onset,Bin,week,7,8,6.66133814775e-16
HHS Region 3,Season onset,Bin,week,8,9,0.0
HHS Region 3,Season onset,Bin,week,9,10,0.0
HHS Region 3,Season onset,Bin,week,10,11,0.0
HHS Region 3,Season onset,Bin,week,11,12,0.0
HHS Region 3,Season onset,Bin,week,12,13,0.0
HHS Region 3,Season onset,Bin,week,13,14,0.0
HHS Region 3,Season onset,Bin,week,14,15,0.0
HHS Region 3,Season onset,Bin,week,15,16,0.0
HHS Region 3,Season onset,Bin,week,16,17,0.0
HHS Region 3,Season onset,Bin,week,17,18,0.0
HHS Region 3,Season onset,Bin,week,18,19,0.0
HHS Region 3,Season onset,Bin,week,19,20,0.0
HHS Region 3,Season onset,Bin,week,20,21,0.029411765
HHS Region 3,Season onset,Bin,week,none,none,0.029411765
HHS Region 3,Season peak week,Point,week,,,51.0
HHS Region 3,Season peak week,Bin,week,40,41,0.00468372508521
HHS Region 3,Season peak week,Bin,week,41,42,0.00703084315054
HHS Region 3,Season peak week,Bin,week,42,43,0.0102150826305
HHS Region 3,Season peak week,Bin,week,43,44,0.0143646439725
HHS Region 3,Season peak week,Bin,week,44,45,0.0195508840349
HHS Region 3,Season peak week,Bin,week,45,46,0.0257547016126
HHS Region 3,Season peak week,Bin,week,46,47,0.0328371358699
HHS Region 3,Season peak week,Bin,week,47,48,0.0405221679668
HHS Region 3,Season peak week,Bin,week,48,49,0.0483992639047
HHS Region 3,Season peak week,Bin,week,49,50,0.0559504450009
HHS Region 3,Season peak week,Bin,week,50,51,0.0626018339268
HHS Region 3,Season peak week,Bin,week,51,52,0.0677936948232
HHS Region 3,Season peak week,Bin,week,52,53,0.0710575613914
HHS Region 3,Season peak week,Bin,week,1,2,0.072085853822
HHS Region 3,Season peak week,Bin,week,2,3,0.0707796726101
HHS Region 3,Season peak week,Bin,week,3,4,0.0672644823925
HHS Region 3,Season peak week,Bin,week,4,5,0.0618702407144
HHS Region 3,Season peak week,Bin,week,5,6,0.0550803310945
HHS Region 3,Season peak week,Bin,week,6,7,0.0474602475682
HHS Region 3,Season peak week,Bin,week,7,8,0.0395805803895
HHS Region 3,Season peak week,Bin,week,8,9,0.0319486856202
HHS Region 3,Season peak week,Bin,week,9,10,0.024959879546
HHS Region 3,Season peak week,Bin,week,10,11,0.0188734195802
HHS Region 3,Season peak week,Bin,week,11,12,0.0138126589876
HHS Region 3,Season peak week,Bin,week,12,13,0.00978413712552
HHS Region 3,Season peak week,Bin,week,13,14,0.00670789528074
HHS Region 3,Season peak week,Bin,week,14,15,0.00445111148993
HHS Region 3,Season peak week,Bin,week,15,16,0.00285870324466
HHS Region 3,Season peak week,Bin,week,16,17,0.00177700244378
HHS Region 3,Season peak week,Bin,week,17,18,0.00106911707203
HHS Region 3,Season peak week,Bin,week,18,19,0.000622559306835
HHS Region 3,Season peak week,Bin,week,19,20,0.000350876557961
HHS Region 3,Season peak week,Bin,week,20,21,0.03030303
HHS Region 3,Season peak percentage,Point,percent,,,1.5
HHS Region 3,Season peak percentage,Bin,percent,0,0.1,0.007633588
HHS Region 3,Season peak percentage,Bin,percent,0.1,0.2,2.72956966504e-14
HHS Region 3,Season peak percentage,Bin,percent,0.2,0.3,1.21475183902e-13
HHS Region 3,Season peak percentage,Bin,percent,0.3,0.4,5.19470875413e-13
HHS Region 3,Season peak percentage,Bin,percent,0.4,0.5,2.13459448627e-12
HHS Region 3,Season peak percentage,Bin,percent,0.5,0.6,8.42850181665e-12
HHS Region 3,Season peak percentage,Bin,percent,0.6,0.7,3.19791180618e-11
HHS Region 3,Season peak percentage,Bin,percent,0.7,0.8,1.16590709406e-10
HHS Region 3,Season peak percentage,Bin,percent,0.8,0.9,4.08453888483e-10
HHS Region 3,Season peak percentage,Bin,percent,0.9,1,1.37500415109e-09
HHS Region 3,Season peak percentage,Bin,percent,1,1.1,4.44781912952e-09
HHS Region 3,Season peak percentage,Bin,percent,1.1,1.2,1.38252376711e-08
HHS Region 3,Season peak percentage,Bin,percent,1.2,1.3,4.12934063289e-08
HHS Region 3,Season peak percentage,Bin,percent,1.3,1.4,1.18514546723e-07
HHS Region 3,Season peak percentage,Bin,percent,1.4,1.5,3.26847885827e-07
HHS Region 3,Season peak percentage,Bin,percent,1.5,1.6,8.66169699618e-07
HHS Region 3,Season peak percentage,Bin,percent,1.6,1.7,2.20568652616e-06
HHS Region 3,Season peak percentage,Bin,percent,1.7,1.8,5.39719726147e-06
HHS Region 3,Season peak percentage,Bin,percent,1.8,1.9,1.26904401402e-05
HHS Region 3,Season peak percentage,Bin,percent,1.9,2,2.8672737437e-05
HHS Region 3,Season peak percentage,Bin,percent,2,2.1,6.22509364521e-05
HHS Region 3,Season peak percentage,Bin,percent,2.1,2.2,0.000129869464456
HHS Region 3,Season peak percentage,Bin,percent,2.2,2.3,0.000260347134989
HHS Region 3,Season peak percentage,Bin,percent,2.3,2.4,0.000501514279924
HHS Region 3,Season peak percentage,Bin,percent,2.4,2.5,0.000928322118642
HHS Region 3,Season peak percentage,Bin,percent,2.5,2.6,0.00165119789225
HHS Region 3,Season peak percentage,Bin,percent,2.6,2.7,0.00282218003489
HHS Region 3,Season peak percentage,Bin,percent,2.7,2.8,0.00463506243349
HHS Region 3,Season peak percentage,Bin,percent,2.8,2.9,0.0073149583525
HHS Region 3,Season peak percentage,Bin,percent,2.9,3,0.0110931178639
HHS Region 3,Season peak percentage,Bin,percent,3,3.1,0.0161651966472
HHS Region 3,Season peak percentage,Bin,percent,3.1,3.2,0.0226357056703
HHS Region 3,Season peak percentage,Bin,percent,3.2,3.3,0.0304574011187
HHS Region 3,Season peak percentage,Bin,percent,3.3,3.4,0.0393801598322
HHS Region 3,Season peak percentage,Bin,percent,3.4,3.5,0.0489269329206
HHS Region 3,Season peak percentage,Bin,percent,3.5,3.6,0.0584123186408
HHS Region 3,Season peak percentage,Bin,percent,3.6,3.7,0.0670111199348
HHS Region 3,Season peak percentage,Bin,percent,3.7,3.8,0.0738712274794
HHS Region 3,Season peak percentage,Bin,percent,3.8,3.9,0.0782509801486
HHS Region 3,Season peak percentage,Bin,percent,3.9,4,0.0796508291833
HHS Region 3,Season peak percentage,Bin,percent,4,4.1,0.0779070688914
HHS Region 3,Season peak percentage,Bin,percent,4.1,4.2,0.0732233295011
HHS Region 3,Season peak percentage,Bin,percent,4.2,4.3,0.0661314597594
HHS Region 3,Season peak percentage,Bin,percent,4.3,4.4,0.0573921839873
HHS Region 3,Season peak percentage,Bin,percent,4.4,4.5,0.0478611761489
HHS Region 3,Season peak percentage,Bin,percent,4.5,4.6,0.038353050568
HHS Region 3,Season peak percentage,Bin,percent,4.6,4.7,0.0295326446086
HHS Region 3,Season peak percentage,Bin,percent,4.7,4.8,0.0218519694695
HHS Region 3,Season peak percentage,Bin,percent,4.8,4.9,0.0155369075469
HHS Region 3,Season peak percentage,Bin,percent,4.9,5,0.0106151039187
HHS Region 3,Season peak percentage,Bin,percent,5,5.1,0.00696898458573
HHS Region 3,Season peak percentage,Bin,percent,5.1,5.2,0.00439643085122
HHS Region 3,Season peak percentage,Bin,percent,5.2,5.3,0.00266511757892
HHS Region 3,Season peak percentage,Bin,percent,5.3,5.4,0.00155245053577
HHS Region 3,Season peak percentage,Bin,percent,5.4,5.5,0.000868969068331
HHS Region 3,Season peak percentage,Bin,percent,5.5,5.6,0.000467386195741
HHS Region 3,Season peak percentage,Bin,percent,5.6,5.7,0.000241564061761
HHS Region 3,Season peak percentage,Bin,percent,5.7,5.8,0.000119970231319
HHS Region 3,Season peak percentage,Bin,percent,5.8,5.9,5.72531312716e-05
HHS Region 3,Season peak percentage,Bin,percent,5.9,6,2.62548416109e-05
HHS Region 3,Season peak percentage,Bin,percent,6,6.1,1.15692125556e-05
HHS Region 3,Season peak percentage,Bin,percent,6.1,6.2,4.89871593934e-06
HHS Region 3,Season peak percentage,Bin,percent,6.2,6.3,1.99317111549e-06
HHS Region 3,Season peak percentage,Bin,percent,6.3,6.4,7.79274722085e-07
HHS Region 3,Season peak percentage,Bin,percent,6.4,6.5,2.92765613974e-07
HHS Region 3,Season peak percentage,Bin,percent,6.5,6.6,1.05689734409e-07
HHS Region 3,Season peak percentage,Bin,percent,6.6,6.7,3.66630501514e-08
HHS Region 3,Season peak percentage,Bin,percent,6.7,6.8,1.22210128684e-08
HHS Region 3,Season peak percentage,Bin,percent,6.8,6.9,3.91442878112e-09
HHS Region 3,Season peak percentage,Bin,percent,6.9,7,1.20479171084e-09
HHS Region 3,Season peak percentage,Bin,percent,7,7.1,3.56317864103e-10
HHS Region 3,Season peak percentage,Bin,percent,7.1,7.2,1.01261665719e-10
HHS Region 3,Season peak percentage,Bin,percent,7.2,7.3,2.76525469189e-11
HHS Region 3,Season peak percentage,Bin,percent,7.3,7.4,7.25608462204e-12
HHS Region 3,Season peak percentage,Bin,percent,7.4,7.5,1.82953652228e-12
HHS Region 3,Season peak percentage,Bin,percent,7.5,7.6,4.43312053733e-13
HHS Region 3,Season peak percentage,Bin,percent,7.6,7.7,1.0325074129e-13
HHS Region 3,Season peak percentage,Bin,percent,7.7,7.8,2.30926389122e-14
HHS Region 3,Season peak percentage,Bin,percent,7.8,7.9,4.99600361081e-15
HHS Region 3,Season peak percentage,Bin,percent,7.9,8,9.99200722163e-16
HHS Region 3,Season peak percentage,Bin,percent,8,8.1,2.22044604925e-16
HHS Region 3,Season peak percentage,Bin,percent,8.1,8.2,0.0
HHS Region 3,Season peak percentage,Bin,percent,8.2,8.3,0.0
HHS Region 3,Season peak percentage,Bin,percent,8.3,8.4,0.0
HHS Region 3,Season peak percentage,Bin,percent,8.4,8.5,0.0
HHS Region 3,Season peak percentage,Bin,percent,8.5,8.6,0.0
HHS Region 3,Season peak percentage,Bin,percent,8.6,8.7,0.0
HHS Region 3,Season peak percentage,Bin,percent,8.7,8.8,0.0
HHS Region 3,Season peak percentage,Bin,percent,8.8,8.9,0.0
HHS Region 3,Season peak percentage,Bin,percent,8.9,9,0.0
HHS Region 3,Season peak percentage,Bin,percent,9,9.1,0.0
HHS Region 3,Season peak percentage,Bin,percent,9.1,9.2,0.0
HHS Region 3,Season peak percentage,Bin,percent,9.2,9.3,0.0
HHS Region 3,Season peak percentage,Bin,percent,9.3,9.4,0.0
HHS Region 3,Season peak percentage,Bin,percent,9.4,9.5,0.0
HHS Region 3,Season peak percentage,Bin,percent,9.5,9.6,0.0
HHS Region 3,Season peak percentage,Bin,percent,9.6,9.7,0.0
HHS Region 3,Season peak percentage,Bin,percent,9.7,9.8,0.0
HHS Region 3,Season peak percentage,Bin,percent,9.8,9.9,0.0
HHS Region 3,Season peak percentage,Bin,percent,9.9,10,0.0
HHS Region 3,Season peak percentage,Bin,percent,10,10.1,0.0
HHS Region 3,Season peak percentage,Bin,percent,10.1,10.2,0.0
HHS Region 3,Season peak percentage,Bin,percent,10.2,10.3,0.0
HHS Region 3,Season peak percentage,Bin,percent,10.3,10.4,0.0
HHS Region 3,Season peak percentage,Bin,percent,10.4,10.5,0.0
HHS Region 3,Season peak percentage,Bin,percent,10.5,10.6,0.0
HHS Region 3,Season peak percentage,Bin,percent,10.6,10.7,0.0
HHS Region 3,Season peak percentage,Bin,percent,10.7,10.8,0.0
HHS Region 3,Season peak percentage,Bin,percent,10.8,10.9,0.0
HHS Region 3,Season peak percentage,Bin,percent,10.9,11,0.0
HHS Region 3,Season peak percentage,Bin,percent,11,11.1,0.0
HHS Region 3,Season peak percentage,Bin,percent,11.1,11.2,0.0
HHS Region 3,Season peak percentage,Bin,percent,11.2,11.3,0.0
HHS Region 3,Season peak percentage,Bin,percent,11.3,11.4,0.0
HHS Region 3,Season peak percentage,Bin,percent,11.4,11.5,0.0
HHS Region 3,Season peak percentage,Bin,percent,11.5,11.6,0.0
HHS Region 3,Season peak percentage,Bin,percent,11.6,11.7,0.0
HHS Region 3,Season peak percentage,Bin,percent,11.7,11.8,0.0
HHS Region 3,Season peak percentage,Bin,percent,11.8,11.9,0.0
HHS Region 3,Season peak percentage,Bin,percent,11.9,12,0.0
HHS Region 3,Season peak percentage,Bin,percent,12,12.1,0.0
HHS Region 3,Season peak percentage,Bin,percent,12.1,12.2,0.0
HHS Region 3,Season peak percentage,Bin,percent,12.2,12.3,0.0
HHS Region 3,Season peak percentage,Bin,percent,12.3,12.4,0.0
HHS Region 3,Season peak percentage,Bin,percent,12.4,12.5,0.0
HHS Region 3,Season peak percentage,Bin,percent,12.5,12.6,0.0
HHS Region 3,Season peak percentage,Bin,percent,12.6,12.7,0.0
HHS Region 3,Season peak percentage,Bin,percent,12.7,12.8,0.0
HHS Region 3,Season peak percentage,Bin,percent,12.8,12.9,0.0
HHS Region 3,Season peak percentage,Bin,percent,12.9,13,0.0
HHS Region 3,Season peak percentage,Bin,percent,13,100,0.0
HHS Region 3,1 wk ahead,Point,percent,,,1.5
HHS Region 3,1 wk ahead,Bin,percent,0,0.1,0.007633588
HHS Region 3,1 wk ahead,Bin,percent,0.1,0.2,0.007633588
HHS Region 3,1 wk ahead,Bin,percent,0.2,0.3,0.007633588
HHS Region 3,1 wk ahead,Bin,percent,0.3,0.4,0.007633588
HHS Region 3,1 wk ahead,Bin,percent,0.4,0.5,0.007633588
HHS Region 3,1 wk ahead,Bin,percent,0.5,0.6,0.007633588
HHS Region 3,1 wk ahead,Bin,percent,0.6,0.7,0.007633588
HHS Region 3,1 wk ahead,Bin,percent,0.7,0.8,0.007633588
HHS Region 3,1 wk ahead,Bin,percent,0.8,0.9,0.007633588
HHS Region 3,1 wk ahead,Bin,percent,0.9,1,0.007633588
HHS Region 3,1 wk ahead,Bin,percent,1,1.1,0.007633588
HHS Region 3,1 wk ahead,Bin,percent,1.1,1.2,0.007633588
HHS Region 3,1 wk ahead,Bin,percent,1.2,1.3,0.007633588
HHS Region 3,1 wk ahead,Bin,percent,1.3,1.4,0.007633588
HHS Region 3,1 wk ahead,Bin,percent,1.4,1.5,0.007633588
HHS Region 3,1 wk ahead,Bin,percent,1.5,1.6,0.007633588
HHS Region 3,1 wk ahead,Bin,percent,1.6,1.7,0.007633588
HHS Region 3,1 wk ahead,Bin,percent,1.7,1.8,0.007633588
HHS Region 3,1 wk ahead,Bin,percent,1.8,1.9,0.007633588
HHS Region 3,1 wk ahead,Bin,percent,1.9,2,0.007633588
HHS Region 3,1 wk ahead,Bin,percent,2,2.1,0.007633588
HHS Region 3,1 wk ahead,Bin,percent,2.1,2.2,0.007633588
HHS Region 3,1 wk ahead,Bin,percent,2.2,2.3,0.007633588
HHS Region 3,1 wk ahead,Bin,percent,2.3,2.4,0.007633588
HHS Region 3,1 wk ahead,Bin,percent,2.4,2.5,0.007633588
HHS Region 3,1 wk ahead,Bin,percent,2.5,2.6,0.007633588
HHS Region 3,1 wk ahead,Bin,percent,2.6,2.7,0.007633588
HHS Region 3,1 wk ahead,Bin,percent,2.7,2.8,0.007633588
HHS Region 3,1 wk ahead,Bin,percent,2.8,2.9,0.007633588
HHS Region 3,1 wk ahead,Bin,percent,2.9,3,0.007633588
HHS Region 3,1 wk ahead,Bin,percent,3,3.1,0.007633588
HHS Region 3,1 wk ahead,Bin,percent,3.1,3.2,0.007633588
HHS Region 3,1 wk ahead,Bin,percent,3.2,3.3,0.007633588
HHS Region 3,1 wk ahead,Bin,percent,3.3,3.4,0.007633588
HHS Region 3,1 wk ahead,Bin,percent,3.4,3.5,0.007633588
HHS Region 3,1 wk ahead,Bin,percent,3.5,3.6,0.007633588
HHS Region 3,1 wk ahead,Bin,percent,3.6,3.7,0.007633588
HHS Region 3,1 wk ahead,Bin,percent,3.7,3.8,0.007633588
HHS Region 3,1 wk ahead,Bin,percent,3.8,3.9,0.007633588
HHS Region 3,1 wk ahead,Bin,percent,3.9,4,0.007633588
HHS Region 3,1 wk ahead,Bin,percent,4,4.1,0.007633588
HHS Region 3,1 wk ahead,Bin,percent,4.1,4.2,0.007633588
HHS Region 3,1 wk ahead,Bin,percent,4.2,4.3,0.007633588
HHS Region 3,1 wk ahead,Bin,percent,4.3,4.4,0.007633588
HHS Region 3,1 wk ahead,Bin,percent,4.4,4.5,0.007633588
HHS Region 3,1 wk ahead,Bin,percent,4.5,4.6,0.007633588
HHS Region 3,1 wk ahead,Bin,percent,4.6,4.7,0.007633588
HHS Region 3,1 wk ahead,Bin,percent,4.7,4.8,0.007633588
HHS Region 3,1 wk ahead,Bin,percent,4.8,4.9,0.007633588
HHS Region 3,1 wk ahead,Bin,percent,4.9,5,0.007633588
HHS Region 3,1 wk ahead,Bin,percent,5,5.1,0.007633588
HHS Region 3,1 wk ahead,Bin,percent,5.1,5.2,0.007633588
HHS Region 3,1 wk ahead,Bin,percent,5.2,5.3,0.007633588
HHS Region 3,1 wk ahead,Bin,percent,5.3,5.4,0.007633588
HHS Region 3,1 wk ahead,Bin,percent,5.4,5.5,0.007633588
HHS Region 3,1 wk ahead,Bin,percent,5.5,5.6,0.007633588
HHS Region 3,1 wk ahead,Bin,percent,5.6,5.7,0.007633588
HHS Region 3,1 wk ahead,Bin,percent,5.7,5.8,0.007633588
HHS Region 3,1 wk ahead,Bin,percent,5.8,5.9,0.007633588
HHS Region 3,1 wk ahead,Bin,percent,5.9,6,0.007633588
HHS Region 3,1 wk ahead,Bin,percent,6,6.1,0.007633588
HHS Region 3,1 wk ahead,Bin,percent,6.1,6.2,0.007633588
HHS Region 3,1 wk ahead,Bin,percent,6.2,6.3,0.007633588
HHS Region 3,1 wk ahead,Bin,percent,6.3,6.4,0.007633588
HHS Region 3,1 wk ahead,Bin,percent,6.4,6.5,0.007633588
HHS Region 3,1 wk ahead,Bin,percent,6.5,6.6,0.007633588
HHS Region 3,1 wk ahead,Bin,percent,6.6,6.7,0.007633588
HHS Region 3,1 wk ahead,Bin,percent,6.7,6.8,0.007633588
HHS Region 3,1 wk ahead,Bin,percent,6.8,6.9,0.007633588
HHS Region 3,1 wk ahead,Bin,percent,6.9,7,0.007633588
HHS Region 3,1 wk ahead,Bin,percent,7,7.1,0.007633588
HHS Region 3,1 wk ahead,Bin,percent,7.1,7.2,0.007633588
HHS Region 3,1 wk ahead,Bin,percent,7.2,7.3,0.007633588
HHS Region 3,1 wk ahead,Bin,percent,7.3,7.4,0.007633588
HHS Region 3,1 wk ahead,Bin,percent,7.4,7.5,0.007633588
HHS Region 3,1 wk ahead,Bin,percent,7.5,7.6,0.007633588
HHS Region 3,1 wk ahead,Bin,percent,7.6,7.7,0.007633588
HHS Region 3,1 wk ahead,Bin,percent,7.7,7.8,0.007633588
HHS Region 3,1 wk ahead,Bin,percent,7.8,7.9,0.007633588
HHS Region 3,1 wk ahead,Bin,percent,7.9,8,0.007633588
HHS Region 3,1 wk ahead,Bin,percent,8,8.1,0.007633588
HHS Region 3,1 wk ahead,Bin,percent,8.1,8.2,0.007633588
HHS Region 3,1 wk ahead,Bin,percent,8.2,8.3,0.007633588
HHS Region 3,1 wk ahead,Bin,percent,8.3,8.4,0.007633588
HHS Region 3,1 wk ahead,Bin,percent,8.4,8.5,0.007633588
HHS Region 3,1 wk ahead,Bin,percent,8.5,8.6,0.007633588
HHS Region 3,1 wk ahead,Bin,percent,8.6,8.7,0.007633588
HHS Region 3,1 wk ahead,Bin,percent,8.7,8.8,0.007633588
HHS Region 3,1 wk ahead,Bin,percent,8.8,8.9,0.007633588
HHS Region 3,1 wk ahead,Bin,percent,8.9,9,0.007633588
HHS Region 3,1 wk ahead,Bin,percent,9,9.1,0.007633588
HHS Region 3,1 wk ahead,Bin,percent,9.1,9.2,0.007633588
HHS Region 3,1 wk ahead,Bin,percent,9.2,9.3,0.007633588
HHS Region 3,1 wk ahead,Bin,percent,9.3,9.4,0.007633588
HHS Region 3,1 wk ahead,Bin,percent,9.4,9.5,0.007633588
HHS Region 3,1 wk ahead,Bin,percent,9.5,9.6,0.007633588
HHS Region 3,1 wk ahead,Bin,percent,9.6,9.7,0.007633588
HHS Region 3,1 wk ahead,Bin,percent,9.7,9.8,0.007633588
HHS Region 3,1 wk ahead,Bin,percent,9.8,9.9,0.007633588
HHS Region 3,1 wk ahead,Bin,percent,9.9,10,0.007633588
HHS Region 3,1 wk ahead,Bin,percent,10,10.1,0.007633588
HHS Region 3,1 wk ahead,Bin,percent,10.1,10.2,0.007633588
HHS Region 3,1 wk ahead,Bin,percent,10.2,10.3,0.007633588
HHS Region 3,1 wk ahead,Bin,percent,10.3,10.4,0.007633588
HHS Region 3,1 wk ahead,Bin,percent,10.4,10.5,0.007633588
HHS Region 3,1 wk ahead,Bin,percent,10.5,10.6,0.007633588
HHS Region 3,1 wk ahead,Bin,percent,10.6,10.7,0.007633588
HHS Region 3,1 wk ahead,Bin,percent,10.7,10.8,0.007633588
HHS Region 3,1 wk ahead,Bin,percent,10.8,10.9,0.007633588
HHS Region 3,1 wk ahead,Bin,percent,10.9,11,0.007633588
HHS Region 3,1 wk ahead,Bin,percent,11,11.1,0.007633588
HHS Region 3,1 wk ahead,Bin,percent,11.1,11.2,0.007633588
HHS Region 3,1 wk ahead,Bin,percent,11.2,11.3,0.007633588
HHS Region 3,1 wk ahead,Bin,percent,11.3,11.4,0.007633588
HHS Region 3,1 wk ahead,Bin,percent,11.4,11.5,0.007633588
HHS Region 3,1 wk ahead,Bin,percent,11.5,11.6,0.007633588
HHS Region 3,1 wk ahead,Bin,percent,11.6,11.7,0.007633588
HHS Region 3,1 wk ahead,Bin,percent,11.7,11.8,0.007633588
HHS Region 3,1 wk ahead,Bin,percent,11.8,11.9,0.007633588
HHS Region 3,1 wk ahead,Bin,percent,11.9,12,0.007633588
HHS Region 3,1 wk ahead,Bin,percent,12,12.1,0.007633588
HHS Region 3,1 wk ahead,Bin,percent,12.1,12.2,0.007633588
HHS Region 3,1 wk ahead,Bin,percent,12.2,12.3,0.007633588
HHS Region 3,1 wk ahead,Bin,percent,12.3,12.4,0.007633588
HHS Region 3,1 wk ahead,Bin,percent,12.4,12.5,0.007633588
HHS Region 3,1 wk ahead,Bin,percent,12.5,12.6,0.007633588
HHS Region 3,1 wk ahead,Bin,percent,12.6,12.7,0.007633588
HHS Region 3,1 wk ahead,Bin,percent,12.7,12.8,0.007633588
HHS Region 3,1 wk ahead,Bin,percent,12.8,12.9,0.007633588
HHS Region 3,1 wk ahead,Bin,percent,12.9,13,0.007633588
HHS Region 3,1 wk ahead,Bin,percent,13,100,0.007633588
HHS Region 3,2 wk ahead,Point,percent,,,1.5
HHS Region 3,2 wk ahead,Bin,percent,0,0.1,0.007633588
HHS Region 3,2 wk ahead,Bin,percent,0.1,0.2,0.007633588
HHS Region 3,2 wk ahead,Bin,percent,0.2,0.3,0.007633588
HHS Region 3,2 wk ahead,Bin,percent,0.3,0.4,0.007633588
HHS Region 3,2 wk ahead,Bin,percent,0.4,0.5,0.007633588
HHS Region 3,2 wk ahead,Bin,percent,0.5,0.6,0.007633588
HHS Region 3,2 wk ahead,Bin,percent,0.6,0.7,0.007633588
HHS Region 3,2 wk ahead,Bin,percent,0.7,0.8,0.007633588
HHS Region 3,2 wk ahead,Bin,percent,0.8,0.9,0.007633588
HHS Region 3,2 wk ahead,Bin,percent,0.9,1,0.007633588
HHS Region 3,2 wk ahead,Bin,percent,1,1.1,0.007633588
HHS Region 3,2 wk ahead,Bin,percent,1.1,1.2,0.007633588
HHS Region 3,2 wk ahead,Bin,percent,1.2,1.3,0.007633588
HHS Region 3,2 wk ahead,Bin,percent,1.3,1.4,0.007633588
HHS Region 3,2 wk ahead,Bin,percent,1.4,1.5,0.007633588
HHS Region 3,2 wk ahead,Bin,percent,1.5,1.6,0.007633588
HHS Region 3,2 wk ahead,Bin,percent,1.6,1.7,0.007633588
HHS Region 3,2 wk ahead,Bin,percent,1.7,1.8,0.007633588
HHS Region 3,2 wk ahead,Bin,percent,1.8,1.9,0.007633588
HHS Region 3,2 wk ahead,Bin,percent,1.9,2,0.007633588
HHS Region 3,2 wk ahead,Bin,percent,2,2.1,0.007633588
HHS Region 3,2 wk ahead,Bin,percent,2.1,2.2,0.007633588
HHS Region 3,2 wk ahead,Bin,percent,2.2,2.3,0.007633588
HHS Region 3,2 wk ahead,Bin,percent,2.3,2.4,0.007633588
HHS Region 3,2 wk ahead,Bin,percent,2.4,2.5,0.007633588
HHS Region 3,2 wk ahead,Bin,percent,2.5,2.6,0.007633588
HHS Region 3,2 wk ahead,Bin,percent,2.6,2.7,0.007633588
HHS Region 3,2 wk ahead,Bin,percent,2.7,2.8,0.007633588
HHS Region 3,2 wk ahead,Bin,percent,2.8,2.9,0.007633588
HHS Region 3,2 wk ahead,Bin,percent,2.9,3,0.007633588
HHS Region 3,2 wk ahead,Bin,percent,3,3.1,0.007633588
HHS Region 3,2 wk ahead,Bin,percent,3.1,3.2,0.007633588
HHS Region 3,2 wk ahead,Bin,percent,3.2,3.3,0.007633588
HHS Region 3,2 wk ahead,Bin,percent,3.3,3.4,0.007633588
HHS Region 3,2 wk ahead,Bin,percent,3.4,3.5,0.007633588
HHS Region 3,2 wk ahead,Bin,percent,3.5,3.6,0.007633588
HHS Region 3,2 wk ahead,Bin,percent,3.6,3.7,0.007633588
HHS Region 3,2 wk ahead,Bin,percent,3.7,3.8,0.007633588
HHS Region 3,2 wk ahead,Bin,percent,3.8,3.9,0.007633588
HHS Region 3,2 wk ahead,Bin,percent,3.9,4,0.007633588
HHS Region 3,2 wk ahead,Bin,percent,4,4.1,0.007633588
HHS Region 3,2 wk ahead,Bin,percent,4.1,4.2,0.007633588
HHS Region 3,2 wk ahead,Bin,percent,4.2,4.3,0.007633588
HHS Region 3,2 wk ahead,Bin,percent,4.3,4.4,0.007633588
HHS Region 3,2 wk ahead,Bin,percent,4.4,4.5,0.007633588
HHS Region 3,2 wk ahead,Bin,percent,4.5,4.6,0.007633588
HHS Region 3,2 wk ahead,Bin,percent,4.6,4.7,0.007633588
HHS Region 3,2 wk ahead,Bin,percent,4.7,4.8,0.007633588
HHS Region 3,2 wk ahead,Bin,percent,4.8,4.9,0.007633588
HHS Region 3,2 wk ahead,Bin,percent,4.9,5,0.007633588
HHS Region 3,2 wk ahead,Bin,percent,5,5.1,0.007633588
HHS Region 3,2 wk ahead,Bin,percent,5.1,5.2,0.007633588
HHS Region 3,2 wk ahead,Bin,percent,5.2,5.3,0.007633588
HHS Region 3,2 wk ahead,Bin,percent,5.3,5.4,0.007633588
HHS Region 3,2 wk ahead,Bin,percent,5.4,5.5,0.007633588
HHS Region 3,2 wk ahead,Bin,percent,5.5,5.6,0.007633588
HHS Region 3,2 wk ahead,Bin,percent,5.6,5.7,0.007633588
HHS Region 3,2 wk ahead,Bin,percent,5.7,5.8,0.007633588
HHS Region 3,2 wk ahead,Bin,percent,5.8,5.9,0.007633588
HHS Region 3,2 wk ahead,Bin,percent,5.9,6,0.007633588
HHS Region 3,2 wk ahead,Bin,percent,6,6.1,0.007633588
HHS Region 3,2 wk ahead,Bin,percent,6.1,6.2,0.007633588
HHS Region 3,2 wk ahead,Bin,percent,6.2,6.3,0.007633588
HHS Region 3,2 wk ahead,Bin,percent,6.3,6.4,0.007633588
HHS Region 3,2 wk ahead,Bin,percent,6.4,6.5,0.007633588
HHS Region 3,2 wk ahead,Bin,percent,6.5,6.6,0.007633588
HHS Region 3,2 wk ahead,Bin,percent,6.6,6.7,0.007633588
HHS Region 3,2 wk ahead,Bin,percent,6.7,6.8,0.007633588
HHS Region 3,2 wk ahead,Bin,percent,6.8,6.9,0.007633588
HHS Region 3,2 wk ahead,Bin,percent,6.9,7,0.007633588
HHS Region 3,2 wk ahead,Bin,percent,7,7.1,0.007633588
HHS Region 3,2 wk ahead,Bin,percent,7.1,7.2,0.007633588
HHS Region 3,2 wk ahead,Bin,percent,7.2,7.3,0.007633588
HHS Region 3,2 wk ahead,Bin,percent,7.3,7.4,0.007633588
HHS Region 3,2 wk ahead,Bin,percent,7.4,7.5,0.007633588
HHS Region 3,2 wk ahead,Bin,percent,7.5,7.6,0.007633588
HHS Region 3,2 wk ahead,Bin,percent,7.6,7.7,0.007633588
HHS Region 3,2 wk ahead,Bin,percent,7.7,7.8,0.007633588
HHS Region 3,2 wk ahead,Bin,percent,7.8,7.9,0.007633588
HHS Region 3,2 wk ahead,Bin,percent,7.9,8,0.007633588
HHS Region 3,2 wk ahead,Bin,percent,8,8.1,0.007633588
HHS Region 3,2 wk ahead,Bin,percent,8.1,8.2,0.007633588
HHS Region 3,2 wk ahead,Bin,percent,8.2,8.3,0.007633588
HHS Region 3,2 wk ahead,Bin,percent,8.3,8.4,0.007633588
HHS Region 3,2 wk ahead,Bin,percent,8.4,8.5,0.007633588
HHS Region 3,2 wk ahead,Bin,percent,8.5,8.6,0.007633588
HHS Region 3,2 wk ahead,Bin,percent,8.6,8.7,0.007633588
HHS Region 3,2 wk ahead,Bin,percent,8.7,8.8,0.007633588
HHS Region 3,2 wk ahead,Bin,percent,8.8,8.9,0.007633588
HHS Region 3,2 wk ahead,Bin,percent,8.9,9,0.007633588
HHS Region 3,2 wk ahead,Bin,percent,9,9.1,0.007633588
HHS Region 3,2 wk ahead,Bin,percent,9.1,9.2,0.007633588
HHS Region 3,2 wk ahead,Bin,percent,9.2,9.3,0.007633588
HHS Region 3,2 wk ahead,Bin,percent,9.3,9.4,0.007633588
HHS Region 3,2 wk ahead,Bin,percent,9.4,9.5,0.007633588
HHS Region 3,2 wk ahead,Bin,percent,9.5,9.6,0.007633588
HHS Region 3,2 wk ahead,Bin,percent,9.6,9.7,0.007633588
HHS Region 3,2 wk ahead,Bin,percent,9.7,9.8,0.007633588
HHS Region 3,2 wk ahead,Bin,percent,9.8,9.9,0.007633588
HHS Region 3,2 wk ahead,Bin,percent,9.9,10,0.007633588
HHS Region 3,2 wk ahead,Bin,percent,10,10.1,0.007633588
HHS Region 3,2 wk ahead,Bin,percent,10.1,10.2,0.007633588
HHS Region 3,2 wk ahead,Bin,percent,10.2,10.3,0.007633588
HHS Region 3,2 wk ahead,Bin,percent,10.3,10.4,0.007633588
HHS Region 3,2 wk ahead,Bin,percent,10.4,10.5,0.007633588
HHS Region 3,2 wk ahead,Bin,percent,10.5,10.6,0.007633588
HHS Region 3,2 wk ahead,Bin,percent,10.6,10.7,0.007633588
HHS Region 3,2 wk ahead,Bin,percent,10.7,10.8,0.007633588
HHS Region 3,2 wk ahead,Bin,percent,10.8,10.9,0.007633588
HHS Region 3,2 wk ahead,Bin,percent,10.9,11,0.007633588
HHS Region 3,2 wk ahead,Bin,percent,11,11.1,0.007633588
HHS Region 3,2 wk ahead,Bin,percent,11.1,11.2,0.007633588
HHS Region 3,2 wk ahead,Bin,percent,11.2,11.3,0.007633588
HHS Region 3,2 wk ahead,Bin,percent,11.3,11.4,0.007633588
HHS Region 3,2 wk ahead,Bin,percent,11.4,11.5,0.007633588
HHS Region 3,2 wk ahead,Bin,percent,11.5,11.6,0.007633588
HHS Region 3,2 wk ahead,Bin,percent,11.6,11.7,0.007633588
HHS Region 3,2 wk ahead,Bin,percent,11.7,11.8,0.007633588
HHS Region 3,2 wk ahead,Bin,percent,11.8,11.9,0.007633588
HHS Region 3,2 wk ahead,Bin,percent,11.9,12,0.007633588
HHS Region 3,2 wk ahead,Bin,percent,12,12.1,0.007633588
HHS Region 3,2 wk ahead,Bin,percent,12.1,12.2,0.007633588
HHS Region 3,2 wk ahead,Bin,percent,12.2,12.3,0.007633588
HHS Region 3,2 wk ahead,Bin,percent,12.3,12.4,0.007633588
HHS Region 3,2 wk ahead,Bin,percent,12.4,12.5,0.007633588
HHS Region 3,2 wk ahead,Bin,percent,12.5,12.6,0.007633588
HHS Region 3,2 wk ahead,Bin,percent,12.6,12.7,0.007633588
HHS Region 3,2 wk ahead,Bin,percent,12.7,12.8,0.007633588
HHS Region 3,2 wk ahead,Bin,percent,12.8,12.9,0.007633588
HHS Region 3,2 wk ahead,Bin,percent,12.9,13,0.007633588
HHS Region 3,2 wk ahead,Bin,percent,13,100,0.007633588
HHS Region 3,3 wk ahead,Point,percent,,,1.5
HHS Region 3,3 wk ahead,Bin,percent,0,0.1,0.007633588
HHS Region 3,3 wk ahead,Bin,percent,0.1,0.2,0.007633588
HHS Region 3,3 wk ahead,Bin,percent,0.2,0.3,0.007633588
HHS Region 3,3 wk ahead,Bin,percent,0.3,0.4,0.007633588
HHS Region 3,3 wk ahead,Bin,percent,0.4,0.5,0.007633588
HHS Region 3,3 wk ahead,Bin,percent,0.5,0.6,0.007633588
HHS Region 3,3 wk ahead,Bin,percent,0.6,0.7,0.007633588
HHS Region 3,3 wk ahead,Bin,percent,0.7,0.8,0.007633588
HHS Region 3,3 wk ahead,Bin,percent,0.8,0.9,0.007633588
HHS Region 3,3 wk ahead,Bin,percent,0.9,1,0.007633588
HHS Region 3,3 wk ahead,Bin,percent,1,1.1,0.007633588
HHS Region 3,3 wk ahead,Bin,percent,1.1,1.2,0.007633588
HHS Region 3,3 wk ahead,Bin,percent,1.2,1.3,0.007633588
HHS Region 3,3 wk ahead,Bin,percent,1.3,1.4,0.007633588
HHS Region 3,3 wk ahead,Bin,percent,1.4,1.5,0.007633588
HHS Region 3,3 wk ahead,Bin,percent,1.5,1.6,0.007633588
HHS Region 3,3 wk ahead,Bin,percent,1.6,1.7,0.007633588
HHS Region 3,3 wk ahead,Bin,percent,1.7,1.8,0.007633588
HHS Region 3,3 wk ahead,Bin,percent,1.8,1.9,0.007633588
HHS Region 3,3 wk ahead,Bin,percent,1.9,2,0.007633588
HHS Region 3,3 wk ahead,Bin,percent,2,2.1,0.007633588
HHS Region 3,3 wk ahead,Bin,percent,2.1,2.2,0.007633588
HHS Region 3,3 wk ahead,Bin,percent,2.2,2.3,0.007633588
HHS Region 3,3 wk ahead,Bin,percent,2.3,2.4,0.007633588
HHS Region 3,3 wk ahead,Bin,percent,2.4,2.5,0.007633588
HHS Region 3,3 wk ahead,Bin,percent,2.5,2.6,0.007633588
HHS Region 3,3 wk ahead,Bin,percent,2.6,2.7,0.007633588
HHS Region 3,3 wk ahead,Bin,percent,2.7,2.8,0.007633588
HHS Region 3,3 wk ahead,Bin,percent,2.8,2.9,0.007633588
HHS Region 3,3 wk ahead,Bin,percent,2.9,3,0.007633588
HHS Region 3,3 wk ahead,Bin,percent,3,3.1,0.007633588
HHS Region 3,3 wk ahead,Bin,percent,3.1,3.2,0.007633588
HHS Region 3,3 wk ahead,Bin,percent,3.2,3.3,0.007633588
HHS Region 3,3 wk ahead,Bin,percent,3.3,3.4,0.007633588
HHS Region 3,3 wk ahead,Bin,percent,3.4,3.5,0.007633588
HHS Region 3,3 wk ahead,Bin,percent,3.5,3.6,0.007633588
HHS Region 3,3 wk ahead,Bin,percent,3.6,3.7,0.007633588
HHS Region 3,3 wk ahead,Bin,percent,3.7,3.8,0.007633588
HHS Region 3,3 wk ahead,Bin,percent,3.8,3.9,0.007633588
HHS Region 3,3 wk ahead,Bin,percent,3.9,4,0.007633588
HHS Region 3,3 wk ahead,Bin,percent,4,4.1,0.007633588
HHS Region 3,3 wk ahead,Bin,percent,4.1,4.2,0.007633588
HHS Region 3,3 wk ahead,Bin,percent,4.2,4.3,0.007633588
HHS Region 3,3 wk ahead,Bin,percent,4.3,4.4,0.007633588
HHS Region 3,3 wk ahead,Bin,percent,4.4,4.5,0.007633588
HHS Region 3,3 wk ahead,Bin,percent,4.5,4.6,0.007633588
HHS Region 3,3 wk ahead,Bin,percent,4.6,4.7,0.007633588
HHS Region 3,3 wk ahead,Bin,percent,4.7,4.8,0.007633588
HHS Region 3,3 wk ahead,Bin,percent,4.8,4.9,0.007633588
HHS Region 3,3 wk ahead,Bin,percent,4.9,5,0.007633588
HHS Region 3,3 wk ahead,Bin,percent,5,5.1,0.007633588
HHS Region 3,3 wk ahead,Bin,percent,5.1,5.2,0.007633588
HHS Region 3,3 wk ahead,Bin,percent,5.2,5.3,0.007633588
HHS Region 3,3 wk ahead,Bin,percent,5.3,5.4,0.007633588
HHS Region 3,3 wk ahead,Bin,percent,5.4,5.5,0.007633588
HHS Region 3,3 wk ahead,Bin,percent,5.5,5.6,0.007633588
HHS Region 3,3 wk ahead,Bin,percent,5.6,5.7,0.007633588
HHS Region 3,3 wk ahead,Bin,percent,5.7,5.8,0.007633588
HHS Region 3,3 wk ahead,Bin,percent,5.8,5.9,0.007633588
HHS Region 3,3 wk ahead,Bin,percent,5.9,6,0.007633588
HHS Region 3,3 wk ahead,Bin,percent,6,6.1,0.007633588
HHS Region 3,3 wk ahead,Bin,percent,6.1,6.2,0.007633588
HHS Region 3,3 wk ahead,Bin,percent,6.2,6.3,0.007633588
HHS Region 3,3 wk ahead,Bin,percent,6.3,6.4,0.007633588
HHS Region 3,3 wk ahead,Bin,percent,6.4,6.5,0.007633588
HHS Region 3,3 wk ahead,Bin,percent,6.5,6.6,0.007633588
HHS Region 3,3 wk ahead,Bin,percent,6.6,6.7,0.007633588
HHS Region 3,3 wk ahead,Bin,percent,6.7,6.8,0.007633588
HHS Region 3,3 wk ahead,Bin,percent,6.8,6.9,0.007633588
HHS Region 3,3 wk ahead,Bin,percent,6.9,7,0.007633588
HHS Region 3,3 wk ahead,Bin,percent,7,7.1,0.007633588
HHS Region 3,3 wk ahead,Bin,percent,7.1,7.2,0.007633588
HHS Region 3,3 wk ahead,Bin,percent,7.2,7.3,0.007633588
HHS Region 3,3 wk ahead,Bin,percent,7.3,7.4,0.007633588
HHS Region 3,3 wk ahead,Bin,percent,7.4,7.5,0.007633588
HHS Region 3,3 wk ahead,Bin,percent,7.5,7.6,0.007633588
HHS Region 3,3 wk ahead,Bin,percent,7.6,7.7,0.007633588
HHS Region 3,3 wk ahead,Bin,percent,7.7,7.8,0.007633588
HHS Region 3,3 wk ahead,Bin,percent,7.8,7.9,0.007633588
HHS Region 3,3 wk ahead,Bin,percent,7.9,8,0.007633588
HHS Region 3,3 wk ahead,Bin,percent,8,8.1,0.007633588
HHS Region 3,3 wk ahead,Bin,percent,8.1,8.2,0.007633588
HHS Region 3,3 wk ahead,Bin,percent,8.2,8.3,0.007633588
HHS Region 3,3 wk ahead,Bin,percent,8.3,8.4,0.007633588
HHS Region 3,3 wk ahead,Bin,percent,8.4,8.5,0.007633588
HHS Region 3,3 wk ahead,Bin,percent,8.5,8.6,0.007633588
HHS Region 3,3 wk ahead,Bin,percent,8.6,8.7,0.007633588
HHS Region 3,3 wk ahead,Bin,percent,8.7,8.8,0.007633588
HHS Region 3,3 wk ahead,Bin,percent,8.8,8.9,0.007633588
HHS Region 3,3 wk ahead,Bin,percent,8.9,9,0.007633588
HHS Region 3,3 wk ahead,Bin,percent,9,9.1,0.007633588
HHS Region 3,3 wk ahead,Bin,percent,9.1,9.2,0.007633588
HHS Region 3,3 wk ahead,Bin,percent,9.2,9.3,0.007633588
HHS Region 3,3 wk ahead,Bin,percent,9.3,9.4,0.007633588
HHS Region 3,3 wk ahead,Bin,percent,9.4,9.5,0.007633588
HHS Region 3,3 wk ahead,Bin,percent,9.5,9.6,0.007633588
HHS Region 3,3 wk ahead,Bin,percent,9.6,9.7,0.007633588
HHS Region 3,3 wk ahead,Bin,percent,9.7,9.8,0.007633588
HHS Region 3,3 wk ahead,Bin,percent,9.8,9.9,0.007633588
HHS Region 3,3 wk ahead,Bin,percent,9.9,10,0.007633588
HHS Region 3,3 wk ahead,Bin,percent,10,10.1,0.007633588
HHS Region 3,3 wk ahead,Bin,percent,10.1,10.2,0.007633588
HHS Region 3,3 wk ahead,Bin,percent,10.2,10.3,0.007633588
HHS Region 3,3 wk ahead,Bin,percent,10.3,10.4,0.007633588
HHS Region 3,3 wk ahead,Bin,percent,10.4,10.5,0.007633588
HHS Region 3,3 wk ahead,Bin,percent,10.5,10.6,0.007633588
HHS Region 3,3 wk ahead,Bin,percent,10.6,10.7,0.007633588
HHS Region 3,3 wk ahead,Bin,percent,10.7,10.8,0.007633588
HHS Region 3,3 wk ahead,Bin,percent,10.8,10.9,0.007633588
HHS Region 3,3 wk ahead,Bin,percent,10.9,11,0.007633588
HHS Region 3,3 wk ahead,Bin,percent,11,11.1,0.007633588
HHS Region 3,3 wk ahead,Bin,percent,11.1,11.2,0.007633588
HHS Region 3,3 wk ahead,Bin,percent,11.2,11.3,0.007633588
HHS Region 3,3 wk ahead,Bin,percent,11.3,11.4,0.007633588
HHS Region 3,3 wk ahead,Bin,percent,11.4,11.5,0.007633588
HHS Region 3,3 wk ahead,Bin,percent,11.5,11.6,0.007633588
HHS Region 3,3 wk ahead,Bin,percent,11.6,11.7,0.007633588
HHS Region 3,3 wk ahead,Bin,percent,11.7,11.8,0.007633588
HHS Region 3,3 wk ahead,Bin,percent,11.8,11.9,0.007633588
HHS Region 3,3 wk ahead,Bin,percent,11.9,12,0.007633588
HHS Region 3,3 wk ahead,Bin,percent,12,12.1,0.007633588
HHS Region 3,3 wk ahead,Bin,percent,12.1,12.2,0.007633588
HHS Region 3,3 wk ahead,Bin,percent,12.2,12.3,0.007633588
HHS Region 3,3 wk ahead,Bin,percent,12.3,12.4,0.007633588
HHS Region 3,3 wk ahead,Bin,percent,12.4,12.5,0.007633588
HHS Region 3,3 wk ahead,Bin,percent,12.5,12.6,0.007633588
HHS Region 3,3 wk ahead,Bin,percent,12.6,12.7,0.007633588
HHS Region 3,3 wk ahead,Bin,percent,12.7,12.8,0.007633588
HHS Region 3,3 wk ahead,Bin,percent,12.8,12.9,0.007633588
HHS Region 3,3 wk ahead,Bin,percent,12.9,13,0.007633588
HHS Region 3,3 wk ahead,Bin,percent,13,100,0.007633588
HHS Region 3,4 wk ahead,Point,percent,,,1.5
HHS Region 3,4 wk ahead,Bin,percent,0,0.1,0.007633588
HHS Region 3,4 wk ahead,Bin,percent,0.1,0.2,0.007633588
HHS Region 3,4 wk ahead,Bin,percent,0.2,0.3,0.007633588
HHS Region 3,4 wk ahead,Bin,percent,0.3,0.4,0.007633588
HHS Region 3,4 wk ahead,Bin,percent,0.4,0.5,0.007633588
HHS Region 3,4 wk ahead,Bin,percent,0.5,0.6,0.007633588
HHS Region 3,4 wk ahead,Bin,percent,0.6,0.7,0.007633588
HHS Region 3,4 wk ahead,Bin,percent,0.7,0.8,0.007633588
HHS Region 3,4 wk ahead,Bin,percent,0.8,0.9,0.007633588
HHS Region 3,4 wk ahead,Bin,percent,0.9,1,0.007633588
HHS Region 3,4 wk ahead,Bin,percent,1,1.1,0.007633588
HHS Region 3,4 wk ahead,Bin,percent,1.1,1.2,0.007633588
HHS Region 3,4 wk ahead,Bin,percent,1.2,1.3,0.007633588
HHS Region 3,4 wk ahead,Bin,percent,1.3,1.4,0.007633588
HHS Region 3,4 wk ahead,Bin,percent,1.4,1.5,0.007633588
HHS Region 3,4 wk ahead,Bin,percent,1.5,1.6,0.007633588
HHS Region 3,4 wk ahead,Bin,percent,1.6,1.7,0.007633588
HHS Region 3,4 wk ahead,Bin,percent,1.7,1.8,0.007633588
HHS Region 3,4 wk ahead,Bin,percent,1.8,1.9,0.007633588
HHS Region 3,4 wk ahead,Bin,percent,1.9,2,0.007633588
HHS Region 3,4 wk ahead,Bin,percent,2,2.1,0.007633588
HHS Region 3,4 wk ahead,Bin,percent,2.1,2.2,0.007633588
HHS Region 3,4 wk ahead,Bin,percent,2.2,2.3,0.007633588
HHS Region 3,4 wk ahead,Bin,percent,2.3,2.4,0.007633588
HHS Region 3,4 wk ahead,Bin,percent,2.4,2.5,0.007633588
HHS Region 3,4 wk ahead,Bin,percent,2.5,2.6,0.007633588
HHS Region 3,4 wk ahead,Bin,percent,2.6,2.7,0.007633588
HHS Region 3,4 wk ahead,Bin,percent,2.7,2.8,0.007633588
HHS Region 3,4 wk ahead,Bin,percent,2.8,2.9,0.007633588
HHS Region 3,4 wk ahead,Bin,percent,2.9,3,0.007633588
HHS Region 3,4 wk ahead,Bin,percent,3,3.1,0.007633588
HHS Region 3,4 wk ahead,Bin,percent,3.1,3.2,0.007633588
HHS Region 3,4 wk ahead,Bin,percent,3.2,3.3,0.007633588
HHS Region 3,4 wk ahead,Bin,percent,3.3,3.4,0.007633588
HHS Region 3,4 wk ahead,Bin,percent,3.4,3.5,0.007633588
HHS Region 3,4 wk ahead,Bin,percent,3.5,3.6,0.007633588
HHS Region 3,4 wk ahead,Bin,percent,3.6,3.7,0.007633588
HHS Region 3,4 wk ahead,Bin,percent,3.7,3.8,0.007633588
HHS Region 3,4 wk ahead,Bin,percent,3.8,3.9,0.007633588
HHS Region 3,4 wk ahead,Bin,percent,3.9,4,0.007633588
HHS Region 3,4 wk ahead,Bin,percent,4,4.1,0.007633588
HHS Region 3,4 wk ahead,Bin,percent,4.1,4.2,0.007633588
HHS Region 3,4 wk ahead,Bin,percent,4.2,4.3,0.007633588
HHS Region 3,4 wk ahead,Bin,percent,4.3,4.4,0.007633588
HHS Region 3,4 wk ahead,Bin,percent,4.4,4.5,0.007633588
HHS Region 3,4 wk ahead,Bin,percent,4.5,4.6,0.007633588
HHS Region 3,4 wk ahead,Bin,percent,4.6,4.7,0.007633588
HHS Region 3,4 wk ahead,Bin,percent,4.7,4.8,0.007633588
HHS Region 3,4 wk ahead,Bin,percent,4.8,4.9,0.007633588
HHS Region 3,4 wk ahead,Bin,percent,4.9,5,0.007633588
HHS Region 3,4 wk ahead,Bin,percent,5,5.1,0.007633588
HHS Region 3,4 wk ahead,Bin,percent,5.1,5.2,0.007633588
HHS Region 3,4 wk ahead,Bin,percent,5.2,5.3,0.007633588
HHS Region 3,4 wk ahead,Bin,percent,5.3,5.4,0.007633588
HHS Region 3,4 wk ahead,Bin,percent,5.4,5.5,0.007633588
HHS Region 3,4 wk ahead,Bin,percent,5.5,5.6,0.007633588
HHS Region 3,4 wk ahead,Bin,percent,5.6,5.7,0.007633588
HHS Region 3,4 wk ahead,Bin,percent,5.7,5.8,0.007633588
HHS Region 3,4 wk ahead,Bin,percent,5.8,5.9,0.007633588
HHS Region 3,4 wk ahead,Bin,percent,5.9,6,0.007633588
HHS Region 3,4 wk ahead,Bin,percent,6,6.1,0.007633588
HHS Region 3,4 wk ahead,Bin,percent,6.1,6.2,0.007633588
HHS Region 3,4 wk ahead,Bin,percent,6.2,6.3,0.007633588
HHS Region 3,4 wk ahead,Bin,percent,6.3,6.4,0.007633588
HHS Region 3,4 wk ahead,Bin,percent,6.4,6.5,0.007633588
HHS Region 3,4 wk ahead,Bin,percent,6.5,6.6,0.007633588
HHS Region 3,4 wk ahead,Bin,percent,6.6,6.7,0.007633588
HHS Region 3,4 wk ahead,Bin,percent,6.7,6.8,0.007633588
HHS Region 3,4 wk ahead,Bin,percent,6.8,6.9,0.007633588
HHS Region 3,4 wk ahead,Bin,percent,6.9,7,0.007633588
HHS Region 3,4 wk ahead,Bin,percent,7,7.1,0.007633588
HHS Region 3,4 wk ahead,Bin,percent,7.1,7.2,0.007633588
HHS Region 3,4 wk ahead,Bin,percent,7.2,7.3,0.007633588
HHS Region 3,4 wk ahead,Bin,percent,7.3,7.4,0.007633588
HHS Region 3,4 wk ahead,Bin,percent,7.4,7.5,0.007633588
HHS Region 3,4 wk ahead,Bin,percent,7.5,7.6,0.007633588
HHS Region 3,4 wk ahead,Bin,percent,7.6,7.7,0.007633588
HHS Region 3,4 wk ahead,Bin,percent,7.7,7.8,0.007633588
HHS Region 3,4 wk ahead,Bin,percent,7.8,7.9,0.007633588
HHS Region 3,4 wk ahead,Bin,percent,7.9,8,0.007633588
HHS Region 3,4 wk ahead,Bin,percent,8,8.1,0.007633588
HHS Region 3,4 wk ahead,Bin,percent,8.1,8.2,0.007633588
HHS Region 3,4 wk ahead,Bin,percent,8.2,8.3,0.007633588
HHS Region 3,4 wk ahead,Bin,percent,8.3,8.4,0.007633588
HHS Region 3,4 wk ahead,Bin,percent,8.4,8.5,0.007633588
HHS Region 3,4 wk ahead,Bin,percent,8.5,8.6,0.007633588
HHS Region 3,4 wk ahead,Bin,percent,8.6,8.7,0.007633588
HHS Region 3,4 wk ahead,Bin,percent,8.7,8.8,0.007633588
HHS Region 3,4 wk ahead,Bin,percent,8.8,8.9,0.007633588
HHS Region 3,4 wk ahead,Bin,percent,8.9,9,0.007633588
HHS Region 3,4 wk ahead,Bin,percent,9,9.1,0.007633588
HHS Region 3,4 wk ahead,Bin,percent,9.1,9.2,0.007633588
HHS Region 3,4 wk ahead,Bin,percent,9.2,9.3,0.007633588
HHS Region 3,4 wk ahead,Bin,percent,9.3,9.4,0.007633588
HHS Region 3,4 wk ahead,Bin,percent,9.4,9.5,0.007633588
HHS Region 3,4 wk ahead,Bin,percent,9.5,9.6,0.007633588
HHS Region 3,4 wk ahead,Bin,percent,9.6,9.7,0.007633588
HHS Region 3,4 wk ahead,Bin,percent,9.7,9.8,0.007633588
HHS Region 3,4 wk ahead,Bin,percent,9.8,9.9,0.007633588
HHS Region 3,4 wk ahead,Bin,percent,9.9,10,0.007633588
HHS Region 3,4 wk ahead,Bin,percent,10,10.1,0.007633588
HHS Region 3,4 wk ahead,Bin,percent,10.1,10.2,0.007633588
HHS Region 3,4 wk ahead,Bin,percent,10.2,10.3,0.007633588
HHS Region 3,4 wk ahead,Bin,percent,10.3,10.4,0.007633588
HHS Region 3,4 wk ahead,Bin,percent,10.4,10.5,0.007633588
HHS Region 3,4 wk ahead,Bin,percent,10.5,10.6,0.007633588
HHS Region 3,4 wk ahead,Bin,percent,10.6,10.7,0.007633588
HHS Region 3,4 wk ahead,Bin,percent,10.7,10.8,0.007633588
HHS Region 3,4 wk ahead,Bin,percent,10.8,10.9,0.007633588
HHS Region 3,4 wk ahead,Bin,percent,10.9,11,0.007633588
HHS Region 3,4 wk ahead,Bin,percent,11,11.1,0.007633588
HHS Region 3,4 wk ahead,Bin,percent,11.1,11.2,0.007633588
HHS Region 3,4 wk ahead,Bin,percent,11.2,11.3,0.007633588
HHS Region 3,4 wk ahead,Bin,percent,11.3,11.4,0.007633588
HHS Region 3,4 wk ahead,Bin,percent,11.4,11.5,0.007633588
HHS Region 3,4 wk ahead,Bin,percent,11.5,11.6,0.007633588
HHS Region 3,4 wk ahead,Bin,percent,11.6,11.7,0.007633588
HHS Region 3,4 wk ahead,Bin,percent,11.7,11.8,0.007633588
HHS Region 3,4 wk ahead,Bin,percent,11.8,11.9,0.007633588
HHS Region 3,4 wk ahead,Bin,percent,11.9,12,0.007633588
HHS Region 3,4 wk ahead,Bin,percent,12,12.1,0.007633588
HHS Region 3,4 wk ahead,Bin,percent,12.1,12.2,0.007633588
HHS Region 3,4 wk ahead,Bin,percent,12.2,12.3,0.007633588
HHS Region 3,4 wk ahead,Bin,percent,12.3,12.4,0.007633588
HHS Region 3,4 wk ahead,Bin,percent,12.4,12.5,0.007633588
HHS Region 3,4 wk ahead,Bin,percent,12.5,12.6,0.007633588
HHS Region 3,4 wk ahead,Bin,percent,12.6,12.7,0.007633588
HHS Region 3,4 wk ahead,Bin,percent,12.7,12.8,0.007633588
HHS Region 3,4 wk ahead,Bin,percent,12.8,12.9,0.007633588
HHS Region 3,4 wk ahead,Bin,percent,12.9,13,0.007633588
HHS Region 3,4 wk ahead,Bin,percent,13,100,0.007633588
