Location,Target,Type,Unit,Bin_start_incl,Bin_end_notincl,Value
HHS Region 4,Season onset,Point,week,,,51.0
HHS Region 4,Season onset,Bin,week,40,41,3.13845902612e-05
HHS Region 4,Season onset,Bin,week,41,42,0.0013182267898
HHS Region 4,Season onset,Bin,week,42,43,0.0214002339165
HHS Region 4,Season onset,Bin,week,43,44,0.135905121983
HHS Region 4,Season onset,Bin,week,44,45,0.341344746069
HHS Region 4,Season onset,Bin,week,45,46,0.341344746069
HHS Region 4,Season onset,Bin,week,46,47,0.135905121983
HHS Region 4,Season onset,Bin,week,47,48,0.0214002339165
HHS Region 4,Season onset,Bin,week,48,49,0.0013182267898
HHS Region 4,Season onset,Bin,week,49,50,3.13845902612e-05
HHS Region 4,Season onset,Bin,week,50,51,2.85664984223e-07
HHS Region 4,Season onset,Bin,week,51,52,9.85307835322e-10
HHS Region 4,Season onset,Bin,week,52,53,1.27919896897e-12
HHS Region 4,Season onset,Bin,week,1,2,6.66133814775e-16
HHS Region 4,Season onset,Bin,week,2,3,0.0
HHS Region 4,Season onset,Bin,week,3,4,0.0
HHS Region 4,Season onset,Bin,week,4,5,0.0
HHS Region 4,Season onset,Bin,week,5,6,0.0
HHS Region 4,Season onset,Bin,week,6,7,0.0
HHS Region 4,Season onset,Bin,week,7,8,0.0
HHS Region 4,Season onset,Bin,week,8,9,0.0
HHS Region 4,Season onset,Bin,week,9,10,0.0
HHS Region 4,Season onset,Bin,week,10,11,0.0
HHS Region 4,Season onset,Bin,week,11,12,0.0
HHS Region 4,Season onset,Bin,week,12,13,0.0
HHS Region 4,Season onset,Bin,week,13,14,0.0
HHS Region 4,Season onset,Bin,week,14,15,0.0
HHS Region 4,Season onset,Bin,week,15,16,0.0
HHS Region 4,Season onset,Bin,week,16,17,0.0
HHS Region 4,Season onset,Bin,week,17,18,0.0
HHS Region 4,Season onset,Bin,week,18,19,0.0
HHS Region 4,Season onset,Bin,week,19,20,0.0
HHS Region 4,Season onset,Bin,week,20,21,0.029411765
HHS Region 4,Season onset,Bin,week,none,none,0.029411765
HHS Region 4,Season peak week,Point,week,,,51.0
HHS Region 4,Season peak week,Bin,week,40,41,1.11682212353e-59
HHS Region 4,Season peak week,Bin,week,41,42,3.67096618814e-51
HHS Region 4,Season peak week,Bin,week,42,43,2.54647627926e-43
HHS Region 4,Season peak week,Bin,week,43,44,3.73256404423e-36
HHS Region 4,Season peak week,Bin,week,44,45,1.15795994531e-29
HHS Region 4,Season peak week,Bin,week,45,46,7.61984144456e-24
HHS Region 4,Season peak week,Bin,week,46,47,1.06675611769e-18
HHS Region 4,Season peak week,Bin,week,47,48,3.19078499654e-14
HHS Region 4,Season peak week,Bin,week,48,49,2.05194433605e-10
HHS Region 4,Season peak week,Bin,week,49,50,2.86446345537e-07
HHS Region 4,Season peak week,Bin,week,50,51,8.81306336289e-05
HHS Region 4,Season peak week,Bin,week,51,52,0.00612124804058
HHS Region 4,Season peak week,Bin,week,52,53,0.0994401083411
HHS Region 4,Season peak week,Bin,week,1,2,0.394350226333
HHS Region 4,Season peak week,Bin,week,2,3,0.394350226333
HHS Region 4,Season peak week,Bin,week,3,4,0.0994401083411
HHS Region 4,Season peak week,Bin,week,4,5,0.00612124804058
HHS Region 4,Season peak week,Bin,week,5,6,8.81306336289e-05
HHS Region 4,Season peak week,Bin,week,6,7,2.86446345532e-07
HHS Region 4,Season peak week,Bin,week,7,8,2.05194528036e-10
HHS Region 4,Season peak week,Bin,week,8,9,3.18634008067e-14
HHS Region 4,Season peak week,Bin,week,9,10,0.0
HHS Region 4,Season peak week,Bin,week,10,11,0.0
HHS Region 4,Season peak week,Bin,week,11,12,0.0
HHS Region 4,Season peak week,Bin,week,12,13,0.0
HHS Region 4,Season peak week,Bin,week,13,14,0.0
HHS Region 4,Season peak week,Bin,week,14,15,0.0
HHS Region 4,Season peak week,Bin,week,15,16,0.0
HHS Region 4,Season peak week,Bin,week,16,17,0.0
HHS Region 4,Season peak week,Bin,week,17,18,0.0
HHS Region 4,Season peak week,Bin,week,18,19,0.0
HHS Region 4,Season peak week,Bin,week,19,20,0.0
HHS Region 4,Season peak week,Bin,week,20,21,0.03030303
HHS Region 4,Season peak percentage,Point,percent,,,1.5
HHS Region 4,Season peak percentage,Bin,percent,0,0.1,0.007633588
HHS Region 4,Season peak percentage,Bin,percent,0.1,0.2,4.21238966646e-46
HHS Region 4,Season peak percentage,Bin,percent,0.2,0.3,7.15216850183e-45
HHS Region 4,Season peak percentage,Bin,percent,0.3,0.4,1.16685173601e-43
HHS Region 4,Season peak percentage,Bin,percent,0.4,0.5,1.82920644422e-42
HHS Region 4,Season peak percentage,Bin,percent,0.5,0.6,2.75536566911e-41
HHS Region 4,Season peak percentage,Bin,percent,0.6,0.7,3.98809600505e-40
HHS Region 4,Season peak percentage,Bin,percent,0.7,0.8,5.54654031901e-39
HHS Region 4,Season peak percentage,Bin,percent,0.8,0.9,7.41223737582e-38
HHS Region 4,Season peak percentage,Bin,percent,0.9,1,9.5180373577e-37
HHS Region 4,Season peak percentage,Bin,percent,1,1.1,1.17440204242e-35
HHS Region 4,Season peak percentage,Bin,percent,1.1,1.2,1.39238027571e-34
HHS Region 4,Season peak percentage,Bin,percent,1.2,1.3,1.5862475453e-33
HHS Region 4,Season peak percentage,Bin,percent,1.3,1.4,1.73642672987e-32
HHS Region 4,Season peak percentage,Bin,percent,1.4,1.5,1.82647916725e-31
HHS Region 4,Season peak percentage,Bin,percent,1.5,1.6,1.84606124457e-30
HHS Region 4,Season peak percentage,Bin,percent,1.6,1.7,1.79287894736e-29
HHS Region 4,Season peak percentage,Bin,percent,1.7,1.8,1.67312993048e-28
HHS Region 4,Season peak percentage,Bin,percent,1.8,1.9,1.50031538541e-27
HHS Region 4,Season peak percentage,Bin,percent,1.9,2,1.29273648162e-26
HHS Region 4,Season peak percentage,Bin,percent,2,2.1,1.07031680961e-25
HHS Region 4,Season peak percentage,Bin,percent,2.1,2.2,8.51510359221e-25
HHS Region 4,Season peak percentage,Bin,percent,2.2,2.3,6.50943239205e-24
HHS Region 4,Season peak percentage,Bin,percent,2.3,2.4,4.78158901412e-23
HHS Region 4,Season peak percentage,Bin,percent,2.4,2.5,3.37503009766e-22
HHS Region 4,Season peak percentage,Bin,percent,2.5,2.6,2.28907316622e-21
HHS Region 4,Season peak percentage,Bin,percent,2.6,2.7,1.49182765248e-20
HHS Region 4,Season peak percentage,Bin,percent,2.7,2.8,9.34232384611e-20
HHS Region 4,Season peak percentage,Bin,percent,2.8,2.9,5.62171464275e-19
HHS Region 4,Season peak percentage,Bin,percent,2.9,3,3.25057817895e-18
HHS Region 4,Season peak percentage,Bin,percent,3,3.1,1.80605384484e-17
HHS Region 4,Season peak percentage,Bin,percent,3.1,3.2,9.64227134726e-17
HHS Region 4,Season peak percentage,Bin,percent,3.2,3.3,4.94660113651e-16
HHS Region 4,Season peak percentage,Bin,percent,3.3,3.4,2.43844875914e-15
HHS Region 4,Season peak percentage,Bin,percent,3.4,3.5,1.15504758179e-14
HHS Region 4,Season peak percentage,Bin,percent,3.5,3.6,5.25733819777e-14
HHS Region 4,Season peak percentage,Bin,percent,3.6,3.7,2.29938687707e-13
HHS Region 4,Season peak percentage,Bin,percent,3.7,3.8,9.66359148573e-13
HHS Region 4,Season peak percentage,Bin,percent,3.8,3.9,3.90252542186e-12
HHS Region 4,Season peak percentage,Bin,percent,3.9,4,1.51437649812e-11
HHS Region 4,Season peak percentage,Bin,percent,4,4.1,5.64681026283e-11
HHS Region 4,Season peak percentage,Bin,percent,4.1,4.2,2.02327078088e-10
HHS Region 4,Season peak percentage,Bin,percent,4.2,4.3,6.96604962984e-10
HHS Region 4,Season peak percentage,Bin,percent,4.3,4.4,2.30462948064e-09
HHS Region 4,Season peak percentage,Bin,percent,4.4,4.5,7.32652276848e-09
HHS Region 4,Season peak percentage,Bin,percent,4.5,4.6,2.23808809447e-08
HHS Region 4,Season peak percentage,Bin,percent,4.6,4.7,6.56960363024e-08
HHS Region 4,Season peak percentage,Bin,percent,4.7,4.8,1.85303705166e-07
HHS Region 4,Season peak percentage,Bin,percent,4.8,4.9,5.02241047407e-07
HHS Region 4,Season peak percentage,Bin,percent,4.9,5,1.30804800809e-06
HHS Region 4,Season peak percentage,Bin,percent,5,5.1,3.27354826491e-06
HHS Region 4,Season peak percentage,Bin,percent,5.1,5.2,7.87222678583e-06
HHS Region 4,Season peak percentage,Bin,percent,5.2,5.3,1.81911611076e-05
HHS Region 4,Season peak percentage,Bin,percent,5.3,5.4,4.03931201772e-05
HHS Region 4,Season peak percentage,Bin,percent,5.4,5.5,8.61863953159e-05
HHS Region 4,Season peak percentage,Bin,percent,5.5,5.6,0.000176707317413
HHS Region 4,Season peak percentage,Bin,percent,5.6,5.7,0.000348140871274
HHS Region 4,Season peak percentage,Bin,percent,5.7,5.8,0.000659083291966
HHS Region 4,Season peak percentage,Bin,percent,5.8,5.9,0.00119897616064
HHS Region 4,Season peak percentage,Bin,percent,5.9,6,0.00209587744509
HHS Region 4,Season peak percentage,Bin,percent,6,6.1,0.00352051692188
HHS Region 4,Season peak percentage,Bin,percent,6.1,6.2,0.00568240680903
HHS Region 4,Season peak percentage,Bin,percent,6.2,6.3,0.00881340343632
HHS Region 4,Season peak percentage,Bin,percent,6.3,6.4,0.013135315893
HHS Region 4,Season peak percentage,Bin,percent,6.4,6.5,0.0188114826609
HHS Region 4,Season peak percentage,Bin,percent,6.5,6.6,0.025887567702
HHS Region 4,Season peak percentage,Bin,percent,6.6,6.7,0.0342330234995
HHS Region 4,Season peak percentage,Bin,percent,6.7,6.8,0.0434995858825
HHS Region 4,Season peak percentage,Bin,percent,6.8,6.9,0.0531142307101
HHS Region 4,Season peak percentage,Bin,percent,6.9,7,0.0623193082364
HHS Region 4,Season peak percentage,Bin,percent,7,7.1,0.0702619735104
HHS Region 4,Season peak percentage,Bin,percent,7.1,7.2,0.0761209296977
HHS Region 4,Season peak percentage,Bin,percent,7.2,7.3,0.0792453635087
HHS Region 4,Season peak percentage,Bin,percent,7.3,7.4,0.0792738019741
HHS Region 4,Season peak percentage,Bin,percent,7.4,7.5,0.0762029107625
HHS Region 4,Season peak percentage,Bin,percent,7.5,7.6,0.0703881372583
HHS Region 4,Season peak percentage,Bin,percent,7.6,7.7,0.0624760270051
HHS Region 4,Season peak percentage,Bin,percent,7.7,7.8,0.0532860254891
HHS Region 4,Season peak percentage,Bin,percent,7.8,7.9,0.0436716105267
HHS Region 4,Season peak percentage,Bin,percent,7.9,8,0.0343930743078
HHS Region 4,Season peak percentage,Bin,percent,8,8.1,0.0260272715165
HHS Region 4,Season peak percentage,Bin,percent,8.1,8.2,0.0189265770885
HHS Region 4,Season peak percentage,Bin,percent,8.2,8.3,0.0132251690123
HHS Region 4,Season peak percentage,Bin,percent,8.3,8.4,0.00888006243158
HHS Region 4,Season peak percentage,Bin,percent,8.4,8.5,0.0057294950918
HHS Region 4,Season peak percentage,Bin,percent,8.5,8.6,0.00355223859683
HHS Region 4,Season peak percentage,Bin,percent,8.6,8.7,0.00211628055547
HHS Region 4,Season peak percentage,Bin,percent,8.7,8.8,0.00121151716839
HHS Region 4,Season peak percentage,Bin,percent,8.8,8.9,0.000666455254824
HHS Region 4,Season peak percentage,Bin,percent,8.9,9,0.000352287617321
HHS Region 4,Season peak percentage,Bin,percent,9,9.1,0.00017894047054
HHS Region 4,Season peak percentage,Bin,percent,9.1,9.2,8.73382399306e-05
HHS Region 4,Season peak percentage,Bin,percent,9.2,9.3,4.09623440226e-05
HHS Region 4,Season peak percentage,Bin,percent,9.3,9.4,1.84607568722e-05
HHS Region 4,Season peak percentage,Bin,percent,9.4,9.5,7.9946299496e-06
HHS Region 4,Season peak percentage,Bin,percent,9.5,9.6,3.32683458693e-06
HHS Region 4,Season peak percentage,Bin,percent,9.6,9.7,1.33029462646e-06
HHS Region 4,Season peak percentage,Bin,percent,9.7,9.8,5.11149634286e-07
HHS Region 4,Season peak percentage,Bin,percent,9.8,9.9,1.88725964856e-07
HHS Region 4,Season peak percentage,Bin,percent,9.9,10,6.6957375755e-08
HHS Region 4,Season peak percentage,Bin,percent,10,10.1,2.28269634306e-08
HHS Region 4,Season peak percentage,Bin,percent,10.1,10.2,7.47791595312e-09
HHS Region 4,Season peak percentage,Bin,percent,10.2,10.3,2.35394070902e-09
HHS Region 4,Season peak percentage,Bin,percent,10.3,10.4,7.12020775673e-10
HHS Region 4,Season peak percentage,Bin,percent,10.4,10.5,2.06953010284e-10
HHS Region 4,Season peak percentage,Bin,percent,10.5,10.6,5.78006531526e-11
HHS Region 4,Season peak percentage,Bin,percent,10.6,10.7,1.55122581447e-11
HHS Region 4,Season peak percentage,Bin,percent,10.7,10.8,4.00035560233e-12
HHS Region 4,Season peak percentage,Bin,percent,10.8,10.9,9.91318138688e-13
HHS Region 4,Season peak percentage,Bin,percent,10.9,11,2.36033415035e-13
HHS Region 4,Season peak percentage,Bin,percent,11,11.1,5.40678612992e-14
HHS Region 4,Season peak percentage,Bin,percent,11.1,11.2,1.18793863635e-14
HHS Region 4,Season peak percentage,Bin,percent,11.2,11.3,2.44249065418e-15
HHS Region 4,Season peak percentage,Bin,percent,11.3,11.4,5.55111512313e-16
HHS Region 4,Season peak percentage,Bin,percent,11.4,11.5,1.11022302463e-16
HHS Region 4,Season peak percentage,Bin,percent,11.5,11.6,0.0
HHS Region 4,Season peak percentage,Bin,percent,11.6,11.7,0.0
HHS Region 4,Season peak percentage,Bin,percent,11.7,11.8,0.0
HHS Region 4,Season peak percentage,Bin,percent,11.8,11.9,0.0
HHS Region 4,Season peak percentage,Bin,percent,11.9,12,0.0
HHS Region 4,Season peak percentage,Bin,percent,12,12.1,0.0
HHS Region 4,Season peak percentage,Bin,percent,12.1,12.2,0.0
HHS Region 4,Season peak percentage,Bin,percent,12.2,12.3,0.0
HHS Region 4,Season peak percentage,Bin,percent,12.3,12.4,0.0
HHS Region 4,Season peak percentage,Bin,percent,12.4,12.5,0.0
HHS Region 4,Season peak percentage,Bin,percent,12.5,12.6,0.0
HHS Region 4,Season peak percentage,Bin,percent,12.6,12.7,0.0
HHS Region 4,Season peak percentage,Bin,percent,12.7,12.8,0.0
HHS Region 4,Season peak percentage,Bin,percent,12.8,12.9,0.0
HHS Region 4,Season peak percentage,Bin,percent,12.9,13,0.0
HHS Region 4,Season peak percentage,Bin,percent,13,100,0.0
HHS Region 4,1 wk ahead,Point,percent,,,1.5
HHS Region 4,1 wk ahead,Bin,percent,0,0.1,0.007633588
HHS Region 4,1 wk ahead,Bin,percent,0.1,0.2,0.007633588
HHS Region 4,1 wk ahead,Bin,percent,0.2,0.3,0.007633588
HHS Region 4,1 wk ahead,Bin,percent,0.3,0.4,0.007633588
HHS Region 4,1 wk ahead,Bin,percent,0.4,0.5,0.007633588
HHS Region 4,1 wk ahead,Bin,percent,0.5,0.6,0.007633588
HHS Region 4,1 wk ahead,Bin,percent,0.6,0.7,0.007633588
HHS Region 4,1 wk ahead,Bin,percent,0.7,0.8,0.007633588
HHS Region 4,1 wk ahead,Bin,percent,0.8,0.9,0.007633588
HHS Region 4,1 wk ahead,Bin,percent,0.9,1,0.007633588
HHS Region 4,1 wk ahead,Bin,percent,1,1.1,0.007633588
HHS Region 4,1 wk ahead,Bin,percent,1.1,1.2,0.007633588
HHS Region 4,1 wk ahead,Bin,percent,1.2,1.3,0.007633588
HHS Region 4,1 wk ahead,Bin,percent,1.3,1.4,0.007633588
HHS Region 4,1 wk ahead,Bin,percent,1.4,1.5,0.007633588
HHS Region 4,1 wk ahead,Bin,percent,1.5,1.6,0.007633588
HHS Region 4,1 wk ahead,Bin,percent,1.6,1.7,0.007633588
HHS Region 4,1 wk ahead,Bin,percent,1.7,1.8,0.007633588
HHS Region 4,1 wk ahead,Bin,percent,1.8,1.9,0.007633588
HHS Region 4,1 wk ahead,Bin,percent,1.9,2,0.007633588
HHS Region 4,1 wk ahead,Bin,percent,2,2.1,0.007633588
HHS Region 4,1 wk ahead,Bin,percent,2.1,2.2,0.007633588
HHS Region 4,1 wk ahead,Bin,percent,2.2,2.3,0.007633588
HHS Region 4,1 wk ahead,Bin,percent,2.3,2.4,0.007633588
HHS Region 4,1 wk ahead,Bin,percent,2.4,2.5,0.007633588
HHS Region 4,1 wk ahead,Bin,percent,2.5,2.6,0.007633588
HHS Region 4,1 wk ahead,Bin,percent,2.6,2.7,0.007633588
HHS Region 4,1 wk ahead,Bin,percent,2.7,2.8,0.007633588
HHS Region 4,1 wk ahead,Bin,percent,2.8,2.9,0.007633588
HHS Region 4,1 wk ahead,Bin,percent,2.9,3,0.007633588
HHS Region 4,1 wk ahead,Bin,percent,3,3.1,0.007633588
HHS Region 4,1 wk ahead,Bin,percent,3.1,3.2,0.007633588
HHS Region 4,1 wk ahead,Bin,percent,3.2,3.3,0.007633588
HHS Region 4,1 wk ahead,Bin,percent,3.3,3.4,0.007633588
HHS Region 4,1 wk ahead,Bin,percent,3.4,3.5,0.007633588
HHS Region 4,1 wk ahead,Bin,percent,3.5,3.6,0.007633588
HHS Region 4,1 wk ahead,Bin,percent,3.6,3.7,0.007633588
HHS Region 4,1 wk ahead,Bin,percent,3.7,3.8,0.007633588
HHS Region 4,1 wk ahead,Bin,percent,3.8,3.9,0.007633588
HHS Region 4,1 wk ahead,Bin,percent,3.9,4,0.007633588
HHS Region 4,1 wk ahead,Bin,percent,4,4.1,0.007633588
HHS Region 4,1 wk ahead,Bin,percent,4.1,4.2,0.007633588
HHS Region 4,1 wk ahead,Bin,percent,4.2,4.3,0.007633588
HHS Region 4,1 wk ahead,Bin,percent,4.3,4.4,0.007633588
HHS Region 4,1 wk ahead,Bin,percent,4.4,4.5,0.007633588
HHS Region 4,1 wk ahead,Bin,percent,4.5,4.6,0.007633588
HHS Region 4,1 wk ahead,Bin,percent,4.6,4.7,0.007633588
HHS Region 4,1 wk ahead,Bin,percent,4.7,4.8,0.007633588
HHS Region 4,1 wk ahead,Bin,percent,4.8,4.9,0.007633588
HHS Region 4,1 wk ahead,Bin,percent,4.9,5,0.007633588
HHS Region 4,1 wk ahead,Bin,percent,5,5.1,0.007633588
HHS Region 4,1 wk ahead,Bin,percent,5.1,5.2,0.007633588
HHS Region 4,1 wk ahead,Bin,percent,5.2,5.3,0.007633588
HHS Region 4,1 wk ahead,Bin,percent,5.3,5.4,0.007633588
HHS Region 4,1 wk ahead,Bin,percent,5.4,5.5,0.007633588
HHS Region 4,1 wk ahead,Bin,percent,5.5,5.6,0.007633588
HHS Region 4,1 wk ahead,Bin,percent,5.6,5.7,0.007633588
HHS Region 4,1 wk ahead,Bin,percent,5.7,5.8,0.007633588
HHS Region 4,1 wk ahead,Bin,percent,5.8,5.9,0.007633588
HHS Region 4,1 wk ahead,Bin,percent,5.9,6,0.007633588
HHS Region 4,1 wk ahead,Bin,percent,6,6.1,0.007633588
HHS Region 4,1 wk ahead,Bin,percent,6.1,6.2,0.007633588
HHS Region 4,1 wk ahead,Bin,percent,6.2,6.3,0.007633588
HHS Region 4,1 wk ahead,Bin,percent,6.3,6.4,0.007633588
HHS Region 4,1 wk ahead,Bin,percent,6.4,6.5,0.007633588
HHS Region 4,1 wk ahead,Bin,percent,6.5,6.6,0.007633588
HHS Region 4,1 wk ahead,Bin,percent,6.6,6.7,0.007633588
HHS Region 4,1 wk ahead,Bin,percent,6.7,6.8,0.007633588
HHS Region 4,1 wk ahead,Bin,percent,6.8,6.9,0.007633588
HHS Region 4,1 wk ahead,Bin,percent,6.9,7,0.007633588
HHS Region 4,1 wk ahead,Bin,percent,7,7.1,0.007633588
HHS Region 4,1 wk ahead,Bin,percent,7.1,7.2,0.007633588
HHS Region 4,1 wk ahead,Bin,percent,7.2,7.3,0.007633588
HHS Region 4,1 wk ahead,Bin,percent,7.3,7.4,0.007633588
HHS Region 4,1 wk ahead,Bin,percent,7.4,7.5,0.007633588
HHS Region 4,1 wk ahead,Bin,percent,7.5,7.6,0.007633588
HHS Region 4,1 wk ahead,Bin,percent,7.6,7.7,0.007633588
HHS Region 4,1 wk ahead,Bin,percent,7.7,7.8,0.007633588
HHS Region 4,1 wk ahead,Bin,percent,7.8,7.9,0.007633588
HHS Region 4,1 wk ahead,Bin,percent,7.9,8,0.007633588
HHS Region 4,1 wk ahead,Bin,percent,8,8.1,0.007633588
HHS Region 4,1 wk ahead,Bin,percent,8.1,8.2,0.007633588
HHS Region 4,1 wk ahead,Bin,percent,8.2,8.3,0.007633588
HHS Region 4,1 wk ahead,Bin,percent,8.3,8.4,0.007633588
HHS Region 4,1 wk ahead,Bin,percent,8.4,8.5,0.007633588
HHS Region 4,1 wk ahead,Bin,percent,8.5,8.6,0.007633588
HHS Region 4,1 wk ahead,Bin,percent,8.6,8.7,0.007633588
HHS Region 4,1 wk ahead,Bin,percent,8.7,8.8,0.007633588
HHS Region 4,1 wk ahead,Bin,percent,8.8,8.9,0.007633588
HHS Region 4,1 wk ahead,Bin,percent,8.9,9,0.007633588
HHS Region 4,1 wk ahead,Bin,percent,9,9.1,0.007633588
HHS Region 4,1 wk ahead,Bin,percent,9.1,9.2,0.007633588
HHS Region 4,1 wk ahead,Bin,percent,9.2,9.3,0.007633588
HHS Region 4,1 wk ahead,Bin,percent,9.3,9.4,0.007633588
HHS Region 4,1 wk ahead,Bin,percent,9.4,9.5,0.007633588
HHS Region 4,1 wk ahead,Bin,percent,9.5,9.6,0.007633588
HHS Region 4,1 wk ahead,Bin,percent,9.6,9.7,0.007633588
HHS Region 4,1 wk ahead,Bin,percent,9.7,9.8,0.007633588
HHS Region 4,1 wk ahead,Bin,percent,9.8,9.9,0.007633588
HHS Region 4,1 wk ahead,Bin,percent,9.9,10,0.007633588
HHS Region 4,1 wk ahead,Bin,percent,10,10.1,0.007633588
HHS Region 4,1 wk ahead,Bin,percent,10.1,10.2,0.007633588
HHS Region 4,1 wk ahead,Bin,percent,10.2,10.3,0.007633588
HHS Region 4,1 wk ahead,Bin,percent,10.3,10.4,0.007633588
HHS Region 4,1 wk ahead,Bin,percent,10.4,10.5,0.007633588
HHS Region 4,1 wk ahead,Bin,percent,10.5,10.6,0.007633588
HHS Region 4,1 wk ahead,Bin,percent,10.6,10.7,0.007633588
HHS Region 4,1 wk ahead,Bin,percent,10.7,10.8,0.007633588
HHS Region 4,1 wk ahead,Bin,percent,10.8,10.9,0.007633588
HHS Region 4,1 wk ahead,Bin,percent,10.9,11,0.007633588
HHS Region 4,1 wk ahead,Bin,percent,11,11.1,0.007633588
HHS Region 4,1 wk ahead,Bin,percent,11.1,11.2,0.007633588
HHS Region 4,1 wk ahead,Bin,percent,11.2,11.3,0.007633588
HHS Region 4,1 wk ahead,Bin,percent,11.3,11.4,0.007633588
HHS Region 4,1 wk ahead,Bin,percent,11.4,11.5,0.007633588
HHS Region 4,1 wk ahead,Bin,percent,11.5,11.6,0.007633588
HHS Region 4,1 wk ahead,Bin,percent,11.6,11.7,0.007633588
HHS Region 4,1 wk ahead,Bin,percent,11.7,11.8,0.007633588
HHS Region 4,1 wk ahead,Bin,percent,11.8,11.9,0.007633588
HHS Region 4,1 wk ahead,Bin,percent,11.9,12,0.007633588
HHS Region 4,1 wk ahead,Bin,percent,12,12.1,0.007633588
HHS Region 4,1 wk ahead,Bin,percent,12.1,12.2,0.007633588
HHS Region 4,1 wk ahead,Bin,percent,12.2,12.3,0.007633588
HHS Region 4,1 wk ahead,Bin,percent,12.3,12.4,0.007633588
HHS Region 4,1 wk ahead,Bin,percent,12.4,12.5,0.007633588
HHS Region 4,1 wk ahead,Bin,percent,12.5,12.6,0.007633588
HHS Region 4,1 wk ahead,Bin,percent,12.6,12.7,0.007633588
HHS Region 4,1 wk ahead,Bin,percent,12.7,12.8,0.007633588
HHS Region 4,1 wk ahead,Bin,percent,12.8,12.9,0.007633588
HHS Region 4,1 wk ahead,Bin,percent,12.9,13,0.007633588
HHS Region 4,1 wk ahead,Bin,percent,13,100,0.007633588
HHS Region 4,2 wk ahead,Point,percent,,,1.5
HHS Region 4,2 wk ahead,Bin,percent,0,0.1,0.007633588
HHS Region 4,2 wk ahead,Bin,percent,0.1,0.2,0.007633588
HHS Region 4,2 wk ahead,Bin,percent,0.2,0.3,0.007633588
HHS Region 4,2 wk ahead,Bin,percent,0.3,0.4,0.007633588
HHS Region 4,2 wk ahead,Bin,percent,0.4,0.5,0.007633588
HHS Region 4,2 wk ahead,Bin,percent,0.5,0.6,0.007633588
HHS Region 4,2 wk ahead,Bin,percent,0.6,0.7,0.007633588
HHS Region 4,2 wk ahead,Bin,percent,0.7,0.8,0.007633588
HHS Region 4,2 wk ahead,Bin,percent,0.8,0.9,0.007633588
HHS Region 4,2 wk ahead,Bin,percent,0.9,1,0.007633588
HHS Region 4,2 wk ahead,Bin,percent,1,1.1,0.007633588
HHS Region 4,2 wk ahead,Bin,percent,1.1,1.2,0.007633588
HHS Region 4,2 wk ahead,Bin,percent,1.2,1.3,0.007633588
HHS Region 4,2 wk ahead,Bin,percent,1.3,1.4,0.007633588
HHS Region 4,2 wk ahead,Bin,percent,1.4,1.5,0.007633588
HHS Region 4,2 wk ahead,Bin,percent,1.5,1.6,0.007633588
HHS Region 4,2 wk ahead,Bin,percent,1.6,1.7,0.007633588
HHS Region 4,2 wk ahead,Bin,percent,1.7,1.8,0.007633588
HHS Region 4,2 wk ahead,Bin,percent,1.8,1.9,0.007633588
HHS Region 4,2 wk ahead,Bin,percent,1.9,2,0.007633588
HHS Region 4,2 wk ahead,Bin,percent,2,2.1,0.007633588
HHS Region 4,2 wk ahead,Bin,percent,2.1,2.2,0.007633588
HHS Region 4,2 wk ahead,Bin,percent,2.2,2.3,0.007633588
HHS Region 4,2 wk ahead,Bin,percent,2.3,2.4,0.007633588
HHS Region 4,2 wk ahead,Bin,percent,2.4,2.5,0.007633588
HHS Region 4,2 wk ahead,Bin,percent,2.5,2.6,0.007633588
HHS Region 4,2 wk ahead,Bin,percent,2.6,2.7,0.007633588
HHS Region 4,2 wk ahead,Bin,percent,2.7,2.8,0.007633588
HHS Region 4,2 wk ahead,Bin,percent,2.8,2.9,0.007633588
HHS Region 4,2 wk ahead,Bin,percent,2.9,3,0.007633588
HHS Region 4,2 wk ahead,Bin,percent,3,3.1,0.007633588
HHS Region 4,2 wk ahead,Bin,percent,3.1,3.2,0.007633588
HHS Region 4,2 wk ahead,Bin,percent,3.2,3.3,0.007633588
HHS Region 4,2 wk ahead,Bin,percent,3.3,3.4,0.007633588
HHS Region 4,2 wk ahead,Bin,percent,3.4,3.5,0.007633588
HHS Region 4,2 wk ahead,Bin,percent,3.5,3.6,0.007633588
HHS Region 4,2 wk ahead,Bin,percent,3.6,3.7,0.007633588
HHS Region 4,2 wk ahead,Bin,percent,3.7,3.8,0.007633588
HHS Region 4,2 wk ahead,Bin,percent,3.8,3.9,0.007633588
HHS Region 4,2 wk ahead,Bin,percent,3.9,4,0.007633588
HHS Region 4,2 wk ahead,Bin,percent,4,4.1,0.007633588
HHS Region 4,2 wk ahead,Bin,percent,4.1,4.2,0.007633588
HHS Region 4,2 wk ahead,Bin,percent,4.2,4.3,0.007633588
HHS Region 4,2 wk ahead,Bin,percent,4.3,4.4,0.007633588
HHS Region 4,2 wk ahead,Bin,percent,4.4,4.5,0.007633588
HHS Region 4,2 wk ahead,Bin,percent,4.5,4.6,0.007633588
HHS Region 4,2 wk ahead,Bin,percent,4.6,4.7,0.007633588
HHS Region 4,2 wk ahead,Bin,percent,4.7,4.8,0.007633588
HHS Region 4,2 wk ahead,Bin,percent,4.8,4.9,0.007633588
HHS Region 4,2 wk ahead,Bin,percent,4.9,5,0.007633588
HHS Region 4,2 wk ahead,Bin,percent,5,5.1,0.007633588
HHS Region 4,2 wk ahead,Bin,percent,5.1,5.2,0.007633588
HHS Region 4,2 wk ahead,Bin,percent,5.2,5.3,0.007633588
HHS Region 4,2 wk ahead,Bin,percent,5.3,5.4,0.007633588
HHS Region 4,2 wk ahead,Bin,percent,5.4,5.5,0.007633588
HHS Region 4,2 wk ahead,Bin,percent,5.5,5.6,0.007633588
HHS Region 4,2 wk ahead,Bin,percent,5.6,5.7,0.007633588
HHS Region 4,2 wk ahead,Bin,percent,5.7,5.8,0.007633588
HHS Region 4,2 wk ahead,Bin,percent,5.8,5.9,0.007633588
HHS Region 4,2 wk ahead,Bin,percent,5.9,6,0.007633588
HHS Region 4,2 wk ahead,Bin,percent,6,6.1,0.007633588
HHS Region 4,2 wk ahead,Bin,percent,6.1,6.2,0.007633588
HHS Region 4,2 wk ahead,Bin,percent,6.2,6.3,0.007633588
HHS Region 4,2 wk ahead,Bin,percent,6.3,6.4,0.007633588
HHS Region 4,2 wk ahead,Bin,percent,6.4,6.5,0.007633588
HHS Region 4,2 wk ahead,Bin,percent,6.5,6.6,0.007633588
HHS Region 4,2 wk ahead,Bin,percent,6.6,6.7,0.007633588
HHS Region 4,2 wk ahead,Bin,percent,6.7,6.8,0.007633588
HHS Region 4,2 wk ahead,Bin,percent,6.8,6.9,0.007633588
HHS Region 4,2 wk ahead,Bin,percent,6.9,7,0.007633588
HHS Region 4,2 wk ahead,Bin,percent,7,7.1,0.007633588
HHS Region 4,2 wk ahead,Bin,percent,7.1,7.2,0.007633588
HHS Region 4,2 wk ahead,Bin,percent,7.2,7.3,0.007633588
HHS Region 4,2 wk ahead,Bin,percent,7.3,7.4,0.007633588
HHS Region 4,2 wk ahead,Bin,percent,7.4,7.5,0.007633588
HHS Region 4,2 wk ahead,Bin,percent,7.5,7.6,0.007633588
HHS Region 4,2 wk ahead,Bin,percent,7.6,7.7,0.007633588
HHS Region 4,2 wk ahead,Bin,percent,7.7,7.8,0.007633588
HHS Region 4,2 wk ahead,Bin,percent,7.8,7.9,0.007633588
HHS Region 4,2 wk ahead,Bin,percent,7.9,8,0.007633588
HHS Region 4,2 wk ahead,Bin,percent,8,8.1,0.007633588
HHS Region 4,2 wk ahead,Bin,percent,8.1,8.2,0.007633588
HHS Region 4,2 wk ahead,Bin,percent,8.2,8.3,0.007633588
HHS Region 4,2 wk ahead,Bin,percent,8.3,8.4,0.007633588
HHS Region 4,2 wk ahead,Bin,percent,8.4,8.5,0.007633588
HHS Region 4,2 wk ahead,Bin,percent,8.5,8.6,0.007633588
HHS Region 4,2 wk ahead,Bin,percent,8.6,8.7,0.007633588
HHS Region 4,2 wk ahead,Bin,percent,8.7,8.8,0.007633588
HHS Region 4,2 wk ahead,Bin,percent,8.8,8.9,0.007633588
HHS Region 4,2 wk ahead,Bin,percent,8.9,9,0.007633588
HHS Region 4,2 wk ahead,Bin,percent,9,9.1,0.007633588
HHS Region 4,2 wk ahead,Bin,percent,9.1,9.2,0.007633588
HHS Region 4,2 wk ahead,Bin,percent,9.2,9.3,0.007633588
HHS Region 4,2 wk ahead,Bin,percent,9.3,9.4,0.007633588
HHS Region 4,2 wk ahead,Bin,percent,9.4,9.5,0.007633588
HHS Region 4,2 wk ahead,Bin,percent,9.5,9.6,0.007633588
HHS Region 4,2 wk ahead,Bin,percent,9.6,9.7,0.007633588
HHS Region 4,2 wk ahead,Bin,percent,9.7,9.8,0.007633588
HHS Region 4,2 wk ahead,Bin,percent,9.8,9.9,0.007633588
HHS Region 4,2 wk ahead,Bin,percent,9.9,10,0.007633588
HHS Region 4,2 wk ahead,Bin,percent,10,10.1,0.007633588
HHS Region 4,2 wk ahead,Bin,percent,10.1,10.2,0.007633588
HHS Region 4,2 wk ahead,Bin,percent,10.2,10.3,0.007633588
HHS Region 4,2 wk ahead,Bin,percent,10.3,10.4,0.007633588
HHS Region 4,2 wk ahead,Bin,percent,10.4,10.5,0.007633588
HHS Region 4,2 wk ahead,Bin,percent,10.5,10.6,0.007633588
HHS Region 4,2 wk ahead,Bin,percent,10.6,10.7,0.007633588
HHS Region 4,2 wk ahead,Bin,percent,10.7,10.8,0.007633588
HHS Region 4,2 wk ahead,Bin,percent,10.8,10.9,0.007633588
HHS Region 4,2 wk ahead,Bin,percent,10.9,11,0.007633588
HHS Region 4,2 wk ahead,Bin,percent,11,11.1,0.007633588
HHS Region 4,2 wk ahead,Bin,percent,11.1,11.2,0.007633588
HHS Region 4,2 wk ahead,Bin,percent,11.2,11.3,0.007633588
HHS Region 4,2 wk ahead,Bin,percent,11.3,11.4,0.007633588
HHS Region 4,2 wk ahead,Bin,percent,11.4,11.5,0.007633588
HHS Region 4,2 wk ahead,Bin,percent,11.5,11.6,0.007633588
HHS Region 4,2 wk ahead,Bin,percent,11.6,11.7,0.007633588
HHS Region 4,2 wk ahead,Bin,percent,11.7,11.8,0.007633588
HHS Region 4,2 wk ahead,Bin,percent,11.8,11.9,0.007633588
HHS Region 4,2 wk ahead,Bin,percent,11.9,12,0.007633588
HHS Region 4,2 wk ahead,Bin,percent,12,12.1,0.007633588
HHS Region 4,2 wk ahead,Bin,percent,12.1,12.2,0.007633588
HHS Region 4,2 wk ahead,Bin,percent,12.2,12.3,0.007633588
HHS Region 4,2 wk ahead,Bin,percent,12.3,12.4,0.007633588
HHS Region 4,2 wk ahead,Bin,percent,12.4,12.5,0.007633588
HHS Region 4,2 wk ahead,Bin,percent,12.5,12.6,0.007633588
HHS Region 4,2 wk ahead,Bin,percent,12.6,12.7,0.007633588
HHS Region 4,2 wk ahead,Bin,percent,12.7,12.8,0.007633588
HHS Region 4,2 wk ahead,Bin,percent,12.8,12.9,0.007633588
HHS Region 4,2 wk ahead,Bin,percent,12.9,13,0.007633588
HHS Region 4,2 wk ahead,Bin,percent,13,100,0.007633588
HHS Region 4,3 wk ahead,Point,percent,,,1.5
HHS Region 4,3 wk ahead,Bin,percent,0,0.1,0.007633588
HHS Region 4,3 wk ahead,Bin,percent,0.1,0.2,0.007633588
HHS Region 4,3 wk ahead,Bin,percent,0.2,0.3,0.007633588
HHS Region 4,3 wk ahead,Bin,percent,0.3,0.4,0.007633588
HHS Region 4,3 wk ahead,Bin,percent,0.4,0.5,0.007633588
HHS Region 4,3 wk ahead,Bin,percent,0.5,0.6,0.007633588
HHS Region 4,3 wk ahead,Bin,percent,0.6,0.7,0.007633588
HHS Region 4,3 wk ahead,Bin,percent,0.7,0.8,0.007633588
HHS Region 4,3 wk ahead,Bin,percent,0.8,0.9,0.007633588
HHS Region 4,3 wk ahead,Bin,percent,0.9,1,0.007633588
HHS Region 4,3 wk ahead,Bin,percent,1,1.1,0.007633588
HHS Region 4,3 wk ahead,Bin,percent,1.1,1.2,0.007633588
HHS Region 4,3 wk ahead,Bin,percent,1.2,1.3,0.007633588
HHS Region 4,3 wk ahead,Bin,percent,1.3,1.4,0.007633588
HHS Region 4,3 wk ahead,Bin,percent,1.4,1.5,0.007633588
HHS Region 4,3 wk ahead,Bin,percent,1.5,1.6,0.007633588
HHS Region 4,3 wk ahead,Bin,percent,1.6,1.7,0.007633588
HHS Region 4,3 wk ahead,Bin,percent,1.7,1.8,0.007633588
HHS Region 4,3 wk ahead,Bin,percent,1.8,1.9,0.007633588
HHS Region 4,3 wk ahead,Bin,percent,1.9,2,0.007633588
HHS Region 4,3 wk ahead,Bin,percent,2,2.1,0.007633588
HHS Region 4,3 wk ahead,Bin,percent,2.1,2.2,0.007633588
HHS Region 4,3 wk ahead,Bin,percent,2.2,2.3,0.007633588
HHS Region 4,3 wk ahead,Bin,percent,2.3,2.4,0.007633588
HHS Region 4,3 wk ahead,Bin,percent,2.4,2.5,0.007633588
HHS Region 4,3 wk ahead,Bin,percent,2.5,2.6,0.007633588
HHS Region 4,3 wk ahead,Bin,percent,2.6,2.7,0.007633588
HHS Region 4,3 wk ahead,Bin,percent,2.7,2.8,0.007633588
HHS Region 4,3 wk ahead,Bin,percent,2.8,2.9,0.007633588
HHS Region 4,3 wk ahead,Bin,percent,2.9,3,0.007633588
HHS Region 4,3 wk ahead,Bin,percent,3,3.1,0.007633588
HHS Region 4,3 wk ahead,Bin,percent,3.1,3.2,0.007633588
HHS Region 4,3 wk ahead,Bin,percent,3.2,3.3,0.007633588
HHS Region 4,3 wk ahead,Bin,percent,3.3,3.4,0.007633588
HHS Region 4,3 wk ahead,Bin,percent,3.4,3.5,0.007633588
HHS Region 4,3 wk ahead,Bin,percent,3.5,3.6,0.007633588
HHS Region 4,3 wk ahead,Bin,percent,3.6,3.7,0.007633588
HHS Region 4,3 wk ahead,Bin,percent,3.7,3.8,0.007633588
HHS Region 4,3 wk ahead,Bin,percent,3.8,3.9,0.007633588
HHS Region 4,3 wk ahead,Bin,percent,3.9,4,0.007633588
HHS Region 4,3 wk ahead,Bin,percent,4,4.1,0.007633588
HHS Region 4,3 wk ahead,Bin,percent,4.1,4.2,0.007633588
HHS Region 4,3 wk ahead,Bin,percent,4.2,4.3,0.007633588
HHS Region 4,3 wk ahead,Bin,percent,4.3,4.4,0.007633588
HHS Region 4,3 wk ahead,Bin,percent,4.4,4.5,0.007633588
HHS Region 4,3 wk ahead,Bin,percent,4.5,4.6,0.007633588
HHS Region 4,3 wk ahead,Bin,percent,4.6,4.7,0.007633588
HHS Region 4,3 wk ahead,Bin,percent,4.7,4.8,0.007633588
HHS Region 4,3 wk ahead,Bin,percent,4.8,4.9,0.007633588
HHS Region 4,3 wk ahead,Bin,percent,4.9,5,0.007633588
HHS Region 4,3 wk ahead,Bin,percent,5,5.1,0.007633588
HHS Region 4,3 wk ahead,Bin,percent,5.1,5.2,0.007633588
HHS Region 4,3 wk ahead,Bin,percent,5.2,5.3,0.007633588
HHS Region 4,3 wk ahead,Bin,percent,5.3,5.4,0.007633588
HHS Region 4,3 wk ahead,Bin,percent,5.4,5.5,0.007633588
HHS Region 4,3 wk ahead,Bin,percent,5.5,5.6,0.007633588
HHS Region 4,3 wk ahead,Bin,percent,5.6,5.7,0.007633588
HHS Region 4,3 wk ahead,Bin,percent,5.7,5.8,0.007633588
HHS Region 4,3 wk ahead,Bin,percent,5.8,5.9,0.007633588
HHS Region 4,3 wk ahead,Bin,percent,5.9,6,0.007633588
HHS Region 4,3 wk ahead,Bin,percent,6,6.1,0.007633588
HHS Region 4,3 wk ahead,Bin,percent,6.1,6.2,0.007633588
HHS Region 4,3 wk ahead,Bin,percent,6.2,6.3,0.007633588
HHS Region 4,3 wk ahead,Bin,percent,6.3,6.4,0.007633588
HHS Region 4,3 wk ahead,Bin,percent,6.4,6.5,0.007633588
HHS Region 4,3 wk ahead,Bin,percent,6.5,6.6,0.007633588
HHS Region 4,3 wk ahead,Bin,percent,6.6,6.7,0.007633588
HHS Region 4,3 wk ahead,Bin,percent,6.7,6.8,0.007633588
HHS Region 4,3 wk ahead,Bin,percent,6.8,6.9,0.007633588
HHS Region 4,3 wk ahead,Bin,percent,6.9,7,0.007633588
HHS Region 4,3 wk ahead,Bin,percent,7,7.1,0.007633588
HHS Region 4,3 wk ahead,Bin,percent,7.1,7.2,0.007633588
HHS Region 4,3 wk ahead,Bin,percent,7.2,7.3,0.007633588
HHS Region 4,3 wk ahead,Bin,percent,7.3,7.4,0.007633588
HHS Region 4,3 wk ahead,Bin,percent,7.4,7.5,0.007633588
HHS Region 4,3 wk ahead,Bin,percent,7.5,7.6,0.007633588
HHS Region 4,3 wk ahead,Bin,percent,7.6,7.7,0.007633588
HHS Region 4,3 wk ahead,Bin,percent,7.7,7.8,0.007633588
HHS Region 4,3 wk ahead,Bin,percent,7.8,7.9,0.007633588
HHS Region 4,3 wk ahead,Bin,percent,7.9,8,0.007633588
HHS Region 4,3 wk ahead,Bin,percent,8,8.1,0.007633588
HHS Region 4,3 wk ahead,Bin,percent,8.1,8.2,0.007633588
HHS Region 4,3 wk ahead,Bin,percent,8.2,8.3,0.007633588
HHS Region 4,3 wk ahead,Bin,percent,8.3,8.4,0.007633588
HHS Region 4,3 wk ahead,Bin,percent,8.4,8.5,0.007633588
HHS Region 4,3 wk ahead,Bin,percent,8.5,8.6,0.007633588
HHS Region 4,3 wk ahead,Bin,percent,8.6,8.7,0.007633588
HHS Region 4,3 wk ahead,Bin,percent,8.7,8.8,0.007633588
HHS Region 4,3 wk ahead,Bin,percent,8.8,8.9,0.007633588
HHS Region 4,3 wk ahead,Bin,percent,8.9,9,0.007633588
HHS Region 4,3 wk ahead,Bin,percent,9,9.1,0.007633588
HHS Region 4,3 wk ahead,Bin,percent,9.1,9.2,0.007633588
HHS Region 4,3 wk ahead,Bin,percent,9.2,9.3,0.007633588
HHS Region 4,3 wk ahead,Bin,percent,9.3,9.4,0.007633588
HHS Region 4,3 wk ahead,Bin,percent,9.4,9.5,0.007633588
HHS Region 4,3 wk ahead,Bin,percent,9.5,9.6,0.007633588
HHS Region 4,3 wk ahead,Bin,percent,9.6,9.7,0.007633588
HHS Region 4,3 wk ahead,Bin,percent,9.7,9.8,0.007633588
HHS Region 4,3 wk ahead,Bin,percent,9.8,9.9,0.007633588
HHS Region 4,3 wk ahead,Bin,percent,9.9,10,0.007633588
HHS Region 4,3 wk ahead,Bin,percent,10,10.1,0.007633588
HHS Region 4,3 wk ahead,Bin,percent,10.1,10.2,0.007633588
HHS Region 4,3 wk ahead,Bin,percent,10.2,10.3,0.007633588
HHS Region 4,3 wk ahead,Bin,percent,10.3,10.4,0.007633588
HHS Region 4,3 wk ahead,Bin,percent,10.4,10.5,0.007633588
HHS Region 4,3 wk ahead,Bin,percent,10.5,10.6,0.007633588
HHS Region 4,3 wk ahead,Bin,percent,10.6,10.7,0.007633588
HHS Region 4,3 wk ahead,Bin,percent,10.7,10.8,0.007633588
HHS Region 4,3 wk ahead,Bin,percent,10.8,10.9,0.007633588
HHS Region 4,3 wk ahead,Bin,percent,10.9,11,0.007633588
HHS Region 4,3 wk ahead,Bin,percent,11,11.1,0.007633588
HHS Region 4,3 wk ahead,Bin,percent,11.1,11.2,0.007633588
HHS Region 4,3 wk ahead,Bin,percent,11.2,11.3,0.007633588
HHS Region 4,3 wk ahead,Bin,percent,11.3,11.4,0.007633588
HHS Region 4,3 wk ahead,Bin,percent,11.4,11.5,0.007633588
HHS Region 4,3 wk ahead,Bin,percent,11.5,11.6,0.007633588
HHS Region 4,3 wk ahead,Bin,percent,11.6,11.7,0.007633588
HHS Region 4,3 wk ahead,Bin,percent,11.7,11.8,0.007633588
HHS Region 4,3 wk ahead,Bin,percent,11.8,11.9,0.007633588
HHS Region 4,3 wk ahead,Bin,percent,11.9,12,0.007633588
HHS Region 4,3 wk ahead,Bin,percent,12,12.1,0.007633588
HHS Region 4,3 wk ahead,Bin,percent,12.1,12.2,0.007633588
HHS Region 4,3 wk ahead,Bin,percent,12.2,12.3,0.007633588
HHS Region 4,3 wk ahead,Bin,percent,12.3,12.4,0.007633588
HHS Region 4,3 wk ahead,Bin,percent,12.4,12.5,0.007633588
HHS Region 4,3 wk ahead,Bin,percent,12.5,12.6,0.007633588
HHS Region 4,3 wk ahead,Bin,percent,12.6,12.7,0.007633588
HHS Region 4,3 wk ahead,Bin,percent,12.7,12.8,0.007633588
HHS Region 4,3 wk ahead,Bin,percent,12.8,12.9,0.007633588
HHS Region 4,3 wk ahead,Bin,percent,12.9,13,0.007633588
HHS Region 4,3 wk ahead,Bin,percent,13,100,0.007633588
HHS Region 4,4 wk ahead,Point,percent,,,1.5
HHS Region 4,4 wk ahead,Bin,percent,0,0.1,0.007633588
HHS Region 4,4 wk ahead,Bin,percent,0.1,0.2,0.007633588
HHS Region 4,4 wk ahead,Bin,percent,0.2,0.3,0.007633588
HHS Region 4,4 wk ahead,Bin,percent,0.3,0.4,0.007633588
HHS Region 4,4 wk ahead,Bin,percent,0.4,0.5,0.007633588
HHS Region 4,4 wk ahead,Bin,percent,0.5,0.6,0.007633588
HHS Region 4,4 wk ahead,Bin,percent,0.6,0.7,0.007633588
HHS Region 4,4 wk ahead,Bin,percent,0.7,0.8,0.007633588
HHS Region 4,4 wk ahead,Bin,percent,0.8,0.9,0.007633588
HHS Region 4,4 wk ahead,Bin,percent,0.9,1,0.007633588
HHS Region 4,4 wk ahead,Bin,percent,1,1.1,0.007633588
HHS Region 4,4 wk ahead,Bin,percent,1.1,1.2,0.007633588
HHS Region 4,4 wk ahead,Bin,percent,1.2,1.3,0.007633588
HHS Region 4,4 wk ahead,Bin,percent,1.3,1.4,0.007633588
HHS Region 4,4 wk ahead,Bin,percent,1.4,1.5,0.007633588
HHS Region 4,4 wk ahead,Bin,percent,1.5,1.6,0.007633588
HHS Region 4,4 wk ahead,Bin,percent,1.6,1.7,0.007633588
HHS Region 4,4 wk ahead,Bin,percent,1.7,1.8,0.007633588
HHS Region 4,4 wk ahead,Bin,percent,1.8,1.9,0.007633588
HHS Region 4,4 wk ahead,Bin,percent,1.9,2,0.007633588
HHS Region 4,4 wk ahead,Bin,percent,2,2.1,0.007633588
HHS Region 4,4 wk ahead,Bin,percent,2.1,2.2,0.007633588
HHS Region 4,4 wk ahead,Bin,percent,2.2,2.3,0.007633588
HHS Region 4,4 wk ahead,Bin,percent,2.3,2.4,0.007633588
HHS Region 4,4 wk ahead,Bin,percent,2.4,2.5,0.007633588
HHS Region 4,4 wk ahead,Bin,percent,2.5,2.6,0.007633588
HHS Region 4,4 wk ahead,Bin,percent,2.6,2.7,0.007633588
HHS Region 4,4 wk ahead,Bin,percent,2.7,2.8,0.007633588
HHS Region 4,4 wk ahead,Bin,percent,2.8,2.9,0.007633588
HHS Region 4,4 wk ahead,Bin,percent,2.9,3,0.007633588
HHS Region 4,4 wk ahead,Bin,percent,3,3.1,0.007633588
HHS Region 4,4 wk ahead,Bin,percent,3.1,3.2,0.007633588
HHS Region 4,4 wk ahead,Bin,percent,3.2,3.3,0.007633588
HHS Region 4,4 wk ahead,Bin,percent,3.3,3.4,0.007633588
HHS Region 4,4 wk ahead,Bin,percent,3.4,3.5,0.007633588
HHS Region 4,4 wk ahead,Bin,percent,3.5,3.6,0.007633588
HHS Region 4,4 wk ahead,Bin,percent,3.6,3.7,0.007633588
HHS Region 4,4 wk ahead,Bin,percent,3.7,3.8,0.007633588
HHS Region 4,4 wk ahead,Bin,percent,3.8,3.9,0.007633588
HHS Region 4,4 wk ahead,Bin,percent,3.9,4,0.007633588
HHS Region 4,4 wk ahead,Bin,percent,4,4.1,0.007633588
HHS Region 4,4 wk ahead,Bin,percent,4.1,4.2,0.007633588
HHS Region 4,4 wk ahead,Bin,percent,4.2,4.3,0.007633588
HHS Region 4,4 wk ahead,Bin,percent,4.3,4.4,0.007633588
HHS Region 4,4 wk ahead,Bin,percent,4.4,4.5,0.007633588
HHS Region 4,4 wk ahead,Bin,percent,4.5,4.6,0.007633588
HHS Region 4,4 wk ahead,Bin,percent,4.6,4.7,0.007633588
HHS Region 4,4 wk ahead,Bin,percent,4.7,4.8,0.007633588
HHS Region 4,4 wk ahead,Bin,percent,4.8,4.9,0.007633588
HHS Region 4,4 wk ahead,Bin,percent,4.9,5,0.007633588
HHS Region 4,4 wk ahead,Bin,percent,5,5.1,0.007633588
HHS Region 4,4 wk ahead,Bin,percent,5.1,5.2,0.007633588
HHS Region 4,4 wk ahead,Bin,percent,5.2,5.3,0.007633588
HHS Region 4,4 wk ahead,Bin,percent,5.3,5.4,0.007633588
HHS Region 4,4 wk ahead,Bin,percent,5.4,5.5,0.007633588
HHS Region 4,4 wk ahead,Bin,percent,5.5,5.6,0.007633588
HHS Region 4,4 wk ahead,Bin,percent,5.6,5.7,0.007633588
HHS Region 4,4 wk ahead,Bin,percent,5.7,5.8,0.007633588
HHS Region 4,4 wk ahead,Bin,percent,5.8,5.9,0.007633588
HHS Region 4,4 wk ahead,Bin,percent,5.9,6,0.007633588
HHS Region 4,4 wk ahead,Bin,percent,6,6.1,0.007633588
HHS Region 4,4 wk ahead,Bin,percent,6.1,6.2,0.007633588
HHS Region 4,4 wk ahead,Bin,percent,6.2,6.3,0.007633588
HHS Region 4,4 wk ahead,Bin,percent,6.3,6.4,0.007633588
HHS Region 4,4 wk ahead,Bin,percent,6.4,6.5,0.007633588
HHS Region 4,4 wk ahead,Bin,percent,6.5,6.6,0.007633588
HHS Region 4,4 wk ahead,Bin,percent,6.6,6.7,0.007633588
HHS Region 4,4 wk ahead,Bin,percent,6.7,6.8,0.007633588
HHS Region 4,4 wk ahead,Bin,percent,6.8,6.9,0.007633588
HHS Region 4,4 wk ahead,Bin,percent,6.9,7,0.007633588
HHS Region 4,4 wk ahead,Bin,percent,7,7.1,0.007633588
HHS Region 4,4 wk ahead,Bin,percent,7.1,7.2,0.007633588
HHS Region 4,4 wk ahead,Bin,percent,7.2,7.3,0.007633588
HHS Region 4,4 wk ahead,Bin,percent,7.3,7.4,0.007633588
HHS Region 4,4 wk ahead,Bin,percent,7.4,7.5,0.007633588
HHS Region 4,4 wk ahead,Bin,percent,7.5,7.6,0.007633588
HHS Region 4,4 wk ahead,Bin,percent,7.6,7.7,0.007633588
HHS Region 4,4 wk ahead,Bin,percent,7.7,7.8,0.007633588
HHS Region 4,4 wk ahead,Bin,percent,7.8,7.9,0.007633588
HHS Region 4,4 wk ahead,Bin,percent,7.9,8,0.007633588
HHS Region 4,4 wk ahead,Bin,percent,8,8.1,0.007633588
HHS Region 4,4 wk ahead,Bin,percent,8.1,8.2,0.007633588
HHS Region 4,4 wk ahead,Bin,percent,8.2,8.3,0.007633588
HHS Region 4,4 wk ahead,Bin,percent,8.3,8.4,0.007633588
HHS Region 4,4 wk ahead,Bin,percent,8.4,8.5,0.007633588
HHS Region 4,4 wk ahead,Bin,percent,8.5,8.6,0.007633588
HHS Region 4,4 wk ahead,Bin,percent,8.6,8.7,0.007633588
HHS Region 4,4 wk ahead,Bin,percent,8.7,8.8,0.007633588
HHS Region 4,4 wk ahead,Bin,percent,8.8,8.9,0.007633588
HHS Region 4,4 wk ahead,Bin,percent,8.9,9,0.007633588
HHS Region 4,4 wk ahead,Bin,percent,9,9.1,0.007633588
HHS Region 4,4 wk ahead,Bin,percent,9.1,9.2,0.007633588
HHS Region 4,4 wk ahead,Bin,percent,9.2,9.3,0.007633588
HHS Region 4,4 wk ahead,Bin,percent,9.3,9.4,0.007633588
HHS Region 4,4 wk ahead,Bin,percent,9.4,9.5,0.007633588
HHS Region 4,4 wk ahead,Bin,percent,9.5,9.6,0.007633588
HHS Region 4,4 wk ahead,Bin,percent,9.6,9.7,0.007633588
HHS Region 4,4 wk ahead,Bin,percent,9.7,9.8,0.007633588
HHS Region 4,4 wk ahead,Bin,percent,9.8,9.9,0.007633588
HHS Region 4,4 wk ahead,Bin,percent,9.9,10,0.007633588
HHS Region 4,4 wk ahead,Bin,percent,10,10.1,0.007633588
HHS Region 4,4 wk ahead,Bin,percent,10.1,10.2,0.007633588
HHS Region 4,4 wk ahead,Bin,percent,10.2,10.3,0.007633588
HHS Region 4,4 wk ahead,Bin,percent,10.3,10.4,0.007633588
HHS Region 4,4 wk ahead,Bin,percent,10.4,10.5,0.007633588
HHS Region 4,4 wk ahead,Bin,percent,10.5,10.6,0.007633588
HHS Region 4,4 wk ahead,Bin,percent,10.6,10.7,0.007633588
HHS Region 4,4 wk ahead,Bin,percent,10.7,10.8,0.007633588
HHS Region 4,4 wk ahead,Bin,percent,10.8,10.9,0.007633588
HHS Region 4,4 wk ahead,Bin,percent,10.9,11,0.007633588
HHS Region 4,4 wk ahead,Bin,percent,11,11.1,0.007633588
HHS Region 4,4 wk ahead,Bin,percent,11.1,11.2,0.007633588
HHS Region 4,4 wk ahead,Bin,percent,11.2,11.3,0.007633588
HHS Region 4,4 wk ahead,Bin,percent,11.3,11.4,0.007633588
HHS Region 4,4 wk ahead,Bin,percent,11.4,11.5,0.007633588
HHS Region 4,4 wk ahead,Bin,percent,11.5,11.6,0.007633588
HHS Region 4,4 wk ahead,Bin,percent,11.6,11.7,0.007633588
HHS Region 4,4 wk ahead,Bin,percent,11.7,11.8,0.007633588
HHS Region 4,4 wk ahead,Bin,percent,11.8,11.9,0.007633588
HHS Region 4,4 wk ahead,Bin,percent,11.9,12,0.007633588
HHS Region 4,4 wk ahead,Bin,percent,12,12.1,0.007633588
HHS Region 4,4 wk ahead,Bin,percent,12.1,12.2,0.007633588
HHS Region 4,4 wk ahead,Bin,percent,12.2,12.3,0.007633588
HHS Region 4,4 wk ahead,Bin,percent,12.3,12.4,0.007633588
HHS Region 4,4 wk ahead,Bin,percent,12.4,12.5,0.007633588
HHS Region 4,4 wk ahead,Bin,percent,12.5,12.6,0.007633588
HHS Region 4,4 wk ahead,Bin,percent,12.6,12.7,0.007633588
HHS Region 4,4 wk ahead,Bin,percent,12.7,12.8,0.007633588
HHS Region 4,4 wk ahead,Bin,percent,12.8,12.9,0.007633588
HHS Region 4,4 wk ahead,Bin,percent,12.9,13,0.007633588
HHS Region 4,4 wk ahead,Bin,percent,13,100,0.007633588
