year,ew,wili,actual_ew
2003,1.0,0.6157274,21
2003,2.0,0.6021415,22
2003,3.0,1.402214,23
2003,4.0,0.4522517,24
2003,5.0,0.7938471,25
2003,6.0,0.2391806,26
2003,7.0,0.5655217,27
2003,8.0,0.2852508,28
2003,9.0,0.6937495,29
2003,10.0,0.2437182,30
2003,11.0,0.3158795,31
2003,12.0,0.5846639,32
2003,13.0,0.7245017,33
2003,14.0,0.858344,34
2003,15.0,0.5974206,35
2003,16.0,1.779774,36
2003,17.0,1.137448,37
2003,18.0,1.305571,38
2003,19.0,1.415687,39
2003,20.0,0.5121374,40
2003,21.0,0.6522427,41
2003,22.0,1.936855,42
2003,23.0,1.388663,43
2003,24.0,0.816174,44
2003,25.0,1.70464,45
2003,26.0,1.566171,46
2003,27.0,3.214106,47
2003,28.0,5.889599,48
2003,29.0,7.116398,49
2003,30.0,9.101972,50
2003,31.0,6.986301,51
2003,32.0,8.069536,52
2004,33.0,3.055551,1
2004,34.0,2.130679,2
2004,35.0,1.972795,3
2004,36.0,1.758326,4
2004,37.0,1.708215,5
2004,38.0,1.524314,6
2004,39.0,1.383571,7
2004,40.0,1.238583,8
2004,41.0,0.9430709,9
2004,42.0,1.198931,10
2004,43.0,1.51294,11
2004,44.0,0.9266831,12
2004,45.0,0.7183173,13
2004,46.0,0.5326665,14
2004,47.0,0.6635034,15
2004,48.0,0.4907829,16
2004,49.0,0.3823792,17
2004,50.0,0.3432348,18
2004,51.0,0.4462051,19
2004,52.0,0.6296192,20
