year,ew,wili,num_ili,num_patients,age_0,age_1,age_2,age_3,age_4,age_5
2005,21,0.800164396808,594,39400,203,214,146,,,31
2005,22,0.920133477906,607,34179,214,195,165,,,33
2005,23,0.910858011575,486,31656,144,189,131,,,22
2005,24,0.822585572314,479,32892,203,172,91,,,13
2005,25,0.750648979646,462,31655,169,163,115,,,15
2005,26,0.712567264577,414,30241,154,152,96,,,12
2005,27,0.636253712347,364,25910,139,109,96,,,20
2005,28,0.502893280968,303,26968,97,100,88,,,18
2005,29,0.338317565693,272,27648,87,90,78,,,17
2005,30,0.382871307969,304,28474,97,78,104,,,25
2005,31,0.525350055789,292,25487,114,74,89,,,15
2005,32,0.473668712197,327,27549,121,99,97,,,10
2005,33,0.506825270539,331,29761,126,106,82,,,17
2005,34,0.48532055446,200,27359,68,80,44,,,8
2005,35,0.571933230046,208,26324,94,65,43,,,6
2005,36,0.584652799571,193,23553,76,58,43,,,16
2005,37,0.494717226371,148,24849,72,41,26,,,9
2005,38,0.542233259006,169,25537,80,51,34,,,4
2005,39,0.822824267359,212,26284,96,81,31,,,4
2005,40,0.584092884639,602,72673,166,214,189,,,33
2005,41,0.821644876717,864,78438,271,274,255,,,64
2005,42,0.863117864468,1074,88298,335,389,296,,,54
2005,43,0.936814830502,1088,87175,346,383,304,,,55
2005,44,0.974573110154,1198,93360,339,419,376,,,64
2005,45,1.07450320288,1227,91008,409,462,309,,,47
2005,46,1.15900911436,1289,95560,421,464,336,,,68
2005,47,1.30186380318,1216,69462,420,403,339,,,54
2005,48,1.05798584705,1370,96312,420,477,402,,,71
2005,49,1.43070136295,1602,88042,577,542,396,,,87
2005,50,1.48220361597,1676,88837,551,538,499,,,88
2005,51,1.60909865326,1723,77285,637,529,462,,,95
2005,52,2.00527770384,2014,65169,660,485,679,,,190
2006,1,1.82385115963,2057,83452,617,519,749,,,172
2006,2,1.58274768313,2017,97231,608,699,587,,,123
2006,3,1.72219654525,2033,96792,600,798,536,,,99
2006,4,1.96752847488,2445,101297,701,970,659,,,115
2006,5,2.43534129059,2795,101545,672,1259,757,,,107
2006,6,2.81060187714,3282,100979,793,1469,872,,,148
2006,7,3.70952996354,3652,96707,597,1758,1088,,,209
2006,8,3.58811404506,3804,99975,750,1659,1140,,,255
2006,9,3.12122431487,3426,98833,717,1457,993,,,259
2006,10,2.45896169819,2693,96284,642,1103,813,,,135
2006,11,2.08766328525,2225,87577,543,883,598,,,201
2006,12,1.42455154122,1519,89143,400,573,448,,,98
2006,13,1.44835284296,1473,87635,354,557,448,,,114
2006,14,1.15751895908,1133,74941,328,451,294,,,60
2006,15,0.809684594485,764,73695,232,275,214,,,43
2006,16,0.742522910565,671,65632,218,217,202,,,34
2006,17,0.758628076905,691,62654,195,242,216,,,38
2006,18,0.721675824318,626,57151,207,245,144,,,30
2006,19,0.773202535105,572,53195,195,207,144,,,26
2006,20,0.761435281524,626,51482,208,218,167,,,33
