year,ew,wili,num_ili,num_patients,age_0,age_1,age_2,age_3,age_4,age_5
2016,21,1.06968,1400,96846,503,520,,226,98,53
2016,22,1.0761,1242,95017,428,393,,266,100,55
2016,23,0.958225,1056,96512,352,349,,216,74,65
2016,24,0.995012,1003,98804,333,311,,189,118,52
2016,25,0.844627,846,96943,301,272,,172,65,36
2016,26,0.713695,736,90813,249,226,,151,65,45
2016,27,0.675263,722,87143,269,253,,108,44,48
2016,28,0.65847,713,95123,268,226,,130,50,39
2016,29,0.637795,688,100290,231,237,,121,48,51
2016,30,0.653224,713,104216,224,268,,130,57,34
2016,31,0.615225,684,98893,254,219,,125,52,34
2016,32,0.851918,988,103003,309,370,,189,66,54
2016,33,0.859982,1192,108868,385,472,,222,69,44
2016,34,0.992024,1433,99574,428,606,,247,86,66
2016,35,1.01695,1258,92045,409,495,,216,76,62
2016,36,0.900288,1220,93579,386,488,,218,76,52
2016,37,1.07002,1370,104295,414,540,,264,86,66
2016,38,1.1253,1532,107007,500,573,,298,90,71
2016,39,1.31649,1531,98608,485,587,,295,99,65
2016,40,1.17386,2032,162608,645,806,,379,117,85
2016,41,1.23174,2131,146674,714,769,,399,153,96
2016,42,1.2768,2372,156834,782,898,,414,185,93
2016,43,1.38032,2622,157229,789,994,,532,198,109
2016,44,1.64361,2939,157298,928,1176,,518,195,122
2016,45,1.67847,3059,155725,991,1170,,569,189,140
2016,46,1.9058,3177,150166,972,1241,,598,225,141
2016,47,2.19048,3152,125995,1115,1000,,613,268,156
2016,48,1.92682,3525,158875,931,1223,,820,304,247
2016,49,1.82204,3074,146304,860,1138,,610,270,196
2016,50,2.27691,3455,134125,954,1306,,720,292,183
2016,51,2.93491,4187,112472,1276,1421,,875,371,244
2016,52,3.37282,4421,109589,1380,1211,,992,471,367
2017,1,2.91179,4182,126571,1021,1239,,1053,501,368
2017,2,2.89395,4508,139198,908,1816,,964,466,354
2017,3,3.68564,5668,141182,1092,2715,,1072,475,314
2017,4,3.69188,5808,146142,1089,2965,,1053,420,281
2017,5,4.53169,7022,145264,1180,3778,,1238,491,335
2017,6,5.11778,8537,153728,1432,4227,,1656,741,481
2017,7,5.5107,9150,147323,1523,4376,,1889,786,576
2017,8,5.48046,9006,147279,1516,4246,,1882,788,574
2017,9,4.52709,7180,144669,1273,3161,,1545,702,499
2017,10,4.53598,6590,135440,1224,2963,,1359,631,413
2017,11,3.878,6162,135470,1200,2674,,1297,565,426
2017,12,4.67964,7626,149787,1342,3500,,1620,676,488
2017,13,3.6751,5781,143723,1114,2578,,1187,520,382
2017,14,2.74066,3785,128737,812,1586,,788,336,263
2017,15,2.17782,3067,128018,727,1248,,620,254,218
2017,16,1.79914,2552,126512,605,1060,,511,220,156
2017,17,1.49321,2210,131927,540,876,,426,202,166
2017,18,1.24508,1971,127599,501,805,,383,175,107
2017,19,1.39615,1932,117980,492,743,,417,176,104
2017,20,1.27115,1772,113557,465,683,,373,161,90
