year,ew,wili,actual_ew
2001.0,1.0,0.9359523,21.0
2001.0,2.0,0.9359523,22.0
2001.0,3.0,0.9359523,23.0
2001.0,4.0,0.9359523,24.0
2001.0,5.0,0.9359523,25.0
2001.0,6.0,0.9359523,26.0
2001.0,7.0,0.9359523,27.0
2001.0,8.0,0.9359523,28.0
2001.0,9.0,0.9359523,29.0
2001.0,10.0,0.9359523,30.0
2001.0,11.0,0.9359523,31.0
2001.0,12.0,0.9359523,32.0
2001.0,13.0,0.9359523,33.0
2001.0,14.0,0.9359523,34.0
2001.0,15.0,0.9359523,35.0
2001.0,16.0,0.9359523,36.0
2001.0,17.0,0.9359523,37.0
2001.0,18.0,0.9359523,38.0
2001.0,19.0,0.9359523,39.0
2001.0,20.0,0.9359523,40.0
2001.0,21.0,2.036099,41.0
2001.0,22.0,1.188465,42.0
2001.0,23.0,1.993862,43.0
2001.0,24.0,1.613703,44.0
2001.0,25.0,1.75141,45.0
2001.0,26.0,1.30343,46.0
2001.0,27.0,1.434429,47.0
2001.0,28.0,1.617851,48.0
2001.0,29.0,1.388404,49.0
2001.0,30.0,1.312971,50.0
2001.0,31.0,1.690748,51.0
2001.0,32.0,2.264578,52.0
2002.0,33.0,2.287911,1.0
2002.0,34.0,1.528604,2.0
2002.0,35.0,1.61461,3.0
2002.0,36.0,1.999099,4.0
2002.0,37.0,2.126303,5.0
2002.0,38.0,2.672162,6.0
2002.0,39.0,3.304497,7.0
2002.0,40.0,3.616485,8.0
2002.0,41.0,3.439241,9.0
2002.0,42.0,2.597964,10.0
2002.0,43.0,1.99187,11.0
2002.0,44.0,1.844101,12.0
2002.0,45.0,1.764485,13.0
2002.0,46.0,1.452951,14.0
2002.0,47.0,0.9557129,15.0
2002.0,48.0,0.7975736,16.0
2002.0,49.0,0.7315374,17.0
2002.0,50.0,0.5106083,18.0
2002.0,51.0,0.5333346,19.0
2002.0,52.0,0.4709871,20.0
