year,ew,wili,actual_ew
2006,1.0,0.6937486,21
2006,2.0,0.6175329,22
2006,3.0,0.5831733,23
2006,4.0,0.5860474,24
2006,5.0,0.5758105,25
2006,6.0,0.5597695,26
2006,7.0,0.553928,27
2006,8.0,0.5316362,28
2006,9.0,0.5213092,29
2006,10.0,0.4379339,30
2006,11.0,0.5119965,31
2006,12.0,0.4706675,32
2006,13.0,0.5570136,33
2006,14.0,0.5017298,34
2006,15.0,0.5530835,35
2006,16.0,0.6780869,36
2006,17.0,0.6798904,37
2006,18.0,0.7328733,38
2006,19.0,0.5593502,39
2006,20.0,1.052311,40
2006,21.0,1.127522,41
2006,22.0,1.194712,42
2006,23.0,1.227003,43
2006,24.0,1.178448,44
2006,25.0,1.294967,45
2006,26.0,1.380337,46
2006,27.0,1.438857,47
2006,28.0,1.474822,48
2006,29.0,1.591822,49
2006,30.0,1.737139,50
2006,31.0,2.175661,51
2006,32.0,2.669067,52
2007,33.0,2.39844,1
2007,34.0,1.97338,2
2007,35.0,2.154509,3
2007,36.0,2.422686,4
2007,37.0,3.213043,5
2007,38.0,3.223889,6
2007,39.0,3.35427,7
2007,40.0,3.199109,8
2007,41.0,2.915369,9
2007,42.0,2.687308,10
2007,43.0,2.768601,11
2007,44.0,2.682245,12
2007,45.0,1.743203,13
2007,46.0,1.349171,14
2007,47.0,1.269105,15
2007,48.0,1.119934,16
2007,49.0,1.059705,17
2007,50.0,0.9055739,18
2007,51.0,0.8266932,19
2007,52.0,0.8308051,20
