year,ew,wili,actual_ew
2010,1.0,0.597978,21
2010,2.0,0.6943341,22
2010,3.0,0.6261717,23
2010,4.0,0.6847166,24
2010,5.0,0.6345234,25
2010,6.0,0.5277255,26
2010,7.0,0.6480393,27
2010,8.0,0.5855059,28
2010,9.0,0.5163759,29
2010,10.0,0.4737591,30
2010,11.0,0.4711321,31
2010,12.0,0.58428,32
2010,13.0,0.6131249,33
2010,14.0,0.5424112,34
2010,15.0,0.5510284,35
2010,16.0,0.6583672,36
2010,17.0,0.7337202,37
2010,18.0,0.7094665,38
2010,19.0,0.6149635,39
2010,20.0,0.672024,40
2010,21.0,0.756464,41
2010,22.0,0.861933,42
2010,23.0,0.863467,43
2010,24.0,1.027979,44
2010,25.0,0.9486897,45
2010,26.0,0.9489897,46
2010,27.0,1.035169,47
2010,28.0,0.928607,48
2010,29.0,0.9625903,49
2010,30.0,1.067252,50
2010,31.0,1.384272,51
2010,32.0,1.697667,52
2011,33.0,1.527409,1
2011,34.0,1.739266,2
2011,35.0,2.441452,3
2011,36.0,3.336676,4
2011,37.0,3.779818,5
2011,38.0,3.330851,6
2011,39.0,3.316912,7
2011,40.0,3.140378,8
2011,41.0,2.855872,9
2011,42.0,2.518018,10
2011,43.0,2.400362,11
2011,44.0,1.616781,12
2011,45.0,1.526128,13
2011,46.0,1.266278,14
2011,47.0,0.9034637,15
2011,48.0,0.8521643,16
2011,49.0,0.7756904,17
2011,50.0,0.7520916,18
2011,51.0,0.7642081,19
2011,52.0,0.7675066,20
