year,ew,wili,actual_ew
2011,1.0,0.6365723,21
2011,2.0,0.8216807,22
2011,3.0,0.5850038,23
2011,4.0,0.5065667,24
2011,5.0,0.5394805,25
2011,6.0,0.6368565,26
2011,7.0,0.7393234,27
2011,8.0,0.4020451,28
2011,9.0,0.4817389,29
2011,10.0,0.4406801,30
2011,11.0,0.5803439,31
2011,12.0,0.4606231,32
2011,13.0,0.5184869,33
2011,14.0,0.5550236,34
2011,15.0,0.6235765,35
2011,16.0,0.6579345,36
2011,17.0,0.6600786,37
2011,18.0,0.8386289,38
2011,19.0,0.8956071,39
2011,20.0,0.9410509,40
2011,21.0,0.9433951,41
2011,22.0,1.049936,42
2011,23.0,0.9984706,43
2011,24.0,1.091478,44
2011,25.0,1.117588,45
2011,26.0,1.020914,46
2011,27.0,1.245406,47
2011,28.0,1.059572,48
2011,29.0,1.005922,49
2011,30.0,1.148846,50
2011,31.0,1.248374,51
2011,32.0,1.544116,52
2012,33.0,1.246724,1
2012,34.0,1.155288,2
2012,35.0,1.179668,3
2012,36.0,1.270184,4
2012,37.0,1.455456,5
2012,38.0,1.396842,6
2012,39.0,1.554852,7
2012,40.0,1.772987,8
2012,41.0,1.811842,9
2012,42.0,2.047652,10
2012,43.0,2.395587,11
2012,44.0,1.880202,12
2012,45.0,1.346632,13
2012,46.0,1.443296,14
2012,47.0,1.150784,15
2012,48.0,1.034776,16
2012,49.0,0.9361188,17
2012,50.0,1.046207,18
2012,51.0,0.9596363,19
2012,52.0,0.8152827,20
