year,ew,wili,actual_ew
2016,1.0,0.8033812,21
2016,2.0,0.9117909,22
2016,3.0,0.8399224,23
2016,4.0,0.7005578,24
2016,5.0,0.5732474,25
2016,6.0,0.5595276,26
2016,7.0,0.5307464,27
2016,8.0,0.5284956,28
2016,9.0,0.526214,29
2016,10.0,0.5710687,30
2016,11.0,0.5592821,31
2016,12.0,0.5004499,32
2016,13.0,0.5350443,33
2016,14.0,0.6945694,34
2016,15.0,0.6391093,35
2016,16.0,0.6965013,36
2016,17.0,0.793294,37
2016,18.0,0.856036,38
2016,19.0,0.9825517,39
2016,20.0,1.001905,40
2016,21.0,0.979534,41
2016,22.0,1.039273,42
2016,23.0,1.107857,43
2016,24.0,1.264841,44
2016,25.0,1.237985,45
2016,26.0,1.214855,46
2016,27.0,1.268321,47
2016,28.0,1.248387,48
2016,29.0,1.485331,49
2016,30.0,1.554625,50
2016,31.0,1.844845,51
2016,32.0,2.368159,52
2017,33.0,2.104845,1
2017,34.0,2.118027,2
2017,35.0,2.442743,3
2017,36.0,2.762265,4
2017,37.0,3.183599,5
2017,38.0,3.915773,6
2017,39.0,4.319697,7
2017,40.0,4.259563,8
2017,41.0,3.046677,9
2017,42.0,3.315603,10
2017,43.0,3.000647,11
2017,44.0,2.811243,12
2017,45.0,2.387647,13
2017,46.0,2.085243,14
2017,47.0,1.595589,15
2017,48.0,1.430535,16
2017,49.0,1.285089,17
2017,50.0,1.133968,18
2017,51.0,1.121949,19
2017,52.0,0.9377642,20
