season,noise
2009-2010,9.67410837213e-07
2002-2003,0.000126503745192
2014-2015,2.47391350808e-06
2013-2014,1.89691209808e-07
2005-2006,1.66408503768e-05
2016-2017,1.80180766846e-06
2007-2008,4.04154100708e-06
1999-2000,3.32068805565e-07
2011-2012,5.96093975e-08
2012-2013,2.783016775e-07
2004-2005,3.2845508619e-08
2008-2009,3.1872257872e-07
2015-2016,1.09965527846e-06
2003-2004,3.14647407628e-07
2001-2002,0.000805088742561
1997-1998,1.60914491475e-05
2006-2007,2.94524981154e-07
2010-2011,1.22665055503e-06
2000-2001,6.12004690303e-07
1998-1999,0.000513257071911
