year,ew,wili,num_ili,num_patients,age_0,age_1,age_2,age_3,age_4,age_5
2017,21,0.823691,785,78920,214,298,,133,84,56
2017,22,0.785368,692,72164,218,218,,137,70,49
2017,23,0.717118,629,73878,199,173,,126,74,57
2017,24,0.639736,536,70692,148,163,,112,55,58
2017,25,0.659815,559,73264,190,135,,124,64,46
2017,26,0.572332,454,64705,144,136,,97,42,35
2017,27,0.486301,368,60728,124,101,,70,44,29
2017,28,0.559928,451,68238,154,116,,106,46,29
2017,29,0.553207,413,68445,143,122,,80,39,29
2017,30,0.559602,421,68834,144,119,,85,45,28
2017,31,0.602327,430,67242,149,125,,80,47,29
2017,32,0.612967,417,68137,139,121,,85,44,28
2017,33,0.637141,453,69239,160,131,,92,43,27
2017,34,0.627954,471,72401,167,136,,102,44,22
2017,35,0.724628,571,76020,177,195,,104,48,47
2017,36,0.859425,646,69512,167,212,,138,67,62
2017,37,1.04165,916,85769,253,360,,148,95,60
2017,38,1.11121,1003,87398,281,373,,183,96,70
2017,39,1.29017,1090,87979,353,376,,187,95,79
2017,40,1.16846,1280,113800,367,509,,221,108,75
2017,41,1.20313,1333,112330,447,456,,238,108,84
2017,42,1.17486,1315,116953,445,439,,242,104,85
2017,43,1.26987,1385,113728,479,490,,232,108,76
2017,44,1.26463,1375,114430,457,517,,209,116,76
2017,45,1.35895,1586,117069,511,596,,260,128,91
2017,46,1.22861,1434,113076,437,555,,239,116,87
2017,47,1.6047,1364,84660,498,419,,219,113,115
2017,48,1.63956,1930,116744,562,692,,371,123,182
2017,49,1.95724,2218,116139,625,786,,422,212,173
2017,50,2.2306,2625,109875,789,962,,436,227,211
2017,51,3.30343,3483,101842,964,1096,,664,355,404
2017,52,4.73738,3746,75982,894,970,,789,479,614
2018,1,4.50184,4227,91011,941,945,,990,589,762
2018,2,4.54336,4362,96503,866,1290,,1011,592,603
2018,3,5.09471,4268,85147,889,1544,,900,473,462
