year,ew,wili,num_ili,num_patients,age_0,age_1,age_2,age_3,age_4,age_5
2010,21,0.979830995586,1143,97134,502,350,,195,59,37
2010,22,0.855458333281,1117,95545,444,403,,180,58,32
2010,23,0.878080401059,1008,95884,432,320,,163,56,37
2010,24,0.938340293067,1010,95800,438,355,,153,35,29
2010,25,1.10681386227,1106,95276,478,394,,147,52,35
2010,26,0.960693619128,1020,94166,457,347,,149,43,24
2010,27,0.98394590697,999,93423,462,324,,144,45,24
2010,28,1.07686061914,878,95743,377,323,,117,39,22
2010,29,0.84896597135,810,94134,330,279,,137,41,23
2010,30,0.716710026234,825,92607,321,292,,150,39,23
2010,31,0.950145157154,863,91303,327,289,,167,53,27
2010,32,1.09417641348,780,89394,331,242,,146,38,23
2010,33,1.12341923724,795,85915,299,282,,141,49,24
2010,34,0.893625370035,701,88214,286,225,,113,44,33
2010,35,0.723873249135,703,93099,259,227,,154,37,26
2010,36,0.905189599274,894,91028,317,273,,188,83,33
2010,37,0.986935320318,907,95703,333,321,,174,45,34
2010,38,0.863728792207,1184,100966,468,436,,185,58,37
2010,39,1.07985751027,1082,95223,380,389,,209,69,35
2010,40,1.16869,1259,110686,429,449,,246,89,46
2010,41,1.32645,1494,110048,553,504,,269,101,67
2010,42,1.21948,1419,114130,519,506,,251,103,40
2010,43,1.38946,1476,115176,557,544,,243,92,40
2010,44,1.22194,1518,108803,582,531,,266,91,48
2010,45,1.39471,1804,112695,792,618,,250,88,56
2010,46,1.42987,2047,117021,830,698,,363,113,43
2010,47,1.65444,2172,101031,959,695,,321,124,73
2010,48,2.19869,2799,115387,1338,854,,421,117,69
2010,49,2.48266,3010,113359,1294,1061,,444,124,87
2010,50,3.01943,3680,114758,1508,1392,,523,164,93
2010,51,4.21664,4471,105360,1790,1611,,692,248,130
2010,52,4.47832,4173,94795,1672,1270,,821,259,151
2011,1,3.33753,3873,117477,1384,1153,,860,308,168
2011,2,3.83669,3496,106170,1140,1258,,698,263,137
2011,3,3.65077,3251,107353,1083,1164,,658,225,121
2011,4,3.93498,3060,104893,894,1351,,600,141,74
2011,5,4.05683,3110,108787,927,1445,,507,139,92
2011,6,4.09076,3338,115601,894,1684,,505,175,80
2011,7,4.25042,3363,114209,928,1734,,512,141,48
2011,8,4.31914,3238,109159,1040,1388,,558,160,92
2011,9,3.44821,2653,112560,858,1094,,492,140,69
2011,10,3.18862,2283,108410,726,994,,372,126,65
2011,11,3.17757,2216,107772,788,910,,340,113,65
2011,12,2.49454,2042,106142,667,906,,308,112,49
2011,13,2.74673,2068,106279,735,879,,290,114,50
2011,14,2.46478,2093,108123,731,895,,322,103,42
2011,15,2.22908,1702,102826,654,667,,247,85,49
2011,16,2.19754,1626,98145,655,571,,252,89,59
2011,17,1.74624,1385,105051,601,420,,218,88,58
2011,18,1.6154,1300,106412,505,439,,215,91,50
2011,19,1.71908,1436,112079,538,545,,235,77,41
2011,20,1.4441,1237,103870,478,432,,200,86,41
