year,ew,wili,num_ili,num_patients,age_0,age_1,age_2,age_3,age_4,age_5
2017,21,1.82629,1982,127608,682,708,,348,131,113
2017,22,1.95155,2057,121958,722,701,,371,145,118
2017,23,1.8621,2263,127037,977,675,,341,141,129
2017,24,1.69066,1870,125763,747,599,,301,121,102
2017,25,1.82187,1780,126429,644,613,,304,113,106
2017,26,1.57032,1723,124000,721,513,,265,120,104
2017,27,1.52523,1600,114733,657,458,,287,107,91
2017,28,1.38403,1399,116371,531,437,,247,110,74
2017,29,1.44517,1373,118525,556,379,,231,113,94
2017,30,1.45844,1419,116490,561,431,,235,122,70
2017,31,1.32634,1339,115395,528,395,,227,102,87
2017,32,1.34713,1391,116508,537,406,,262,104,82
2017,33,1.16,1186,110855,436,334,,236,115,65
2017,34,1.41631,1348,115195,507,400,,273,86,82
2017,35,1.32707,1324,115495,491,353,,274,111,95
2017,36,1.46302,1295,115447,472,372,,242,114,95
2017,37,1.41128,1739,136941,542,549,,375,152,121
2017,38,1.50731,2008,135964,674,655,,382,143,154
2017,39,1.55262,2083,141249,765,646,,386,158,128
2017,40,1.53711,2016,140880,749,613,,369,149,136
2017,41,1.64493,2131,139607,806,612,,411,161,141
2017,42,1.87371,2511,144611,912,833,,446,168,152
2017,43,2.09551,2651,145371,1042,797,,405,215,192
2017,44,2.42838,2708,140186,1110,808,,451,195,144
2017,45,2.40944,2719,140730,1177,778,,421,191,152
2017,46,2.83541,3443,144564,1490,961,,538,260,194
2017,47,2.85102,3021,128223,1352,808,,464,218,179
2017,48,2.97803,3084,147579,1262,869,,495,256,202
2017,49,3.1613,3804,142757,1618,1090,,588,286,222
2017,50,3.60163,3904,136260,1488,1255,,619,303,239
2017,51,4.34297,4588,137652,1737,1476,,750,362,263
2017,52,4.55199,4929,124612,1811,1360,,973,429,356
2018,1,4.97142,4926,120856,1533,1313,,1114,553,413
2018,2,6.17752,6262,144138,1660,1975,,1371,690,566
2018,3,7.0408,7948,139772,1932,2734,,1733,919,630
