year,ew,wili,actual_ew
2010,1.0,1.214479,21
2010,2.0,1.308773,22
2010,3.0,0.9633122,23
2010,4.0,0.8537608,24
2010,5.0,0.9311205,25
2010,6.0,0.9172441,26
2010,7.0,0.9801949,27
2010,8.0,0.9388177,28
2010,9.0,0.8137182,29
2010,10.0,0.7556705,30
2010,11.0,0.7136992,31
2010,12.0,0.5476617,32
2010,13.0,0.7860377,33
2010,14.0,0.8231403,34
2010,15.0,1.121361,35
2010,16.0,1.317118,36
2010,17.0,1.136832,37
2010,18.0,1.211527,38
2010,19.0,1.345751,39
2010,20.0,1.843397,40
2010,21.0,1.868713,41
2010,22.0,1.987027,42
2010,23.0,1.997761,43
2010,24.0,2.246425,44
2010,25.0,2.361555,45
2010,26.0,2.40662,46
2010,27.0,2.617005,47
2010,28.0,2.461087,48
2010,29.0,2.336253,49
2010,30.0,2.898823,50
2010,31.0,3.843177,51
2010,32.0,3.776505,52
2011,33.0,3.33678,1
2011,34.0,4.418034,2
2011,35.0,5.748622,3
2011,36.0,6.901652,4
2011,37.0,7.602094,5
2011,38.0,7.780271,6
2011,39.0,7.942647,7
2011,40.0,6.258943,8
2011,41.0,4.735119,9
2011,42.0,3.576465,10
2011,43.0,3.016895,11
2011,44.0,2.888029,12
2011,45.0,2.007673,13
2011,46.0,1.828827,14
2011,47.0,1.466453,15
2011,48.0,1.473017,16
2011,49.0,1.334032,17
2011,50.0,1.406001,18
2011,51.0,1.446434,19
2011,52.0,1.212839,20
