Location,Target,Type,Unit,Bin_start_incl,Bin_end_notincl,Value
HHS Region 10,Season onset,Point,week,,,51.0
HHS Region 10,Season onset,Bin,week,40,41,0.0
HHS Region 10,Season onset,Bin,week,41,42,0.0
HHS Region 10,Season onset,Bin,week,42,43,0.0
HHS Region 10,Season onset,Bin,week,43,44,0.0
HHS Region 10,Season onset,Bin,week,44,45,0.0
HHS Region 10,Season onset,Bin,week,45,46,4.2274318716e-135
HHS Region 10,Season onset,Bin,week,46,47,1.57480920988e-18
HHS Region 10,Season onset,Bin,week,47,48,1.0
HHS Region 10,Season onset,Bin,week,48,49,1.46438416948e-13
HHS Region 10,Season onset,Bin,week,49,50,0.0
HHS Region 10,Season onset,Bin,week,50,51,0.0
HHS Region 10,Season onset,Bin,week,51,52,0.0
HHS Region 10,Season onset,Bin,week,52,53,0.0
HHS Region 10,Season onset,Bin,week,1,2,0.0
HHS Region 10,Season onset,Bin,week,2,3,0.0
HHS Region 10,Season onset,Bin,week,3,4,0.0
HHS Region 10,Season onset,Bin,week,4,5,0.0
HHS Region 10,Season onset,Bin,week,5,6,0.0
HHS Region 10,Season onset,Bin,week,6,7,0.0
HHS Region 10,Season onset,Bin,week,7,8,0.0
HHS Region 10,Season onset,Bin,week,8,9,0.0
HHS Region 10,Season onset,Bin,week,9,10,0.0
HHS Region 10,Season onset,Bin,week,10,11,0.0
HHS Region 10,Season onset,Bin,week,11,12,0.0
HHS Region 10,Season onset,Bin,week,12,13,0.0
HHS Region 10,Season onset,Bin,week,13,14,0.0
HHS Region 10,Season onset,Bin,week,14,15,0.0
HHS Region 10,Season onset,Bin,week,15,16,0.0
HHS Region 10,Season onset,Bin,week,16,17,0.0
HHS Region 10,Season onset,Bin,week,17,18,0.0
HHS Region 10,Season onset,Bin,week,18,19,0.0
HHS Region 10,Season onset,Bin,week,19,20,0.0
HHS Region 10,Season onset,Bin,week,20,21,0.029411765
HHS Region 10,Season onset,Bin,week,none,none,0.029411765
HHS Region 10,Season peak week,Point,week,,,51.0
HHS Region 10,Season peak week,Bin,week,40,41,0.0
HHS Region 10,Season peak week,Bin,week,41,42,0.0
HHS Region 10,Season peak week,Bin,week,42,43,0.0
HHS Region 10,Season peak week,Bin,week,43,44,0.0
HHS Region 10,Season peak week,Bin,week,44,45,0.0
HHS Region 10,Season peak week,Bin,week,45,46,0.0
HHS Region 10,Season peak week,Bin,week,46,47,0.0
HHS Region 10,Season peak week,Bin,week,47,48,0.0
HHS Region 10,Season peak week,Bin,week,48,49,0.0
HHS Region 10,Season peak week,Bin,week,49,50,0.0
HHS Region 10,Season peak week,Bin,week,50,51,0.0
HHS Region 10,Season peak week,Bin,week,51,52,0.0
HHS Region 10,Season peak week,Bin,week,52,53,0.0
HHS Region 10,Season peak week,Bin,week,1,2,0.0
HHS Region 10,Season peak week,Bin,week,2,3,0.0
HHS Region 10,Season peak week,Bin,week,3,4,8.07622525509e-275
HHS Region 10,Season peak week,Bin,week,4,5,1.38879357882e-173
HHS Region 10,Season peak week,Bin,week,5,6,1.04571980345e-95
HHS Region 10,Season peak week,Bin,week,6,7,3.66678978921e-41
HHS Region 10,Season peak week,Bin,week,7,8,7.3768366112e-10
HHS Region 10,Season peak week,Bin,week,8,9,0.901752055716
HHS Region 10,Season peak week,Bin,week,9,10,0.0982479435463
HHS Region 10,Season peak week,Bin,week,10,11,0.0
HHS Region 10,Season peak week,Bin,week,11,12,0.0
HHS Region 10,Season peak week,Bin,week,12,13,0.0
HHS Region 10,Season peak week,Bin,week,13,14,0.0
HHS Region 10,Season peak week,Bin,week,14,15,0.0
HHS Region 10,Season peak week,Bin,week,15,16,0.0
HHS Region 10,Season peak week,Bin,week,16,17,0.0
HHS Region 10,Season peak week,Bin,week,17,18,0.0
HHS Region 10,Season peak week,Bin,week,18,19,0.0
HHS Region 10,Season peak week,Bin,week,19,20,0.0
HHS Region 10,Season peak week,Bin,week,20,21,0.03030303
HHS Region 10,Season peak percentage,Point,percent,,,1.5
HHS Region 10,Season peak percentage,Bin,percent,0,0.1,0.007633588
HHS Region 10,Season peak percentage,Bin,percent,0.1,0.2,0.0
HHS Region 10,Season peak percentage,Bin,percent,0.2,0.3,0.0
HHS Region 10,Season peak percentage,Bin,percent,0.3,0.4,0.0
HHS Region 10,Season peak percentage,Bin,percent,0.4,0.5,0.0
HHS Region 10,Season peak percentage,Bin,percent,0.5,0.6,0.0
HHS Region 10,Season peak percentage,Bin,percent,0.6,0.7,0.0
HHS Region 10,Season peak percentage,Bin,percent,0.7,0.8,0.0
HHS Region 10,Season peak percentage,Bin,percent,0.8,0.9,0.0
HHS Region 10,Season peak percentage,Bin,percent,0.9,1,0.0
HHS Region 10,Season peak percentage,Bin,percent,1,1.1,0.0
HHS Region 10,Season peak percentage,Bin,percent,1.1,1.2,0.0
HHS Region 10,Season peak percentage,Bin,percent,1.2,1.3,0.0
HHS Region 10,Season peak percentage,Bin,percent,1.3,1.4,0.0
HHS Region 10,Season peak percentage,Bin,percent,1.4,1.5,0.0
HHS Region 10,Season peak percentage,Bin,percent,1.5,1.6,0.0
HHS Region 10,Season peak percentage,Bin,percent,1.6,1.7,0.0
HHS Region 10,Season peak percentage,Bin,percent,1.7,1.8,0.0
HHS Region 10,Season peak percentage,Bin,percent,1.8,1.9,0.0
HHS Region 10,Season peak percentage,Bin,percent,1.9,2,0.0
HHS Region 10,Season peak percentage,Bin,percent,2,2.1,0.0
HHS Region 10,Season peak percentage,Bin,percent,2.1,2.2,0.0
HHS Region 10,Season peak percentage,Bin,percent,2.2,2.3,0.0
HHS Region 10,Season peak percentage,Bin,percent,2.3,2.4,1.767490137e-246
HHS Region 10,Season peak percentage,Bin,percent,2.4,2.5,2.2373889624e-131
HHS Region 10,Season peak percentage,Bin,percent,2.5,2.6,1.47241877944e-52
HHS Region 10,Season peak percentage,Bin,percent,2.6,2.7,6.66562702238e-10
HHS Region 10,Season peak percentage,Bin,percent,2.7,2.8,0.998983186943
HHS Region 10,Season peak percentage,Bin,percent,2.8,2.9,0.00101681239059
HHS Region 10,Season peak percentage,Bin,percent,2.9,3,0.0
HHS Region 10,Season peak percentage,Bin,percent,3,3.1,0.0
HHS Region 10,Season peak percentage,Bin,percent,3.1,3.2,0.0
HHS Region 10,Season peak percentage,Bin,percent,3.2,3.3,0.0
HHS Region 10,Season peak percentage,Bin,percent,3.3,3.4,0.0
HHS Region 10,Season peak percentage,Bin,percent,3.4,3.5,0.0
HHS Region 10,Season peak percentage,Bin,percent,3.5,3.6,0.0
HHS Region 10,Season peak percentage,Bin,percent,3.6,3.7,0.0
HHS Region 10,Season peak percentage,Bin,percent,3.7,3.8,0.0
HHS Region 10,Season peak percentage,Bin,percent,3.8,3.9,0.0
HHS Region 10,Season peak percentage,Bin,percent,3.9,4,0.0
HHS Region 10,Season peak percentage,Bin,percent,4,4.1,0.0
HHS Region 10,Season peak percentage,Bin,percent,4.1,4.2,0.0
HHS Region 10,Season peak percentage,Bin,percent,4.2,4.3,0.0
HHS Region 10,Season peak percentage,Bin,percent,4.3,4.4,0.0
HHS Region 10,Season peak percentage,Bin,percent,4.4,4.5,0.0
HHS Region 10,Season peak percentage,Bin,percent,4.5,4.6,0.0
HHS Region 10,Season peak percentage,Bin,percent,4.6,4.7,0.0
HHS Region 10,Season peak percentage,Bin,percent,4.7,4.8,0.0
HHS Region 10,Season peak percentage,Bin,percent,4.8,4.9,0.0
HHS Region 10,Season peak percentage,Bin,percent,4.9,5,0.0
HHS Region 10,Season peak percentage,Bin,percent,5,5.1,0.0
HHS Region 10,Season peak percentage,Bin,percent,5.1,5.2,0.0
HHS Region 10,Season peak percentage,Bin,percent,5.2,5.3,0.0
HHS Region 10,Season peak percentage,Bin,percent,5.3,5.4,0.0
HHS Region 10,Season peak percentage,Bin,percent,5.4,5.5,0.0
HHS Region 10,Season peak percentage,Bin,percent,5.5,5.6,0.0
HHS Region 10,Season peak percentage,Bin,percent,5.6,5.7,0.0
HHS Region 10,Season peak percentage,Bin,percent,5.7,5.8,0.0
HHS Region 10,Season peak percentage,Bin,percent,5.8,5.9,0.0
HHS Region 10,Season peak percentage,Bin,percent,5.9,6,0.0
HHS Region 10,Season peak percentage,Bin,percent,6,6.1,0.0
HHS Region 10,Season peak percentage,Bin,percent,6.1,6.2,0.0
HHS Region 10,Season peak percentage,Bin,percent,6.2,6.3,0.0
HHS Region 10,Season peak percentage,Bin,percent,6.3,6.4,0.0
HHS Region 10,Season peak percentage,Bin,percent,6.4,6.5,0.0
HHS Region 10,Season peak percentage,Bin,percent,6.5,6.6,0.0
HHS Region 10,Season peak percentage,Bin,percent,6.6,6.7,0.0
HHS Region 10,Season peak percentage,Bin,percent,6.7,6.8,0.0
HHS Region 10,Season peak percentage,Bin,percent,6.8,6.9,0.0
HHS Region 10,Season peak percentage,Bin,percent,6.9,7,0.0
HHS Region 10,Season peak percentage,Bin,percent,7,7.1,0.0
HHS Region 10,Season peak percentage,Bin,percent,7.1,7.2,0.0
HHS Region 10,Season peak percentage,Bin,percent,7.2,7.3,0.0
HHS Region 10,Season peak percentage,Bin,percent,7.3,7.4,0.0
HHS Region 10,Season peak percentage,Bin,percent,7.4,7.5,0.0
HHS Region 10,Season peak percentage,Bin,percent,7.5,7.6,0.0
HHS Region 10,Season peak percentage,Bin,percent,7.6,7.7,0.0
HHS Region 10,Season peak percentage,Bin,percent,7.7,7.8,0.0
HHS Region 10,Season peak percentage,Bin,percent,7.8,7.9,0.0
HHS Region 10,Season peak percentage,Bin,percent,7.9,8,0.0
HHS Region 10,Season peak percentage,Bin,percent,8,8.1,0.0
HHS Region 10,Season peak percentage,Bin,percent,8.1,8.2,0.0
HHS Region 10,Season peak percentage,Bin,percent,8.2,8.3,0.0
HHS Region 10,Season peak percentage,Bin,percent,8.3,8.4,0.0
HHS Region 10,Season peak percentage,Bin,percent,8.4,8.5,0.0
HHS Region 10,Season peak percentage,Bin,percent,8.5,8.6,0.0
HHS Region 10,Season peak percentage,Bin,percent,8.6,8.7,0.0
HHS Region 10,Season peak percentage,Bin,percent,8.7,8.8,0.0
HHS Region 10,Season peak percentage,Bin,percent,8.8,8.9,0.0
HHS Region 10,Season peak percentage,Bin,percent,8.9,9,0.0
HHS Region 10,Season peak percentage,Bin,percent,9,9.1,0.0
HHS Region 10,Season peak percentage,Bin,percent,9.1,9.2,0.0
HHS Region 10,Season peak percentage,Bin,percent,9.2,9.3,0.0
HHS Region 10,Season peak percentage,Bin,percent,9.3,9.4,0.0
HHS Region 10,Season peak percentage,Bin,percent,9.4,9.5,0.0
HHS Region 10,Season peak percentage,Bin,percent,9.5,9.6,0.0
HHS Region 10,Season peak percentage,Bin,percent,9.6,9.7,0.0
HHS Region 10,Season peak percentage,Bin,percent,9.7,9.8,0.0
HHS Region 10,Season peak percentage,Bin,percent,9.8,9.9,0.0
HHS Region 10,Season peak percentage,Bin,percent,9.9,10,0.0
HHS Region 10,Season peak percentage,Bin,percent,10,10.1,0.0
HHS Region 10,Season peak percentage,Bin,percent,10.1,10.2,0.0
HHS Region 10,Season peak percentage,Bin,percent,10.2,10.3,0.0
HHS Region 10,Season peak percentage,Bin,percent,10.3,10.4,0.0
HHS Region 10,Season peak percentage,Bin,percent,10.4,10.5,0.0
HHS Region 10,Season peak percentage,Bin,percent,10.5,10.6,0.0
HHS Region 10,Season peak percentage,Bin,percent,10.6,10.7,0.0
HHS Region 10,Season peak percentage,Bin,percent,10.7,10.8,0.0
HHS Region 10,Season peak percentage,Bin,percent,10.8,10.9,0.0
HHS Region 10,Season peak percentage,Bin,percent,10.9,11,0.0
HHS Region 10,Season peak percentage,Bin,percent,11,11.1,0.0
HHS Region 10,Season peak percentage,Bin,percent,11.1,11.2,0.0
HHS Region 10,Season peak percentage,Bin,percent,11.2,11.3,0.0
HHS Region 10,Season peak percentage,Bin,percent,11.3,11.4,0.0
HHS Region 10,Season peak percentage,Bin,percent,11.4,11.5,0.0
HHS Region 10,Season peak percentage,Bin,percent,11.5,11.6,0.0
HHS Region 10,Season peak percentage,Bin,percent,11.6,11.7,0.0
HHS Region 10,Season peak percentage,Bin,percent,11.7,11.8,0.0
HHS Region 10,Season peak percentage,Bin,percent,11.8,11.9,0.0
HHS Region 10,Season peak percentage,Bin,percent,11.9,12,0.0
HHS Region 10,Season peak percentage,Bin,percent,12,12.1,0.0
HHS Region 10,Season peak percentage,Bin,percent,12.1,12.2,0.0
HHS Region 10,Season peak percentage,Bin,percent,12.2,12.3,0.0
HHS Region 10,Season peak percentage,Bin,percent,12.3,12.4,0.0
HHS Region 10,Season peak percentage,Bin,percent,12.4,12.5,0.0
HHS Region 10,Season peak percentage,Bin,percent,12.5,12.6,0.0
HHS Region 10,Season peak percentage,Bin,percent,12.6,12.7,0.0
HHS Region 10,Season peak percentage,Bin,percent,12.7,12.8,0.0
HHS Region 10,Season peak percentage,Bin,percent,12.8,12.9,0.0
HHS Region 10,Season peak percentage,Bin,percent,12.9,13,0.0
HHS Region 10,Season peak percentage,Bin,percent,13,100,0.0
HHS Region 10,1 wk ahead,Point,percent,,,1.5
HHS Region 10,1 wk ahead,Bin,percent,0,0.1,0.007633588
HHS Region 10,1 wk ahead,Bin,percent,0.1,0.2,0.0
HHS Region 10,1 wk ahead,Bin,percent,0.2,0.3,0.0
HHS Region 10,1 wk ahead,Bin,percent,0.3,0.4,0.0
HHS Region 10,1 wk ahead,Bin,percent,0.4,0.5,0.0
HHS Region 10,1 wk ahead,Bin,percent,0.5,0.6,0.0
HHS Region 10,1 wk ahead,Bin,percent,0.6,0.7,0.0
HHS Region 10,1 wk ahead,Bin,percent,0.7,0.8,2.124131784e-275
HHS Region 10,1 wk ahead,Bin,percent,0.8,0.9,4.75205653635e-121
HHS Region 10,1 wk ahead,Bin,percent,0.9,1,7.14425272743e-30
HHS Region 10,1 wk ahead,Bin,percent,1,1.1,0.782553439698
HHS Region 10,1 wk ahead,Bin,percent,1.1,1.2,0.217446560302
HHS Region 10,1 wk ahead,Bin,percent,1.2,1.3,0.0
HHS Region 10,1 wk ahead,Bin,percent,1.3,1.4,0.0
HHS Region 10,1 wk ahead,Bin,percent,1.4,1.5,0.0
HHS Region 10,1 wk ahead,Bin,percent,1.5,1.6,0.0
HHS Region 10,1 wk ahead,Bin,percent,1.6,1.7,0.0
HHS Region 10,1 wk ahead,Bin,percent,1.7,1.8,0.0
HHS Region 10,1 wk ahead,Bin,percent,1.8,1.9,0.0
HHS Region 10,1 wk ahead,Bin,percent,1.9,2,0.0
HHS Region 10,1 wk ahead,Bin,percent,2,2.1,0.0
HHS Region 10,1 wk ahead,Bin,percent,2.1,2.2,0.0
HHS Region 10,1 wk ahead,Bin,percent,2.2,2.3,0.0
HHS Region 10,1 wk ahead,Bin,percent,2.3,2.4,0.0
HHS Region 10,1 wk ahead,Bin,percent,2.4,2.5,0.0
HHS Region 10,1 wk ahead,Bin,percent,2.5,2.6,0.0
HHS Region 10,1 wk ahead,Bin,percent,2.6,2.7,0.0
HHS Region 10,1 wk ahead,Bin,percent,2.7,2.8,0.0
HHS Region 10,1 wk ahead,Bin,percent,2.8,2.9,0.0
HHS Region 10,1 wk ahead,Bin,percent,2.9,3,0.0
HHS Region 10,1 wk ahead,Bin,percent,3,3.1,0.0
HHS Region 10,1 wk ahead,Bin,percent,3.1,3.2,0.0
HHS Region 10,1 wk ahead,Bin,percent,3.2,3.3,0.0
HHS Region 10,1 wk ahead,Bin,percent,3.3,3.4,0.0
HHS Region 10,1 wk ahead,Bin,percent,3.4,3.5,0.0
HHS Region 10,1 wk ahead,Bin,percent,3.5,3.6,0.0
HHS Region 10,1 wk ahead,Bin,percent,3.6,3.7,0.0
HHS Region 10,1 wk ahead,Bin,percent,3.7,3.8,0.0
HHS Region 10,1 wk ahead,Bin,percent,3.8,3.9,0.0
HHS Region 10,1 wk ahead,Bin,percent,3.9,4,0.0
HHS Region 10,1 wk ahead,Bin,percent,4,4.1,0.0
HHS Region 10,1 wk ahead,Bin,percent,4.1,4.2,0.0
HHS Region 10,1 wk ahead,Bin,percent,4.2,4.3,0.0
HHS Region 10,1 wk ahead,Bin,percent,4.3,4.4,0.0
HHS Region 10,1 wk ahead,Bin,percent,4.4,4.5,0.0
HHS Region 10,1 wk ahead,Bin,percent,4.5,4.6,0.0
HHS Region 10,1 wk ahead,Bin,percent,4.6,4.7,0.0
HHS Region 10,1 wk ahead,Bin,percent,4.7,4.8,0.0
HHS Region 10,1 wk ahead,Bin,percent,4.8,4.9,0.0
HHS Region 10,1 wk ahead,Bin,percent,4.9,5,0.0
HHS Region 10,1 wk ahead,Bin,percent,5,5.1,0.0
HHS Region 10,1 wk ahead,Bin,percent,5.1,5.2,0.0
HHS Region 10,1 wk ahead,Bin,percent,5.2,5.3,0.0
HHS Region 10,1 wk ahead,Bin,percent,5.3,5.4,0.0
HHS Region 10,1 wk ahead,Bin,percent,5.4,5.5,0.0
HHS Region 10,1 wk ahead,Bin,percent,5.5,5.6,0.0
HHS Region 10,1 wk ahead,Bin,percent,5.6,5.7,0.0
HHS Region 10,1 wk ahead,Bin,percent,5.7,5.8,0.0
HHS Region 10,1 wk ahead,Bin,percent,5.8,5.9,0.0
HHS Region 10,1 wk ahead,Bin,percent,5.9,6,0.0
HHS Region 10,1 wk ahead,Bin,percent,6,6.1,0.0
HHS Region 10,1 wk ahead,Bin,percent,6.1,6.2,0.0
HHS Region 10,1 wk ahead,Bin,percent,6.2,6.3,0.0
HHS Region 10,1 wk ahead,Bin,percent,6.3,6.4,0.0
HHS Region 10,1 wk ahead,Bin,percent,6.4,6.5,0.0
HHS Region 10,1 wk ahead,Bin,percent,6.5,6.6,0.0
HHS Region 10,1 wk ahead,Bin,percent,6.6,6.7,0.0
HHS Region 10,1 wk ahead,Bin,percent,6.7,6.8,0.0
HHS Region 10,1 wk ahead,Bin,percent,6.8,6.9,0.0
HHS Region 10,1 wk ahead,Bin,percent,6.9,7,0.0
HHS Region 10,1 wk ahead,Bin,percent,7,7.1,0.0
HHS Region 10,1 wk ahead,Bin,percent,7.1,7.2,0.0
HHS Region 10,1 wk ahead,Bin,percent,7.2,7.3,0.0
HHS Region 10,1 wk ahead,Bin,percent,7.3,7.4,0.0
HHS Region 10,1 wk ahead,Bin,percent,7.4,7.5,0.0
HHS Region 10,1 wk ahead,Bin,percent,7.5,7.6,0.0
HHS Region 10,1 wk ahead,Bin,percent,7.6,7.7,0.0
HHS Region 10,1 wk ahead,Bin,percent,7.7,7.8,0.0
HHS Region 10,1 wk ahead,Bin,percent,7.8,7.9,0.0
HHS Region 10,1 wk ahead,Bin,percent,7.9,8,0.0
HHS Region 10,1 wk ahead,Bin,percent,8,8.1,0.0
HHS Region 10,1 wk ahead,Bin,percent,8.1,8.2,0.0
HHS Region 10,1 wk ahead,Bin,percent,8.2,8.3,0.0
HHS Region 10,1 wk ahead,Bin,percent,8.3,8.4,0.0
HHS Region 10,1 wk ahead,Bin,percent,8.4,8.5,0.0
HHS Region 10,1 wk ahead,Bin,percent,8.5,8.6,0.0
HHS Region 10,1 wk ahead,Bin,percent,8.6,8.7,0.0
HHS Region 10,1 wk ahead,Bin,percent,8.7,8.8,0.0
HHS Region 10,1 wk ahead,Bin,percent,8.8,8.9,0.0
HHS Region 10,1 wk ahead,Bin,percent,8.9,9,0.0
HHS Region 10,1 wk ahead,Bin,percent,9,9.1,0.0
HHS Region 10,1 wk ahead,Bin,percent,9.1,9.2,0.0
HHS Region 10,1 wk ahead,Bin,percent,9.2,9.3,0.0
HHS Region 10,1 wk ahead,Bin,percent,9.3,9.4,0.0
HHS Region 10,1 wk ahead,Bin,percent,9.4,9.5,0.0
HHS Region 10,1 wk ahead,Bin,percent,9.5,9.6,0.0
HHS Region 10,1 wk ahead,Bin,percent,9.6,9.7,0.0
HHS Region 10,1 wk ahead,Bin,percent,9.7,9.8,0.0
HHS Region 10,1 wk ahead,Bin,percent,9.8,9.9,0.0
HHS Region 10,1 wk ahead,Bin,percent,9.9,10,0.0
HHS Region 10,1 wk ahead,Bin,percent,10,10.1,0.0
HHS Region 10,1 wk ahead,Bin,percent,10.1,10.2,0.0
HHS Region 10,1 wk ahead,Bin,percent,10.2,10.3,0.0
HHS Region 10,1 wk ahead,Bin,percent,10.3,10.4,0.0
HHS Region 10,1 wk ahead,Bin,percent,10.4,10.5,0.0
HHS Region 10,1 wk ahead,Bin,percent,10.5,10.6,0.0
HHS Region 10,1 wk ahead,Bin,percent,10.6,10.7,0.0
HHS Region 10,1 wk ahead,Bin,percent,10.7,10.8,0.0
HHS Region 10,1 wk ahead,Bin,percent,10.8,10.9,0.0
HHS Region 10,1 wk ahead,Bin,percent,10.9,11,0.0
HHS Region 10,1 wk ahead,Bin,percent,11,11.1,0.0
HHS Region 10,1 wk ahead,Bin,percent,11.1,11.2,0.0
HHS Region 10,1 wk ahead,Bin,percent,11.2,11.3,0.0
HHS Region 10,1 wk ahead,Bin,percent,11.3,11.4,0.0
HHS Region 10,1 wk ahead,Bin,percent,11.4,11.5,0.0
HHS Region 10,1 wk ahead,Bin,percent,11.5,11.6,0.0
HHS Region 10,1 wk ahead,Bin,percent,11.6,11.7,0.0
HHS Region 10,1 wk ahead,Bin,percent,11.7,11.8,0.0
HHS Region 10,1 wk ahead,Bin,percent,11.8,11.9,0.0
HHS Region 10,1 wk ahead,Bin,percent,11.9,12,0.0
HHS Region 10,1 wk ahead,Bin,percent,12,12.1,0.0
HHS Region 10,1 wk ahead,Bin,percent,12.1,12.2,0.0
HHS Region 10,1 wk ahead,Bin,percent,12.2,12.3,0.0
HHS Region 10,1 wk ahead,Bin,percent,12.3,12.4,0.0
HHS Region 10,1 wk ahead,Bin,percent,12.4,12.5,0.0
HHS Region 10,1 wk ahead,Bin,percent,12.5,12.6,0.0
HHS Region 10,1 wk ahead,Bin,percent,12.6,12.7,0.0
HHS Region 10,1 wk ahead,Bin,percent,12.7,12.8,0.0
HHS Region 10,1 wk ahead,Bin,percent,12.8,12.9,0.0
HHS Region 10,1 wk ahead,Bin,percent,12.9,13,0.0
HHS Region 10,1 wk ahead,Bin,percent,13,100,0.0
HHS Region 10,2 wk ahead,Point,percent,,,1.5
HHS Region 10,2 wk ahead,Bin,percent,0,0.1,0.007633588
HHS Region 10,2 wk ahead,Bin,percent,0.1,0.2,0.0
HHS Region 10,2 wk ahead,Bin,percent,0.2,0.3,0.0
HHS Region 10,2 wk ahead,Bin,percent,0.3,0.4,0.0
HHS Region 10,2 wk ahead,Bin,percent,0.4,0.5,0.0
HHS Region 10,2 wk ahead,Bin,percent,0.5,0.6,0.0
HHS Region 10,2 wk ahead,Bin,percent,0.6,0.7,0.0
HHS Region 10,2 wk ahead,Bin,percent,0.7,0.8,0.0
HHS Region 10,2 wk ahead,Bin,percent,0.8,0.9,0.0
HHS Region 10,2 wk ahead,Bin,percent,0.9,1,3.09996174755e-198
HHS Region 10,2 wk ahead,Bin,percent,1,1.1,5.46379695266e-71
HHS Region 10,2 wk ahead,Bin,percent,1.1,1.2,1.54853123957e-08
HHS Region 10,2 wk ahead,Bin,percent,1.2,1.3,0.999999984505
HHS Region 10,2 wk ahead,Bin,percent,1.3,1.4,1.01496588911e-11
HHS Region 10,2 wk ahead,Bin,percent,1.4,1.5,0.0
HHS Region 10,2 wk ahead,Bin,percent,1.5,1.6,0.0
HHS Region 10,2 wk ahead,Bin,percent,1.6,1.7,0.0
HHS Region 10,2 wk ahead,Bin,percent,1.7,1.8,0.0
HHS Region 10,2 wk ahead,Bin,percent,1.8,1.9,0.0
HHS Region 10,2 wk ahead,Bin,percent,1.9,2,0.0
HHS Region 10,2 wk ahead,Bin,percent,2,2.1,0.0
HHS Region 10,2 wk ahead,Bin,percent,2.1,2.2,0.0
HHS Region 10,2 wk ahead,Bin,percent,2.2,2.3,0.0
HHS Region 10,2 wk ahead,Bin,percent,2.3,2.4,0.0
HHS Region 10,2 wk ahead,Bin,percent,2.4,2.5,0.0
HHS Region 10,2 wk ahead,Bin,percent,2.5,2.6,0.0
HHS Region 10,2 wk ahead,Bin,percent,2.6,2.7,0.0
HHS Region 10,2 wk ahead,Bin,percent,2.7,2.8,0.0
HHS Region 10,2 wk ahead,Bin,percent,2.8,2.9,0.0
HHS Region 10,2 wk ahead,Bin,percent,2.9,3,0.0
HHS Region 10,2 wk ahead,Bin,percent,3,3.1,0.0
HHS Region 10,2 wk ahead,Bin,percent,3.1,3.2,0.0
HHS Region 10,2 wk ahead,Bin,percent,3.2,3.3,0.0
HHS Region 10,2 wk ahead,Bin,percent,3.3,3.4,0.0
HHS Region 10,2 wk ahead,Bin,percent,3.4,3.5,0.0
HHS Region 10,2 wk ahead,Bin,percent,3.5,3.6,0.0
HHS Region 10,2 wk ahead,Bin,percent,3.6,3.7,0.0
HHS Region 10,2 wk ahead,Bin,percent,3.7,3.8,0.0
HHS Region 10,2 wk ahead,Bin,percent,3.8,3.9,0.0
HHS Region 10,2 wk ahead,Bin,percent,3.9,4,0.0
HHS Region 10,2 wk ahead,Bin,percent,4,4.1,0.0
HHS Region 10,2 wk ahead,Bin,percent,4.1,4.2,0.0
HHS Region 10,2 wk ahead,Bin,percent,4.2,4.3,0.0
HHS Region 10,2 wk ahead,Bin,percent,4.3,4.4,0.0
HHS Region 10,2 wk ahead,Bin,percent,4.4,4.5,0.0
HHS Region 10,2 wk ahead,Bin,percent,4.5,4.6,0.0
HHS Region 10,2 wk ahead,Bin,percent,4.6,4.7,0.0
HHS Region 10,2 wk ahead,Bin,percent,4.7,4.8,0.0
HHS Region 10,2 wk ahead,Bin,percent,4.8,4.9,0.0
HHS Region 10,2 wk ahead,Bin,percent,4.9,5,0.0
HHS Region 10,2 wk ahead,Bin,percent,5,5.1,0.0
HHS Region 10,2 wk ahead,Bin,percent,5.1,5.2,0.0
HHS Region 10,2 wk ahead,Bin,percent,5.2,5.3,0.0
HHS Region 10,2 wk ahead,Bin,percent,5.3,5.4,0.0
HHS Region 10,2 wk ahead,Bin,percent,5.4,5.5,0.0
HHS Region 10,2 wk ahead,Bin,percent,5.5,5.6,0.0
HHS Region 10,2 wk ahead,Bin,percent,5.6,5.7,0.0
HHS Region 10,2 wk ahead,Bin,percent,5.7,5.8,0.0
HHS Region 10,2 wk ahead,Bin,percent,5.8,5.9,0.0
HHS Region 10,2 wk ahead,Bin,percent,5.9,6,0.0
HHS Region 10,2 wk ahead,Bin,percent,6,6.1,0.0
HHS Region 10,2 wk ahead,Bin,percent,6.1,6.2,0.0
HHS Region 10,2 wk ahead,Bin,percent,6.2,6.3,0.0
HHS Region 10,2 wk ahead,Bin,percent,6.3,6.4,0.0
HHS Region 10,2 wk ahead,Bin,percent,6.4,6.5,0.0
HHS Region 10,2 wk ahead,Bin,percent,6.5,6.6,0.0
HHS Region 10,2 wk ahead,Bin,percent,6.6,6.7,0.0
HHS Region 10,2 wk ahead,Bin,percent,6.7,6.8,0.0
HHS Region 10,2 wk ahead,Bin,percent,6.8,6.9,0.0
HHS Region 10,2 wk ahead,Bin,percent,6.9,7,0.0
HHS Region 10,2 wk ahead,Bin,percent,7,7.1,0.0
HHS Region 10,2 wk ahead,Bin,percent,7.1,7.2,0.0
HHS Region 10,2 wk ahead,Bin,percent,7.2,7.3,0.0
HHS Region 10,2 wk ahead,Bin,percent,7.3,7.4,0.0
HHS Region 10,2 wk ahead,Bin,percent,7.4,7.5,0.0
HHS Region 10,2 wk ahead,Bin,percent,7.5,7.6,0.0
HHS Region 10,2 wk ahead,Bin,percent,7.6,7.7,0.0
HHS Region 10,2 wk ahead,Bin,percent,7.7,7.8,0.0
HHS Region 10,2 wk ahead,Bin,percent,7.8,7.9,0.0
HHS Region 10,2 wk ahead,Bin,percent,7.9,8,0.0
HHS Region 10,2 wk ahead,Bin,percent,8,8.1,0.0
HHS Region 10,2 wk ahead,Bin,percent,8.1,8.2,0.0
HHS Region 10,2 wk ahead,Bin,percent,8.2,8.3,0.0
HHS Region 10,2 wk ahead,Bin,percent,8.3,8.4,0.0
HHS Region 10,2 wk ahead,Bin,percent,8.4,8.5,0.0
HHS Region 10,2 wk ahead,Bin,percent,8.5,8.6,0.0
HHS Region 10,2 wk ahead,Bin,percent,8.6,8.7,0.0
HHS Region 10,2 wk ahead,Bin,percent,8.7,8.8,0.0
HHS Region 10,2 wk ahead,Bin,percent,8.8,8.9,0.0
HHS Region 10,2 wk ahead,Bin,percent,8.9,9,0.0
HHS Region 10,2 wk ahead,Bin,percent,9,9.1,0.0
HHS Region 10,2 wk ahead,Bin,percent,9.1,9.2,0.0
HHS Region 10,2 wk ahead,Bin,percent,9.2,9.3,0.0
HHS Region 10,2 wk ahead,Bin,percent,9.3,9.4,0.0
HHS Region 10,2 wk ahead,Bin,percent,9.4,9.5,0.0
HHS Region 10,2 wk ahead,Bin,percent,9.5,9.6,0.0
HHS Region 10,2 wk ahead,Bin,percent,9.6,9.7,0.0
HHS Region 10,2 wk ahead,Bin,percent,9.7,9.8,0.0
HHS Region 10,2 wk ahead,Bin,percent,9.8,9.9,0.0
HHS Region 10,2 wk ahead,Bin,percent,9.9,10,0.0
HHS Region 10,2 wk ahead,Bin,percent,10,10.1,0.0
HHS Region 10,2 wk ahead,Bin,percent,10.1,10.2,0.0
HHS Region 10,2 wk ahead,Bin,percent,10.2,10.3,0.0
HHS Region 10,2 wk ahead,Bin,percent,10.3,10.4,0.0
HHS Region 10,2 wk ahead,Bin,percent,10.4,10.5,0.0
HHS Region 10,2 wk ahead,Bin,percent,10.5,10.6,0.0
HHS Region 10,2 wk ahead,Bin,percent,10.6,10.7,0.0
HHS Region 10,2 wk ahead,Bin,percent,10.7,10.8,0.0
HHS Region 10,2 wk ahead,Bin,percent,10.8,10.9,0.0
HHS Region 10,2 wk ahead,Bin,percent,10.9,11,0.0
HHS Region 10,2 wk ahead,Bin,percent,11,11.1,0.0
HHS Region 10,2 wk ahead,Bin,percent,11.1,11.2,0.0
HHS Region 10,2 wk ahead,Bin,percent,11.2,11.3,0.0
HHS Region 10,2 wk ahead,Bin,percent,11.3,11.4,0.0
HHS Region 10,2 wk ahead,Bin,percent,11.4,11.5,0.0
HHS Region 10,2 wk ahead,Bin,percent,11.5,11.6,0.0
HHS Region 10,2 wk ahead,Bin,percent,11.6,11.7,0.0
HHS Region 10,2 wk ahead,Bin,percent,11.7,11.8,0.0
HHS Region 10,2 wk ahead,Bin,percent,11.8,11.9,0.0
HHS Region 10,2 wk ahead,Bin,percent,11.9,12,0.0
HHS Region 10,2 wk ahead,Bin,percent,12,12.1,0.0
HHS Region 10,2 wk ahead,Bin,percent,12.1,12.2,0.0
HHS Region 10,2 wk ahead,Bin,percent,12.2,12.3,0.0
HHS Region 10,2 wk ahead,Bin,percent,12.3,12.4,0.0
HHS Region 10,2 wk ahead,Bin,percent,12.4,12.5,0.0
HHS Region 10,2 wk ahead,Bin,percent,12.5,12.6,0.0
HHS Region 10,2 wk ahead,Bin,percent,12.6,12.7,0.0
HHS Region 10,2 wk ahead,Bin,percent,12.7,12.8,0.0
HHS Region 10,2 wk ahead,Bin,percent,12.8,12.9,0.0
HHS Region 10,2 wk ahead,Bin,percent,12.9,13,0.0
HHS Region 10,2 wk ahead,Bin,percent,13,100,0.0
HHS Region 10,3 wk ahead,Point,percent,,,1.5
HHS Region 10,3 wk ahead,Bin,percent,0,0.1,0.007633588
HHS Region 10,3 wk ahead,Bin,percent,0.1,0.2,0.0
HHS Region 10,3 wk ahead,Bin,percent,0.2,0.3,0.0
HHS Region 10,3 wk ahead,Bin,percent,0.3,0.4,0.0
HHS Region 10,3 wk ahead,Bin,percent,0.4,0.5,0.0
HHS Region 10,3 wk ahead,Bin,percent,0.5,0.6,0.0
HHS Region 10,3 wk ahead,Bin,percent,0.6,0.7,0.0
HHS Region 10,3 wk ahead,Bin,percent,0.7,0.8,0.0
HHS Region 10,3 wk ahead,Bin,percent,0.8,0.9,0.0
HHS Region 10,3 wk ahead,Bin,percent,0.9,1,0.0
HHS Region 10,3 wk ahead,Bin,percent,1,1.1,7.65224543931e-300
HHS Region 10,3 wk ahead,Bin,percent,1.1,1.2,1.53975565605e-135
HHS Region 10,3 wk ahead,Bin,percent,1.2,1.3,3.35914645063e-36
HHS Region 10,3 wk ahead,Bin,percent,1.3,1.4,0.394933753478
HHS Region 10,3 wk ahead,Bin,percent,1.4,1.5,0.605066246522
HHS Region 10,3 wk ahead,Bin,percent,1.5,1.6,0.0
HHS Region 10,3 wk ahead,Bin,percent,1.6,1.7,0.0
HHS Region 10,3 wk ahead,Bin,percent,1.7,1.8,0.0
HHS Region 10,3 wk ahead,Bin,percent,1.8,1.9,0.0
HHS Region 10,3 wk ahead,Bin,percent,1.9,2,0.0
HHS Region 10,3 wk ahead,Bin,percent,2,2.1,0.0
HHS Region 10,3 wk ahead,Bin,percent,2.1,2.2,0.0
HHS Region 10,3 wk ahead,Bin,percent,2.2,2.3,0.0
HHS Region 10,3 wk ahead,Bin,percent,2.3,2.4,0.0
HHS Region 10,3 wk ahead,Bin,percent,2.4,2.5,0.0
HHS Region 10,3 wk ahead,Bin,percent,2.5,2.6,0.0
HHS Region 10,3 wk ahead,Bin,percent,2.6,2.7,0.0
HHS Region 10,3 wk ahead,Bin,percent,2.7,2.8,0.0
HHS Region 10,3 wk ahead,Bin,percent,2.8,2.9,0.0
HHS Region 10,3 wk ahead,Bin,percent,2.9,3,0.0
HHS Region 10,3 wk ahead,Bin,percent,3,3.1,0.0
HHS Region 10,3 wk ahead,Bin,percent,3.1,3.2,0.0
HHS Region 10,3 wk ahead,Bin,percent,3.2,3.3,0.0
HHS Region 10,3 wk ahead,Bin,percent,3.3,3.4,0.0
HHS Region 10,3 wk ahead,Bin,percent,3.4,3.5,0.0
HHS Region 10,3 wk ahead,Bin,percent,3.5,3.6,0.0
HHS Region 10,3 wk ahead,Bin,percent,3.6,3.7,0.0
HHS Region 10,3 wk ahead,Bin,percent,3.7,3.8,0.0
HHS Region 10,3 wk ahead,Bin,percent,3.8,3.9,0.0
HHS Region 10,3 wk ahead,Bin,percent,3.9,4,0.0
HHS Region 10,3 wk ahead,Bin,percent,4,4.1,0.0
HHS Region 10,3 wk ahead,Bin,percent,4.1,4.2,0.0
HHS Region 10,3 wk ahead,Bin,percent,4.2,4.3,0.0
HHS Region 10,3 wk ahead,Bin,percent,4.3,4.4,0.0
HHS Region 10,3 wk ahead,Bin,percent,4.4,4.5,0.0
HHS Region 10,3 wk ahead,Bin,percent,4.5,4.6,0.0
HHS Region 10,3 wk ahead,Bin,percent,4.6,4.7,0.0
HHS Region 10,3 wk ahead,Bin,percent,4.7,4.8,0.0
HHS Region 10,3 wk ahead,Bin,percent,4.8,4.9,0.0
HHS Region 10,3 wk ahead,Bin,percent,4.9,5,0.0
HHS Region 10,3 wk ahead,Bin,percent,5,5.1,0.0
HHS Region 10,3 wk ahead,Bin,percent,5.1,5.2,0.0
HHS Region 10,3 wk ahead,Bin,percent,5.2,5.3,0.0
HHS Region 10,3 wk ahead,Bin,percent,5.3,5.4,0.0
HHS Region 10,3 wk ahead,Bin,percent,5.4,5.5,0.0
HHS Region 10,3 wk ahead,Bin,percent,5.5,5.6,0.0
HHS Region 10,3 wk ahead,Bin,percent,5.6,5.7,0.0
HHS Region 10,3 wk ahead,Bin,percent,5.7,5.8,0.0
HHS Region 10,3 wk ahead,Bin,percent,5.8,5.9,0.0
HHS Region 10,3 wk ahead,Bin,percent,5.9,6,0.0
HHS Region 10,3 wk ahead,Bin,percent,6,6.1,0.0
HHS Region 10,3 wk ahead,Bin,percent,6.1,6.2,0.0
HHS Region 10,3 wk ahead,Bin,percent,6.2,6.3,0.0
HHS Region 10,3 wk ahead,Bin,percent,6.3,6.4,0.0
HHS Region 10,3 wk ahead,Bin,percent,6.4,6.5,0.0
HHS Region 10,3 wk ahead,Bin,percent,6.5,6.6,0.0
HHS Region 10,3 wk ahead,Bin,percent,6.6,6.7,0.0
HHS Region 10,3 wk ahead,Bin,percent,6.7,6.8,0.0
HHS Region 10,3 wk ahead,Bin,percent,6.8,6.9,0.0
HHS Region 10,3 wk ahead,Bin,percent,6.9,7,0.0
HHS Region 10,3 wk ahead,Bin,percent,7,7.1,0.0
HHS Region 10,3 wk ahead,Bin,percent,7.1,7.2,0.0
HHS Region 10,3 wk ahead,Bin,percent,7.2,7.3,0.0
HHS Region 10,3 wk ahead,Bin,percent,7.3,7.4,0.0
HHS Region 10,3 wk ahead,Bin,percent,7.4,7.5,0.0
HHS Region 10,3 wk ahead,Bin,percent,7.5,7.6,0.0
HHS Region 10,3 wk ahead,Bin,percent,7.6,7.7,0.0
HHS Region 10,3 wk ahead,Bin,percent,7.7,7.8,0.0
HHS Region 10,3 wk ahead,Bin,percent,7.8,7.9,0.0
HHS Region 10,3 wk ahead,Bin,percent,7.9,8,0.0
HHS Region 10,3 wk ahead,Bin,percent,8,8.1,0.0
HHS Region 10,3 wk ahead,Bin,percent,8.1,8.2,0.0
HHS Region 10,3 wk ahead,Bin,percent,8.2,8.3,0.0
HHS Region 10,3 wk ahead,Bin,percent,8.3,8.4,0.0
HHS Region 10,3 wk ahead,Bin,percent,8.4,8.5,0.0
HHS Region 10,3 wk ahead,Bin,percent,8.5,8.6,0.0
HHS Region 10,3 wk ahead,Bin,percent,8.6,8.7,0.0
HHS Region 10,3 wk ahead,Bin,percent,8.7,8.8,0.0
HHS Region 10,3 wk ahead,Bin,percent,8.8,8.9,0.0
HHS Region 10,3 wk ahead,Bin,percent,8.9,9,0.0
HHS Region 10,3 wk ahead,Bin,percent,9,9.1,0.0
HHS Region 10,3 wk ahead,Bin,percent,9.1,9.2,0.0
HHS Region 10,3 wk ahead,Bin,percent,9.2,9.3,0.0
HHS Region 10,3 wk ahead,Bin,percent,9.3,9.4,0.0
HHS Region 10,3 wk ahead,Bin,percent,9.4,9.5,0.0
HHS Region 10,3 wk ahead,Bin,percent,9.5,9.6,0.0
HHS Region 10,3 wk ahead,Bin,percent,9.6,9.7,0.0
HHS Region 10,3 wk ahead,Bin,percent,9.7,9.8,0.0
HHS Region 10,3 wk ahead,Bin,percent,9.8,9.9,0.0
HHS Region 10,3 wk ahead,Bin,percent,9.9,10,0.0
HHS Region 10,3 wk ahead,Bin,percent,10,10.1,0.0
HHS Region 10,3 wk ahead,Bin,percent,10.1,10.2,0.0
HHS Region 10,3 wk ahead,Bin,percent,10.2,10.3,0.0
HHS Region 10,3 wk ahead,Bin,percent,10.3,10.4,0.0
HHS Region 10,3 wk ahead,Bin,percent,10.4,10.5,0.0
HHS Region 10,3 wk ahead,Bin,percent,10.5,10.6,0.0
HHS Region 10,3 wk ahead,Bin,percent,10.6,10.7,0.0
HHS Region 10,3 wk ahead,Bin,percent,10.7,10.8,0.0
HHS Region 10,3 wk ahead,Bin,percent,10.8,10.9,0.0
HHS Region 10,3 wk ahead,Bin,percent,10.9,11,0.0
HHS Region 10,3 wk ahead,Bin,percent,11,11.1,0.0
HHS Region 10,3 wk ahead,Bin,percent,11.1,11.2,0.0
HHS Region 10,3 wk ahead,Bin,percent,11.2,11.3,0.0
HHS Region 10,3 wk ahead,Bin,percent,11.3,11.4,0.0
HHS Region 10,3 wk ahead,Bin,percent,11.4,11.5,0.0
HHS Region 10,3 wk ahead,Bin,percent,11.5,11.6,0.0
HHS Region 10,3 wk ahead,Bin,percent,11.6,11.7,0.0
HHS Region 10,3 wk ahead,Bin,percent,11.7,11.8,0.0
HHS Region 10,3 wk ahead,Bin,percent,11.8,11.9,0.0
HHS Region 10,3 wk ahead,Bin,percent,11.9,12,0.0
HHS Region 10,3 wk ahead,Bin,percent,12,12.1,0.0
HHS Region 10,3 wk ahead,Bin,percent,12.1,12.2,0.0
HHS Region 10,3 wk ahead,Bin,percent,12.2,12.3,0.0
HHS Region 10,3 wk ahead,Bin,percent,12.3,12.4,0.0
HHS Region 10,3 wk ahead,Bin,percent,12.4,12.5,0.0
HHS Region 10,3 wk ahead,Bin,percent,12.5,12.6,0.0
HHS Region 10,3 wk ahead,Bin,percent,12.6,12.7,0.0
HHS Region 10,3 wk ahead,Bin,percent,12.7,12.8,0.0
HHS Region 10,3 wk ahead,Bin,percent,12.8,12.9,0.0
HHS Region 10,3 wk ahead,Bin,percent,12.9,13,0.0
HHS Region 10,3 wk ahead,Bin,percent,13,100,0.0
HHS Region 10,4 wk ahead,Point,percent,,,1.5
HHS Region 10,4 wk ahead,Bin,percent,0,0.1,0.007633588
HHS Region 10,4 wk ahead,Bin,percent,0.1,0.2,0.0
HHS Region 10,4 wk ahead,Bin,percent,0.2,0.3,0.0
HHS Region 10,4 wk ahead,Bin,percent,0.3,0.4,0.0
HHS Region 10,4 wk ahead,Bin,percent,0.4,0.5,0.0
HHS Region 10,4 wk ahead,Bin,percent,0.5,0.6,0.0
HHS Region 10,4 wk ahead,Bin,percent,0.6,0.7,0.0
HHS Region 10,4 wk ahead,Bin,percent,0.7,0.8,0.0
HHS Region 10,4 wk ahead,Bin,percent,0.8,0.9,0.0
HHS Region 10,4 wk ahead,Bin,percent,0.9,1,0.0
HHS Region 10,4 wk ahead,Bin,percent,1,1.1,0.0
HHS Region 10,4 wk ahead,Bin,percent,1.1,1.2,0.0
HHS Region 10,4 wk ahead,Bin,percent,1.2,1.3,1.43292699485e-200
HHS Region 10,4 wk ahead,Bin,percent,1.3,1.4,9.18637939354e-77
HHS Region 10,4 wk ahead,Bin,percent,1.4,1.5,4.58752550764e-12
HHS Region 10,4 wk ahead,Bin,percent,1.5,1.6,0.999999437816
HHS Region 10,4 wk ahead,Bin,percent,1.6,1.7,5.62179853336e-07
HHS Region 10,4 wk ahead,Bin,percent,1.7,1.8,0.0
HHS Region 10,4 wk ahead,Bin,percent,1.8,1.9,0.0
HHS Region 10,4 wk ahead,Bin,percent,1.9,2,0.0
HHS Region 10,4 wk ahead,Bin,percent,2,2.1,0.0
HHS Region 10,4 wk ahead,Bin,percent,2.1,2.2,0.0
HHS Region 10,4 wk ahead,Bin,percent,2.2,2.3,0.0
HHS Region 10,4 wk ahead,Bin,percent,2.3,2.4,0.0
HHS Region 10,4 wk ahead,Bin,percent,2.4,2.5,0.0
HHS Region 10,4 wk ahead,Bin,percent,2.5,2.6,0.0
HHS Region 10,4 wk ahead,Bin,percent,2.6,2.7,0.0
HHS Region 10,4 wk ahead,Bin,percent,2.7,2.8,0.0
HHS Region 10,4 wk ahead,Bin,percent,2.8,2.9,0.0
HHS Region 10,4 wk ahead,Bin,percent,2.9,3,0.0
HHS Region 10,4 wk ahead,Bin,percent,3,3.1,0.0
HHS Region 10,4 wk ahead,Bin,percent,3.1,3.2,0.0
HHS Region 10,4 wk ahead,Bin,percent,3.2,3.3,0.0
HHS Region 10,4 wk ahead,Bin,percent,3.3,3.4,0.0
HHS Region 10,4 wk ahead,Bin,percent,3.4,3.5,0.0
HHS Region 10,4 wk ahead,Bin,percent,3.5,3.6,0.0
HHS Region 10,4 wk ahead,Bin,percent,3.6,3.7,0.0
HHS Region 10,4 wk ahead,Bin,percent,3.7,3.8,0.0
HHS Region 10,4 wk ahead,Bin,percent,3.8,3.9,0.0
HHS Region 10,4 wk ahead,Bin,percent,3.9,4,0.0
HHS Region 10,4 wk ahead,Bin,percent,4,4.1,0.0
HHS Region 10,4 wk ahead,Bin,percent,4.1,4.2,0.0
HHS Region 10,4 wk ahead,Bin,percent,4.2,4.3,0.0
HHS Region 10,4 wk ahead,Bin,percent,4.3,4.4,0.0
HHS Region 10,4 wk ahead,Bin,percent,4.4,4.5,0.0
HHS Region 10,4 wk ahead,Bin,percent,4.5,4.6,0.0
HHS Region 10,4 wk ahead,Bin,percent,4.6,4.7,0.0
HHS Region 10,4 wk ahead,Bin,percent,4.7,4.8,0.0
HHS Region 10,4 wk ahead,Bin,percent,4.8,4.9,0.0
HHS Region 10,4 wk ahead,Bin,percent,4.9,5,0.0
HHS Region 10,4 wk ahead,Bin,percent,5,5.1,0.0
HHS Region 10,4 wk ahead,Bin,percent,5.1,5.2,0.0
HHS Region 10,4 wk ahead,Bin,percent,5.2,5.3,0.0
HHS Region 10,4 wk ahead,Bin,percent,5.3,5.4,0.0
HHS Region 10,4 wk ahead,Bin,percent,5.4,5.5,0.0
HHS Region 10,4 wk ahead,Bin,percent,5.5,5.6,0.0
HHS Region 10,4 wk ahead,Bin,percent,5.6,5.7,0.0
HHS Region 10,4 wk ahead,Bin,percent,5.7,5.8,0.0
HHS Region 10,4 wk ahead,Bin,percent,5.8,5.9,0.0
HHS Region 10,4 wk ahead,Bin,percent,5.9,6,0.0
HHS Region 10,4 wk ahead,Bin,percent,6,6.1,0.0
HHS Region 10,4 wk ahead,Bin,percent,6.1,6.2,0.0
HHS Region 10,4 wk ahead,Bin,percent,6.2,6.3,0.0
HHS Region 10,4 wk ahead,Bin,percent,6.3,6.4,0.0
HHS Region 10,4 wk ahead,Bin,percent,6.4,6.5,0.0
HHS Region 10,4 wk ahead,Bin,percent,6.5,6.6,0.0
HHS Region 10,4 wk ahead,Bin,percent,6.6,6.7,0.0
HHS Region 10,4 wk ahead,Bin,percent,6.7,6.8,0.0
HHS Region 10,4 wk ahead,Bin,percent,6.8,6.9,0.0
HHS Region 10,4 wk ahead,Bin,percent,6.9,7,0.0
HHS Region 10,4 wk ahead,Bin,percent,7,7.1,0.0
HHS Region 10,4 wk ahead,Bin,percent,7.1,7.2,0.0
HHS Region 10,4 wk ahead,Bin,percent,7.2,7.3,0.0
HHS Region 10,4 wk ahead,Bin,percent,7.3,7.4,0.0
HHS Region 10,4 wk ahead,Bin,percent,7.4,7.5,0.0
HHS Region 10,4 wk ahead,Bin,percent,7.5,7.6,0.0
HHS Region 10,4 wk ahead,Bin,percent,7.6,7.7,0.0
HHS Region 10,4 wk ahead,Bin,percent,7.7,7.8,0.0
HHS Region 10,4 wk ahead,Bin,percent,7.8,7.9,0.0
HHS Region 10,4 wk ahead,Bin,percent,7.9,8,0.0
HHS Region 10,4 wk ahead,Bin,percent,8,8.1,0.0
HHS Region 10,4 wk ahead,Bin,percent,8.1,8.2,0.0
HHS Region 10,4 wk ahead,Bin,percent,8.2,8.3,0.0
HHS Region 10,4 wk ahead,Bin,percent,8.3,8.4,0.0
HHS Region 10,4 wk ahead,Bin,percent,8.4,8.5,0.0
HHS Region 10,4 wk ahead,Bin,percent,8.5,8.6,0.0
HHS Region 10,4 wk ahead,Bin,percent,8.6,8.7,0.0
HHS Region 10,4 wk ahead,Bin,percent,8.7,8.8,0.0
HHS Region 10,4 wk ahead,Bin,percent,8.8,8.9,0.0
HHS Region 10,4 wk ahead,Bin,percent,8.9,9,0.0
HHS Region 10,4 wk ahead,Bin,percent,9,9.1,0.0
HHS Region 10,4 wk ahead,Bin,percent,9.1,9.2,0.0
HHS Region 10,4 wk ahead,Bin,percent,9.2,9.3,0.0
HHS Region 10,4 wk ahead,Bin,percent,9.3,9.4,0.0
HHS Region 10,4 wk ahead,Bin,percent,9.4,9.5,0.0
HHS Region 10,4 wk ahead,Bin,percent,9.5,9.6,0.0
HHS Region 10,4 wk ahead,Bin,percent,9.6,9.7,0.0
HHS Region 10,4 wk ahead,Bin,percent,9.7,9.8,0.0
HHS Region 10,4 wk ahead,Bin,percent,9.8,9.9,0.0
HHS Region 10,4 wk ahead,Bin,percent,9.9,10,0.0
HHS Region 10,4 wk ahead,Bin,percent,10,10.1,0.0
HHS Region 10,4 wk ahead,Bin,percent,10.1,10.2,0.0
HHS Region 10,4 wk ahead,Bin,percent,10.2,10.3,0.0
HHS Region 10,4 wk ahead,Bin,percent,10.3,10.4,0.0
HHS Region 10,4 wk ahead,Bin,percent,10.4,10.5,0.0
HHS Region 10,4 wk ahead,Bin,percent,10.5,10.6,0.0
HHS Region 10,4 wk ahead,Bin,percent,10.6,10.7,0.0
HHS Region 10,4 wk ahead,Bin,percent,10.7,10.8,0.0
HHS Region 10,4 wk ahead,Bin,percent,10.8,10.9,0.0
HHS Region 10,4 wk ahead,Bin,percent,10.9,11,0.0
HHS Region 10,4 wk ahead,Bin,percent,11,11.1,0.0
HHS Region 10,4 wk ahead,Bin,percent,11.1,11.2,0.0
HHS Region 10,4 wk ahead,Bin,percent,11.2,11.3,0.0
HHS Region 10,4 wk ahead,Bin,percent,11.3,11.4,0.0
HHS Region 10,4 wk ahead,Bin,percent,11.4,11.5,0.0
HHS Region 10,4 wk ahead,Bin,percent,11.5,11.6,0.0
HHS Region 10,4 wk ahead,Bin,percent,11.6,11.7,0.0
HHS Region 10,4 wk ahead,Bin,percent,11.7,11.8,0.0
HHS Region 10,4 wk ahead,Bin,percent,11.8,11.9,0.0
HHS Region 10,4 wk ahead,Bin,percent,11.9,12,0.0
HHS Region 10,4 wk ahead,Bin,percent,12,12.1,0.0
HHS Region 10,4 wk ahead,Bin,percent,12.1,12.2,0.0
HHS Region 10,4 wk ahead,Bin,percent,12.2,12.3,0.0
HHS Region 10,4 wk ahead,Bin,percent,12.3,12.4,0.0
HHS Region 10,4 wk ahead,Bin,percent,12.4,12.5,0.0
HHS Region 10,4 wk ahead,Bin,percent,12.5,12.6,0.0
HHS Region 10,4 wk ahead,Bin,percent,12.6,12.7,0.0
HHS Region 10,4 wk ahead,Bin,percent,12.7,12.8,0.0
HHS Region 10,4 wk ahead,Bin,percent,12.8,12.9,0.0
HHS Region 10,4 wk ahead,Bin,percent,12.9,13,0.0
HHS Region 10,4 wk ahead,Bin,percent,13,100,0.0
