year,ew,wili,num_ili,num_patients,age_0,age_1,age_2,age_3,age_4,age_5
2000,40,0.0557560374245,3,6696,1,1,0,,,1
2000,41,0.362090056622,58,12332,13,27,14,,,4
2000,42,0.436768968635,71,13164,15,30,20,,,6
2000,43,0.314793999796,53,13036,9,21,20,,,3
2000,44,0.420190843479,79,13012,16,32,25,,,6
2000,45,0.553200701377,97,14189,5,28,53,,,11
2000,46,0.818342506731,172,15870,36,73,52,,,11
2000,47,1.06072693451,176,12232,44,78,45,,,9
2000,48,0.917925801922,190,15810,52,59,71,,,8
2000,49,0.922569488832,135,13422,26,61,42,,,6
2000,50,0.937086564527,170,15196,20,81,53,,,16
2000,51,1.65105149825,176,11724,30,90,42,,,14
2000,52,2.53650379534,341,12602,72,137,111,,,21
2001,1,2.39800150023,353,12921,50,164,125,,,14
2001,2,2.6101753872,545,16947,60,319,155,,,11
2001,3,3.34325613917,710,17679,91,395,201,,,23
2001,4,3.57654266333,705,17205,91,434,160,,,20
2001,5,3.4875487013,622,15438,77,361,165,,,19
2001,6,2.63203466057,574,17716,83,303,148,,,40
2001,7,2.25164154164,480,17727,87,249,119,,,25
2001,8,1.83486319194,392,16479,46,172,144,,,30
2001,9,2.22036153507,145,9386,19,66,40,,,20
2001,10,1.183329694,246,15592,62,85,82,,,17
2001,11,2.04894089265,97,7551,27,37,31,,,2
2001,12,0.60082032508,120,12738,28,61,27,,,4
2001,13,0.289247829982,31,5716,6,13,11,,,1
2001,14,0.39751870955,38,5848,9,15,13,,,1
2001,15,0.211251025511,12,5172,2,10,0,,,0
2001,16,0.368528158851,35,6019,8,10,16,,,1
2001,17,0.199419781643,21,3873,4,4,13,,,0
2001,18,0.311673733017,29,5311,8,10,11,,,0
2001,19,0.194820952717,16,3348,3,7,5,,,1
2001,20,0.0,0,2746,0,0,0,,,0
