year,ew,wili,num_ili,num_patients,age_0,age_1,age_2,age_3,age_4,age_5
2006,21,0.267830734255,60,27085,20,18,12,,,10
2006,22,0.170890015934,58,40087,17,14,18,,,9
2006,23,0.87517565897,527,45733,168,129,178,,,52
2006,24,0.264228689832,39,5901,12,9,12,,,6
2006,25,0.318361825098,48,6507,13,11,11,,,13
2006,26,0.151141254569,38,6587,13,8,9,,,8
2006,27,0.353421868477,51,6171,17,13,11,,,10
2006,28,1.36012255617,372,21600,108,105,132,,,27
2006,29,1.69503094889,460,21324,160,100,175,,,25
2006,30,1.39706191165,378,21600,118,91,132,,,37
2006,31,2.06665503899,394,16587,112,98,156,,,28
2006,32,1.55577237909,448,22412,143,104,172,,,29
2006,33,1.49650345294,410,21974,118,117,139,,,36
2006,34,0.826035232406,50,5582,19,14,10,,,7
2006,35,0.364605601501,52,5048,13,18,16,,,5
2006,36,0.267930909155,67,5449,17,19,24,,,7
2006,37,0.163323202585,51,5482,16,15,14,,,6
2006,38,0.21801093596,56,5350,9,23,15,,,9
2006,39,0.309659892102,82,5317,28,22,18,,,14
2006,40,2.09461863757,868,35568,231,256,309,,,72
2006,41,0.651353913937,191,37092,41,65,72,,,13
2006,42,0.474205861731,189,39694,40,55,77,,,17
2006,43,0.378489301164,141,37239,28,48,57,,,8
2006,44,0.254770740837,142,41362,30,48,49,,,15
2006,45,0.827004523569,282,41477,48,93,86,,,55
2006,46,0.421794380572,195,44046,40,68,69,,,18
2006,47,0.539149871446,193,31730,35,76,70,,,12
2006,48,0.608504724019,206,42130,39,67,79,,,21
2006,49,0.415035363598,141,37599,34,44,48,,,15
2006,50,0.520030859221,219,42474,44,81,72,,,22
2006,51,0.711545459742,249,31130,46,122,62,,,19
2006,52,1.44752756735,296,18062,49,117,103,,,27
2007,1,0.628117772794,245,35107,60,68,96,,,21
2007,2,0.516237363864,255,42010,58,84,96,,,17
2007,3,0.626519224473,266,40501,51,99,90,,,26
2007,4,0.821671865796,349,43199,81,151,93,,,24
2007,5,1.40698899763,373,25044,84,156,119,,,14
2007,6,1.21488702784,422,40806,78,224,112,,,8
2007,7,1.69494417755,791,44069,146,386,233,,,26
2007,8,1.6063966978,753,45071,121,344,242,,,46
2007,9,1.59919963637,708,44546,127,309,233,,,39
2007,10,1.32998793479,668,45444,97,330,222,,,19
2007,11,1.50656248382,648,41043,116,277,216,,,39
2007,12,1.19802944364,487,41252,70,173,197,,,47
2007,13,0.872119547371,374,40945,53,145,146,,,30
2007,14,0.848050154893,283,38186,49,110,103,,,21
2007,15,0.460147921067,168,33446,35,44,61,,,28
2007,16,0.516783387205,198,38888,36,68,68,,,26
2007,17,0.271000250339,126,37737,20,32,60,,,14
2007,18,0.267124070282,119,36030,26,39,39,,,15
2007,19,0.24671251799,124,34736,25,42,37,,,20
2007,20,0.182939138626,88,34481,16,25,28,,,19
