year,ew,wili,num_ili,num_patients,age_0,age_1,age_2,age_3,age_4,age_5
2012,21,0.601032,370,49536,106,149,,84,20,11
2012,22,0.812736,484,44952,133,194,,112,25,20
2012,23,0.665369,389,46696,94,147,,98,35,15
2012,24,0.592723,339,43410,90,127,,85,20,17
2012,25,0.564215,317,42565,98,120,,65,25,9
2012,26,0.490352,267,40805,70,100,,63,21,13
2012,27,0.450704,238,38170,64,93,,52,17,12
2012,28,0.449177,236,42272,65,96,,57,14,4
2012,29,0.46789,242,41996,84,90,,53,10,5
2012,30,0.51303,266,40875,73,107,,53,24,9
2012,31,0.504355,252,42998,66,96,,69,12,9
2012,32,0.444484,226,42644,64,83,,51,12,16
2012,33,0.53001,285,44067,97,102,,54,21,11
2012,34,0.530968,267,44051,70,99,,74,14,10
2012,35,0.578547,312,44917,70,135,,78,15,14
2012,36,0.729418,383,39938,85,173,,89,28,8
2012,37,0.678428,407,45111,82,190,,102,19,14
2012,38,0.579878,331,46935,91,144,,68,17,11
2012,39,0.712934,379,44569,76,171,,77,33,22
2012,40,0.777279,421,50813,97,181,,93,27,23
2012,41,0.796538,437,51233,112,202,,70,38,15
2012,42,0.805817,446,50535,114,160,,109,38,25
2012,43,0.72746,416,51312,125,169,,73,24,25
2012,44,0.922182,529,50876,121,231,,115,39,23
2012,45,0.93274,523,51932,137,209,,119,38,20
2012,46,1.02407,582,53061,146,238,,145,33,20
2012,47,1.41876,652,41214,178,288,,129,37,20
2012,48,1.32822,864,57169,191,371,,194,71,37
2012,49,1.68848,1021,53572,238,441,,218,82,42
2012,50,2.42542,1245,48613,276,547,,269,105,48
2012,51,3.18065,1844,53092,395,841,,356,146,106
2012,52,4.09753,2039,42340,513,721,,520,172,113
2013,1,3.74481,2143,49524,553,626,,608,218,138
2013,2,3.85313,2473,59167,490,812,,698,317,156
2013,3,4.13787,2517,57704,521,927,,689,267,113
2013,4,3.97647,2275,54440,497,880,,565,198,135
2013,5,3.44291,2050,56408,462,815,,494,182,97
2013,6,2.97312,1805,57550,424,732,,371,180,98
2013,7,2.63255,1473,55242,371,560,,338,152,52
2013,8,2.17155,1285,55308,363,463,,296,92,71
2013,9,2.10319,1120,54167,278,404,,267,103,68
2013,10,1.79868,980,55364,233,380,,228,85,54
2013,11,1.75337,914,53711,223,357,,214,74,46
2013,12,1.21262,702,54966,151,283,,184,64,20
2013,13,1.24913,639,52257,162,246,,137,56,38
2013,14,1.16801,598,50208,169,176,,166,56,31
2013,15,1.01314,502,49730,114,197,,124,42,25
2013,16,1.01639,464,50063,100,191,,117,35,21
2013,17,1.00657,481,51488,122,209,,110,23,17
2013,18,1.00405,496,51734,120,195,,116,47,18
2013,19,0.929267,452,50430,120,184,,103,36,9
2013,20,0.738568,394,51086,106,176,,72,25,15
