year,ew,wili,actual_ew
1997.0,1.0,0.4988287,21.0
1997.0,2.0,0.4988287,22.0
1997.0,3.0,0.4988287,23.0
1997.0,4.0,0.4988287,24.0
1997.0,5.0,0.4988287,25.0
1997.0,6.0,0.4988287,26.0
1997.0,7.0,0.4988287,27.0
1997.0,8.0,0.4988287,28.0
1997.0,9.0,0.4988287,29.0
1997.0,10.0,0.4988287,30.0
1997.0,11.0,0.4988287,31.0
1997.0,12.0,0.4988287,32.0
1997.0,13.0,0.4988287,33.0
1997.0,14.0,0.4988287,34.0
1997.0,15.0,0.4988287,35.0
1997.0,16.0,0.4988287,36.0
1997.0,17.0,0.4988287,37.0
1997.0,18.0,0.4988287,38.0
1997.0,19.0,0.4988287,39.0
1997.0,20.0,0.4988287,40.0
1997.0,21.0,0.6411991,41.0
1997.0,22.0,2.902313,42.0
1997.0,23.0,4.808089,43.0
1997.0,24.0,1.376061,44.0
1997.0,25.0,0.9240627,45.0
1997.0,26.0,0.6380935,46.0
1997.0,27.0,0.8079682,47.0
1997.0,28.0,1.23267,48.0
1997.0,29.0,1.71118,49.0
1997.0,30.0,1.235229,50.0
1997.0,31.0,1.216842,51.0
1997.0,32.0,1.081914,52.0
1998.0,33.0,3.259664,1.0
1998.0,34.0,2.159562,2.0
1998.0,35.0,4.19037,3.0
1998.0,36.0,4.286965,4.0
1998.0,37.0,5.02758,5.0
1998.0,38.0,3.605576,6.0
1998.0,39.0,3.24586,7.0
1998.0,40.0,1.358121,8.0
1998.0,41.0,0.6624625,9.0
1998.0,42.0,0.4548602,10.0
1998.0,43.0,0.2343081,11.0
1998.0,44.0,0.176997,12.0
1998.0,45.0,0.171815,13.0
1998.0,46.0,0.1260718,14.0
1998.0,47.0,0.06207967,15.0
1998.0,48.0,0.07500353,16.0
1998.0,49.0,0.09398877,17.0
1998.0,50.0,0.162581,18.0
1998.0,51.0,0.06182557,19.0
1998.0,52.0,0.02754336,20.0
