season,noise
2009-2010,1.26615300252e-05
2002-2003,6.32294844204e-05
2014-2015,7.49913899525e-05
2013-2014,4.51131374442e-06
2005-2006,1.18690454637e-07
2016-2017,5.14380561977e-05
2007-2008,3.17172982215e-08
1999-2000,4.17343913542e-05
2011-2012,2.64127041483e-05
2012-2013,2.12575835056e-05
2004-2005,1.13125944545e-06
2008-2009,2.77107640632e-08
2015-2016,1.39303556704e-05
2003-2004,2.08292807286e-06
2001-2002,6.03477093034e-05
1997-1998,1.53108489078e-05
2006-2007,1.35439227928e-06
2010-2011,4.7577348597e-06
2000-2001,0.00060613430361
1998-1999,0.000787839472661
