year,ew,wili,num_ili,num_patients,age_0,age_1,age_2,age_3,age_4,age_5
2003,21,0.582948792334,11,1187,0,6,5,,,0
2003,22,0.642858054991,3,1044,1,2,0,,,0
2003,23,0.433504881514,3,811,0,3,0,,,0
2003,24,0.221931898671,1,837,1,0,0,,,0
2003,25,0.0,0,367,0,0,0,,,0
2003,26,0.138707436669,1,512,1,0,0,,,0
2003,27,0.0,0,454,0,0,0,,,0
2003,28,0.120211169864,1,451,0,0,1,,,0
2003,29,0.142264037609,1,474,1,0,0,,,0
2003,30,1.2041077131,2,132,0,2,0,,,0
2003,31,0.180450147422,1,179,1,0,0,,,0
2003,32,0.0,0,397,0,0,0,,,0
2003,33,0.0,0,302,0,0,0,,,0
2003,34,0.0,0,274,0,0,0,,,0
2003,35,0.0,0,406,0,0,0,,,0
2003,36,0.0,0,358,0,0,0,,,0
2003,37,0.257200961747,1,266,1,0,0,,,0
2003,38,0.797322981416,3,198,3,0,0,,,0
2003,39,0.989364601383,3,209,2,1,0,,,0
2003,40,0.757248217633,24,3174,12,5,7,,,0
2003,41,0.529791560841,24,3624,10,8,6,,,0
2003,42,0.867141307188,36,3645,12,16,8,,,0
2003,43,1.37377065631,44,3540,13,9,21,,,1
2003,44,2.31318725099,84,4077,33,32,18,,,1
2003,45,2.00588174374,89,4272,26,36,25,,,2
2003,46,3.28096947786,159,4692,44,68,40,,,7
2003,47,6.16092891866,309,4580,85,151,65,,,8
2003,48,8.82763237256,333,3738,73,135,103,,,22
2003,49,7.39166778868,384,4672,102,129,136,,,17
2003,50,7.35509150508,350,4413,85,137,103,,,25
2003,51,5.88685203675,290,4194,64,104,102,,,20
2003,52,3.9547962698,118,2904,36,33,43,,,6
2004,1,2.1222982082,66,3064,20,18,25,,,3
2004,2,0.98568686088,39,3587,12,11,15,,,1
2004,3,1.51537560047,51,3428,25,12,10,,,4
2004,4,2.35558520894,69,3585,20,25,15,,,9
2004,5,1.37120261982,44,3591,19,16,8,,,1
2004,6,1.258508663,51,3585,21,14,14,,,2
2004,7,0.988543115602,35,3612,13,7,11,,,4
2004,8,0.702316219181,25,3724,9,9,6,,,1
2004,9,0.900383952781,28,3307,13,9,3,,,3
2004,10,0.893651041365,29,3138,9,11,8,,,1
2004,11,0.547257440988,19,3373,9,4,6,,,0
2004,12,0.350377057039,13,2457,7,3,3,,,0
2004,13,0.398855611303,13,2417,5,0,6,,,2
2004,14,0.234890894119,10,2110,7,2,1,,,0
2004,15,0.585967140874,16,2107,10,3,3,,,0
2004,16,0.272521284973,8,2136,4,1,3,,,0
2004,17,0.470392597807,12,2204,7,3,2,,,0
2004,18,0.505705031207,14,2286,4,7,3,,,0
2004,19,0.491738736828,12,2013,7,4,1,,,0
2004,20,0.220064175292,9,2316,3,3,2,,,1
