Location,Target,Type,Unit,Bin_start_incl,Bin_end_notincl,Value
HHS Region 3,Season onset,Point,week,,,51.0
HHS Region 3,Season onset,Bin,week,40,41,0.0
HHS Region 3,Season onset,Bin,week,41,42,0.0
HHS Region 3,Season onset,Bin,week,42,43,0.0
HHS Region 3,Season onset,Bin,week,43,44,0.0
HHS Region 3,Season onset,Bin,week,44,45,0.0
HHS Region 3,Season onset,Bin,week,45,46,0.0
HHS Region 3,Season onset,Bin,week,46,47,5.32758940109e-158
HHS Region 3,Season onset,Bin,week,47,48,2.001964619e-43
HHS Region 3,Season onset,Bin,week,48,49,0.217905482591
HHS Region 3,Season onset,Bin,week,49,50,0.782094517409
HHS Region 3,Season onset,Bin,week,50,51,0.0
HHS Region 3,Season onset,Bin,week,51,52,0.0
HHS Region 3,Season onset,Bin,week,52,53,0.0
HHS Region 3,Season onset,Bin,week,1,2,0.0
HHS Region 3,Season onset,Bin,week,2,3,0.0
HHS Region 3,Season onset,Bin,week,3,4,0.0
HHS Region 3,Season onset,Bin,week,4,5,0.0
HHS Region 3,Season onset,Bin,week,5,6,0.0
HHS Region 3,Season onset,Bin,week,6,7,0.0
HHS Region 3,Season onset,Bin,week,7,8,0.0
HHS Region 3,Season onset,Bin,week,8,9,0.0
HHS Region 3,Season onset,Bin,week,9,10,0.0
HHS Region 3,Season onset,Bin,week,10,11,0.0
HHS Region 3,Season onset,Bin,week,11,12,0.0
HHS Region 3,Season onset,Bin,week,12,13,0.0
HHS Region 3,Season onset,Bin,week,13,14,0.0
HHS Region 3,Season onset,Bin,week,14,15,0.0
HHS Region 3,Season onset,Bin,week,15,16,0.0
HHS Region 3,Season onset,Bin,week,16,17,0.0
HHS Region 3,Season onset,Bin,week,17,18,0.0
HHS Region 3,Season onset,Bin,week,18,19,0.0
HHS Region 3,Season onset,Bin,week,19,20,0.0
HHS Region 3,Season onset,Bin,week,20,21,0.029411765
HHS Region 3,Season onset,Bin,week,none,none,0.029411765
HHS Region 3,Season peak week,Point,week,,,51.0
HHS Region 3,Season peak week,Bin,week,40,41,0.0
HHS Region 3,Season peak week,Bin,week,41,42,0.0
HHS Region 3,Season peak week,Bin,week,42,43,0.0
HHS Region 3,Season peak week,Bin,week,43,44,0.0
HHS Region 3,Season peak week,Bin,week,44,45,0.0
HHS Region 3,Season peak week,Bin,week,45,46,0.0
HHS Region 3,Season peak week,Bin,week,46,47,0.0
HHS Region 3,Season peak week,Bin,week,47,48,0.0
HHS Region 3,Season peak week,Bin,week,48,49,0.0
HHS Region 3,Season peak week,Bin,week,49,50,0.0
HHS Region 3,Season peak week,Bin,week,50,51,0.0
HHS Region 3,Season peak week,Bin,week,51,52,0.0
HHS Region 3,Season peak week,Bin,week,52,53,0.0
HHS Region 3,Season peak week,Bin,week,1,2,1.73904626474e-248
HHS Region 3,Season peak week,Bin,week,2,3,2.40215881141e-140
HHS Region 3,Season peak week,Bin,week,3,4,3.4154640236e-63
HHS Region 3,Season peak week,Bin,week,4,5,5.91145419751e-17
HHS Region 3,Season peak week,Bin,week,5,6,0.567132814017
HHS Region 3,Season peak week,Bin,week,6,7,0.432867185983
HHS Region 3,Season peak week,Bin,week,7,8,0.0
HHS Region 3,Season peak week,Bin,week,8,9,0.0
HHS Region 3,Season peak week,Bin,week,9,10,0.0
HHS Region 3,Season peak week,Bin,week,10,11,0.0
HHS Region 3,Season peak week,Bin,week,11,12,0.0
HHS Region 3,Season peak week,Bin,week,12,13,0.0
HHS Region 3,Season peak week,Bin,week,13,14,0.0
HHS Region 3,Season peak week,Bin,week,14,15,0.0
HHS Region 3,Season peak week,Bin,week,15,16,0.0
HHS Region 3,Season peak week,Bin,week,16,17,0.0
HHS Region 3,Season peak week,Bin,week,17,18,0.0
HHS Region 3,Season peak week,Bin,week,18,19,0.0
HHS Region 3,Season peak week,Bin,week,19,20,0.0
HHS Region 3,Season peak week,Bin,week,20,21,0.03030303
HHS Region 3,Season peak percentage,Point,percent,,,1.5
HHS Region 3,Season peak percentage,Bin,percent,0,0.1,0.007633588
HHS Region 3,Season peak percentage,Bin,percent,0.1,0.2,0.0
HHS Region 3,Season peak percentage,Bin,percent,0.2,0.3,0.0
HHS Region 3,Season peak percentage,Bin,percent,0.3,0.4,0.0
HHS Region 3,Season peak percentage,Bin,percent,0.4,0.5,0.0
HHS Region 3,Season peak percentage,Bin,percent,0.5,0.6,0.0
HHS Region 3,Season peak percentage,Bin,percent,0.6,0.7,0.0
HHS Region 3,Season peak percentage,Bin,percent,0.7,0.8,0.0
HHS Region 3,Season peak percentage,Bin,percent,0.8,0.9,0.0
HHS Region 3,Season peak percentage,Bin,percent,0.9,1,0.0
HHS Region 3,Season peak percentage,Bin,percent,1,1.1,0.0
HHS Region 3,Season peak percentage,Bin,percent,1.1,1.2,0.0
HHS Region 3,Season peak percentage,Bin,percent,1.2,1.3,0.0
HHS Region 3,Season peak percentage,Bin,percent,1.3,1.4,0.0
HHS Region 3,Season peak percentage,Bin,percent,1.4,1.5,0.0
HHS Region 3,Season peak percentage,Bin,percent,1.5,1.6,0.0
HHS Region 3,Season peak percentage,Bin,percent,1.6,1.7,0.0
HHS Region 3,Season peak percentage,Bin,percent,1.7,1.8,0.0
HHS Region 3,Season peak percentage,Bin,percent,1.8,1.9,0.0
HHS Region 3,Season peak percentage,Bin,percent,1.9,2,0.0
HHS Region 3,Season peak percentage,Bin,percent,2,2.1,0.0
HHS Region 3,Season peak percentage,Bin,percent,2.1,2.2,0.0
HHS Region 3,Season peak percentage,Bin,percent,2.2,2.3,0.0
HHS Region 3,Season peak percentage,Bin,percent,2.3,2.4,0.0
HHS Region 3,Season peak percentage,Bin,percent,2.4,2.5,0.0
HHS Region 3,Season peak percentage,Bin,percent,2.5,2.6,0.0
HHS Region 3,Season peak percentage,Bin,percent,2.6,2.7,0.0
HHS Region 3,Season peak percentage,Bin,percent,2.7,2.8,0.0
HHS Region 3,Season peak percentage,Bin,percent,2.8,2.9,0.0
HHS Region 3,Season peak percentage,Bin,percent,2.9,3,2.56961993937e-310
HHS Region 3,Season peak percentage,Bin,percent,3,3.1,3.660076992e-242
HHS Region 3,Season peak percentage,Bin,percent,3.1,3.2,1.64319435132e-182
HHS Region 3,Season peak percentage,Bin,percent,3.2,3.3,2.3390545989e-131
HHS Region 3,Season peak percentage,Bin,percent,3.3,3.4,1.06576167451e-88
HHS Region 3,Season peak percentage,Bin,percent,3.4,3.5,1.58028638918e-54
HHS Region 3,Season peak percentage,Bin,percent,3.5,3.6,7.88106587931e-29
HHS Region 3,Season peak percentage,Bin,percent,3.6,3.7,1.43425889346e-11
HHS Region 3,Season peak percentage,Bin,percent,3.7,3.8,0.0129816265625
HHS Region 3,Season peak percentage,Bin,percent,3.8,3.9,0.973102340769
HHS Region 3,Season peak percentage,Bin,percent,3.9,4,0.0139160326368
HHS Region 3,Season peak percentage,Bin,percent,4,4.1,1.72392100595e-11
HHS Region 3,Season peak percentage,Bin,percent,4.1,4.2,0.0
HHS Region 3,Season peak percentage,Bin,percent,4.2,4.3,0.0
HHS Region 3,Season peak percentage,Bin,percent,4.3,4.4,0.0
HHS Region 3,Season peak percentage,Bin,percent,4.4,4.5,0.0
HHS Region 3,Season peak percentage,Bin,percent,4.5,4.6,0.0
HHS Region 3,Season peak percentage,Bin,percent,4.6,4.7,0.0
HHS Region 3,Season peak percentage,Bin,percent,4.7,4.8,0.0
HHS Region 3,Season peak percentage,Bin,percent,4.8,4.9,0.0
HHS Region 3,Season peak percentage,Bin,percent,4.9,5,0.0
HHS Region 3,Season peak percentage,Bin,percent,5,5.1,0.0
HHS Region 3,Season peak percentage,Bin,percent,5.1,5.2,0.0
HHS Region 3,Season peak percentage,Bin,percent,5.2,5.3,0.0
HHS Region 3,Season peak percentage,Bin,percent,5.3,5.4,0.0
HHS Region 3,Season peak percentage,Bin,percent,5.4,5.5,0.0
HHS Region 3,Season peak percentage,Bin,percent,5.5,5.6,0.0
HHS Region 3,Season peak percentage,Bin,percent,5.6,5.7,0.0
HHS Region 3,Season peak percentage,Bin,percent,5.7,5.8,0.0
HHS Region 3,Season peak percentage,Bin,percent,5.8,5.9,0.0
HHS Region 3,Season peak percentage,Bin,percent,5.9,6,0.0
HHS Region 3,Season peak percentage,Bin,percent,6,6.1,0.0
HHS Region 3,Season peak percentage,Bin,percent,6.1,6.2,0.0
HHS Region 3,Season peak percentage,Bin,percent,6.2,6.3,0.0
HHS Region 3,Season peak percentage,Bin,percent,6.3,6.4,0.0
HHS Region 3,Season peak percentage,Bin,percent,6.4,6.5,0.0
HHS Region 3,Season peak percentage,Bin,percent,6.5,6.6,0.0
HHS Region 3,Season peak percentage,Bin,percent,6.6,6.7,0.0
HHS Region 3,Season peak percentage,Bin,percent,6.7,6.8,0.0
HHS Region 3,Season peak percentage,Bin,percent,6.8,6.9,0.0
HHS Region 3,Season peak percentage,Bin,percent,6.9,7,0.0
HHS Region 3,Season peak percentage,Bin,percent,7,7.1,0.0
HHS Region 3,Season peak percentage,Bin,percent,7.1,7.2,0.0
HHS Region 3,Season peak percentage,Bin,percent,7.2,7.3,0.0
HHS Region 3,Season peak percentage,Bin,percent,7.3,7.4,0.0
HHS Region 3,Season peak percentage,Bin,percent,7.4,7.5,0.0
HHS Region 3,Season peak percentage,Bin,percent,7.5,7.6,0.0
HHS Region 3,Season peak percentage,Bin,percent,7.6,7.7,0.0
HHS Region 3,Season peak percentage,Bin,percent,7.7,7.8,0.0
HHS Region 3,Season peak percentage,Bin,percent,7.8,7.9,0.0
HHS Region 3,Season peak percentage,Bin,percent,7.9,8,0.0
HHS Region 3,Season peak percentage,Bin,percent,8,8.1,0.0
HHS Region 3,Season peak percentage,Bin,percent,8.1,8.2,0.0
HHS Region 3,Season peak percentage,Bin,percent,8.2,8.3,0.0
HHS Region 3,Season peak percentage,Bin,percent,8.3,8.4,0.0
HHS Region 3,Season peak percentage,Bin,percent,8.4,8.5,0.0
HHS Region 3,Season peak percentage,Bin,percent,8.5,8.6,0.0
HHS Region 3,Season peak percentage,Bin,percent,8.6,8.7,0.0
HHS Region 3,Season peak percentage,Bin,percent,8.7,8.8,0.0
HHS Region 3,Season peak percentage,Bin,percent,8.8,8.9,0.0
HHS Region 3,Season peak percentage,Bin,percent,8.9,9,0.0
HHS Region 3,Season peak percentage,Bin,percent,9,9.1,0.0
HHS Region 3,Season peak percentage,Bin,percent,9.1,9.2,0.0
HHS Region 3,Season peak percentage,Bin,percent,9.2,9.3,0.0
HHS Region 3,Season peak percentage,Bin,percent,9.3,9.4,0.0
HHS Region 3,Season peak percentage,Bin,percent,9.4,9.5,0.0
HHS Region 3,Season peak percentage,Bin,percent,9.5,9.6,0.0
HHS Region 3,Season peak percentage,Bin,percent,9.6,9.7,0.0
HHS Region 3,Season peak percentage,Bin,percent,9.7,9.8,0.0
HHS Region 3,Season peak percentage,Bin,percent,9.8,9.9,0.0
HHS Region 3,Season peak percentage,Bin,percent,9.9,10,0.0
HHS Region 3,Season peak percentage,Bin,percent,10,10.1,0.0
HHS Region 3,Season peak percentage,Bin,percent,10.1,10.2,0.0
HHS Region 3,Season peak percentage,Bin,percent,10.2,10.3,0.0
HHS Region 3,Season peak percentage,Bin,percent,10.3,10.4,0.0
HHS Region 3,Season peak percentage,Bin,percent,10.4,10.5,0.0
HHS Region 3,Season peak percentage,Bin,percent,10.5,10.6,0.0
HHS Region 3,Season peak percentage,Bin,percent,10.6,10.7,0.0
HHS Region 3,Season peak percentage,Bin,percent,10.7,10.8,0.0
HHS Region 3,Season peak percentage,Bin,percent,10.8,10.9,0.0
HHS Region 3,Season peak percentage,Bin,percent,10.9,11,0.0
HHS Region 3,Season peak percentage,Bin,percent,11,11.1,0.0
HHS Region 3,Season peak percentage,Bin,percent,11.1,11.2,0.0
HHS Region 3,Season peak percentage,Bin,percent,11.2,11.3,0.0
HHS Region 3,Season peak percentage,Bin,percent,11.3,11.4,0.0
HHS Region 3,Season peak percentage,Bin,percent,11.4,11.5,0.0
HHS Region 3,Season peak percentage,Bin,percent,11.5,11.6,0.0
HHS Region 3,Season peak percentage,Bin,percent,11.6,11.7,0.0
HHS Region 3,Season peak percentage,Bin,percent,11.7,11.8,0.0
HHS Region 3,Season peak percentage,Bin,percent,11.8,11.9,0.0
HHS Region 3,Season peak percentage,Bin,percent,11.9,12,0.0
HHS Region 3,Season peak percentage,Bin,percent,12,12.1,0.0
HHS Region 3,Season peak percentage,Bin,percent,12.1,12.2,0.0
HHS Region 3,Season peak percentage,Bin,percent,12.2,12.3,0.0
HHS Region 3,Season peak percentage,Bin,percent,12.3,12.4,0.0
HHS Region 3,Season peak percentage,Bin,percent,12.4,12.5,0.0
HHS Region 3,Season peak percentage,Bin,percent,12.5,12.6,0.0
HHS Region 3,Season peak percentage,Bin,percent,12.6,12.7,0.0
HHS Region 3,Season peak percentage,Bin,percent,12.7,12.8,0.0
HHS Region 3,Season peak percentage,Bin,percent,12.8,12.9,0.0
HHS Region 3,Season peak percentage,Bin,percent,12.9,13,0.0
HHS Region 3,Season peak percentage,Bin,percent,13,100,0.0
HHS Region 3,1 wk ahead,Point,percent,,,1.5
HHS Region 3,1 wk ahead,Bin,percent,0,0.1,0.007633588
HHS Region 3,1 wk ahead,Bin,percent,0.1,0.2,0.0
HHS Region 3,1 wk ahead,Bin,percent,0.2,0.3,0.0
HHS Region 3,1 wk ahead,Bin,percent,0.3,0.4,0.0
HHS Region 3,1 wk ahead,Bin,percent,0.4,0.5,0.0
HHS Region 3,1 wk ahead,Bin,percent,0.5,0.6,0.0
HHS Region 3,1 wk ahead,Bin,percent,0.6,0.7,0.0
HHS Region 3,1 wk ahead,Bin,percent,0.7,0.8,0.0
HHS Region 3,1 wk ahead,Bin,percent,0.8,0.9,0.0
HHS Region 3,1 wk ahead,Bin,percent,0.9,1,0.0
HHS Region 3,1 wk ahead,Bin,percent,1,1.1,0.0
HHS Region 3,1 wk ahead,Bin,percent,1.1,1.2,0.0
HHS Region 3,1 wk ahead,Bin,percent,1.2,1.3,0.0
HHS Region 3,1 wk ahead,Bin,percent,1.3,1.4,2.21522250722e-252
HHS Region 3,1 wk ahead,Bin,percent,1.4,1.5,9.6997290083e-158
HHS Region 3,1 wk ahead,Bin,percent,1.5,1.6,1.89808690102e-85
HHS Region 3,1 wk ahead,Bin,percent,1.6,1.7,1.77668718587e-35
HHS Region 3,1 wk ahead,Bin,percent,1.7,1.8,1.01558717364e-07
HHS Region 3,1 wk ahead,Bin,percent,1.8,1.9,0.976284198331
HHS Region 3,1 wk ahead,Bin,percent,1.9,2,0.0237157001107
HHS Region 3,1 wk ahead,Bin,percent,2,2.1,0.0
HHS Region 3,1 wk ahead,Bin,percent,2.1,2.2,0.0
HHS Region 3,1 wk ahead,Bin,percent,2.2,2.3,0.0
HHS Region 3,1 wk ahead,Bin,percent,2.3,2.4,0.0
HHS Region 3,1 wk ahead,Bin,percent,2.4,2.5,0.0
HHS Region 3,1 wk ahead,Bin,percent,2.5,2.6,0.0
HHS Region 3,1 wk ahead,Bin,percent,2.6,2.7,0.0
HHS Region 3,1 wk ahead,Bin,percent,2.7,2.8,0.0
HHS Region 3,1 wk ahead,Bin,percent,2.8,2.9,0.0
HHS Region 3,1 wk ahead,Bin,percent,2.9,3,0.0
HHS Region 3,1 wk ahead,Bin,percent,3,3.1,0.0
HHS Region 3,1 wk ahead,Bin,percent,3.1,3.2,0.0
HHS Region 3,1 wk ahead,Bin,percent,3.2,3.3,0.0
HHS Region 3,1 wk ahead,Bin,percent,3.3,3.4,0.0
HHS Region 3,1 wk ahead,Bin,percent,3.4,3.5,0.0
HHS Region 3,1 wk ahead,Bin,percent,3.5,3.6,0.0
HHS Region 3,1 wk ahead,Bin,percent,3.6,3.7,0.0
HHS Region 3,1 wk ahead,Bin,percent,3.7,3.8,0.0
HHS Region 3,1 wk ahead,Bin,percent,3.8,3.9,0.0
HHS Region 3,1 wk ahead,Bin,percent,3.9,4,0.0
HHS Region 3,1 wk ahead,Bin,percent,4,4.1,0.0
HHS Region 3,1 wk ahead,Bin,percent,4.1,4.2,0.0
HHS Region 3,1 wk ahead,Bin,percent,4.2,4.3,0.0
HHS Region 3,1 wk ahead,Bin,percent,4.3,4.4,0.0
HHS Region 3,1 wk ahead,Bin,percent,4.4,4.5,0.0
HHS Region 3,1 wk ahead,Bin,percent,4.5,4.6,0.0
HHS Region 3,1 wk ahead,Bin,percent,4.6,4.7,0.0
HHS Region 3,1 wk ahead,Bin,percent,4.7,4.8,0.0
HHS Region 3,1 wk ahead,Bin,percent,4.8,4.9,0.0
HHS Region 3,1 wk ahead,Bin,percent,4.9,5,0.0
HHS Region 3,1 wk ahead,Bin,percent,5,5.1,0.0
HHS Region 3,1 wk ahead,Bin,percent,5.1,5.2,0.0
HHS Region 3,1 wk ahead,Bin,percent,5.2,5.3,0.0
HHS Region 3,1 wk ahead,Bin,percent,5.3,5.4,0.0
HHS Region 3,1 wk ahead,Bin,percent,5.4,5.5,0.0
HHS Region 3,1 wk ahead,Bin,percent,5.5,5.6,0.0
HHS Region 3,1 wk ahead,Bin,percent,5.6,5.7,0.0
HHS Region 3,1 wk ahead,Bin,percent,5.7,5.8,0.0
HHS Region 3,1 wk ahead,Bin,percent,5.8,5.9,0.0
HHS Region 3,1 wk ahead,Bin,percent,5.9,6,0.0
HHS Region 3,1 wk ahead,Bin,percent,6,6.1,0.0
HHS Region 3,1 wk ahead,Bin,percent,6.1,6.2,0.0
HHS Region 3,1 wk ahead,Bin,percent,6.2,6.3,0.0
HHS Region 3,1 wk ahead,Bin,percent,6.3,6.4,0.0
HHS Region 3,1 wk ahead,Bin,percent,6.4,6.5,0.0
HHS Region 3,1 wk ahead,Bin,percent,6.5,6.6,0.0
HHS Region 3,1 wk ahead,Bin,percent,6.6,6.7,0.0
HHS Region 3,1 wk ahead,Bin,percent,6.7,6.8,0.0
HHS Region 3,1 wk ahead,Bin,percent,6.8,6.9,0.0
HHS Region 3,1 wk ahead,Bin,percent,6.9,7,0.0
HHS Region 3,1 wk ahead,Bin,percent,7,7.1,0.0
HHS Region 3,1 wk ahead,Bin,percent,7.1,7.2,0.0
HHS Region 3,1 wk ahead,Bin,percent,7.2,7.3,0.0
HHS Region 3,1 wk ahead,Bin,percent,7.3,7.4,0.0
HHS Region 3,1 wk ahead,Bin,percent,7.4,7.5,0.0
HHS Region 3,1 wk ahead,Bin,percent,7.5,7.6,0.0
HHS Region 3,1 wk ahead,Bin,percent,7.6,7.7,0.0
HHS Region 3,1 wk ahead,Bin,percent,7.7,7.8,0.0
HHS Region 3,1 wk ahead,Bin,percent,7.8,7.9,0.0
HHS Region 3,1 wk ahead,Bin,percent,7.9,8,0.0
HHS Region 3,1 wk ahead,Bin,percent,8,8.1,0.0
HHS Region 3,1 wk ahead,Bin,percent,8.1,8.2,0.0
HHS Region 3,1 wk ahead,Bin,percent,8.2,8.3,0.0
HHS Region 3,1 wk ahead,Bin,percent,8.3,8.4,0.0
HHS Region 3,1 wk ahead,Bin,percent,8.4,8.5,0.0
HHS Region 3,1 wk ahead,Bin,percent,8.5,8.6,0.0
HHS Region 3,1 wk ahead,Bin,percent,8.6,8.7,0.0
HHS Region 3,1 wk ahead,Bin,percent,8.7,8.8,0.0
HHS Region 3,1 wk ahead,Bin,percent,8.8,8.9,0.0
HHS Region 3,1 wk ahead,Bin,percent,8.9,9,0.0
HHS Region 3,1 wk ahead,Bin,percent,9,9.1,0.0
HHS Region 3,1 wk ahead,Bin,percent,9.1,9.2,0.0
HHS Region 3,1 wk ahead,Bin,percent,9.2,9.3,0.0
HHS Region 3,1 wk ahead,Bin,percent,9.3,9.4,0.0
HHS Region 3,1 wk ahead,Bin,percent,9.4,9.5,0.0
HHS Region 3,1 wk ahead,Bin,percent,9.5,9.6,0.0
HHS Region 3,1 wk ahead,Bin,percent,9.6,9.7,0.0
HHS Region 3,1 wk ahead,Bin,percent,9.7,9.8,0.0
HHS Region 3,1 wk ahead,Bin,percent,9.8,9.9,0.0
HHS Region 3,1 wk ahead,Bin,percent,9.9,10,0.0
HHS Region 3,1 wk ahead,Bin,percent,10,10.1,0.0
HHS Region 3,1 wk ahead,Bin,percent,10.1,10.2,0.0
HHS Region 3,1 wk ahead,Bin,percent,10.2,10.3,0.0
HHS Region 3,1 wk ahead,Bin,percent,10.3,10.4,0.0
HHS Region 3,1 wk ahead,Bin,percent,10.4,10.5,0.0
HHS Region 3,1 wk ahead,Bin,percent,10.5,10.6,0.0
HHS Region 3,1 wk ahead,Bin,percent,10.6,10.7,0.0
HHS Region 3,1 wk ahead,Bin,percent,10.7,10.8,0.0
HHS Region 3,1 wk ahead,Bin,percent,10.8,10.9,0.0
HHS Region 3,1 wk ahead,Bin,percent,10.9,11,0.0
HHS Region 3,1 wk ahead,Bin,percent,11,11.1,0.0
HHS Region 3,1 wk ahead,Bin,percent,11.1,11.2,0.0
HHS Region 3,1 wk ahead,Bin,percent,11.2,11.3,0.0
HHS Region 3,1 wk ahead,Bin,percent,11.3,11.4,0.0
HHS Region 3,1 wk ahead,Bin,percent,11.4,11.5,0.0
HHS Region 3,1 wk ahead,Bin,percent,11.5,11.6,0.0
HHS Region 3,1 wk ahead,Bin,percent,11.6,11.7,0.0
HHS Region 3,1 wk ahead,Bin,percent,11.7,11.8,0.0
HHS Region 3,1 wk ahead,Bin,percent,11.8,11.9,0.0
HHS Region 3,1 wk ahead,Bin,percent,11.9,12,0.0
HHS Region 3,1 wk ahead,Bin,percent,12,12.1,0.0
HHS Region 3,1 wk ahead,Bin,percent,12.1,12.2,0.0
HHS Region 3,1 wk ahead,Bin,percent,12.2,12.3,0.0
HHS Region 3,1 wk ahead,Bin,percent,12.3,12.4,0.0
HHS Region 3,1 wk ahead,Bin,percent,12.4,12.5,0.0
HHS Region 3,1 wk ahead,Bin,percent,12.5,12.6,0.0
HHS Region 3,1 wk ahead,Bin,percent,12.6,12.7,0.0
HHS Region 3,1 wk ahead,Bin,percent,12.7,12.8,0.0
HHS Region 3,1 wk ahead,Bin,percent,12.8,12.9,0.0
HHS Region 3,1 wk ahead,Bin,percent,12.9,13,0.0
HHS Region 3,1 wk ahead,Bin,percent,13,100,0.0
HHS Region 3,2 wk ahead,Point,percent,,,1.5
HHS Region 3,2 wk ahead,Bin,percent,0,0.1,0.007633588
HHS Region 3,2 wk ahead,Bin,percent,0.1,0.2,0.0
HHS Region 3,2 wk ahead,Bin,percent,0.2,0.3,0.0
HHS Region 3,2 wk ahead,Bin,percent,0.3,0.4,0.0
HHS Region 3,2 wk ahead,Bin,percent,0.4,0.5,0.0
HHS Region 3,2 wk ahead,Bin,percent,0.5,0.6,0.0
HHS Region 3,2 wk ahead,Bin,percent,0.6,0.7,0.0
HHS Region 3,2 wk ahead,Bin,percent,0.7,0.8,0.0
HHS Region 3,2 wk ahead,Bin,percent,0.8,0.9,0.0
HHS Region 3,2 wk ahead,Bin,percent,0.9,1,0.0
HHS Region 3,2 wk ahead,Bin,percent,1,1.1,0.0
HHS Region 3,2 wk ahead,Bin,percent,1.1,1.2,0.0
HHS Region 3,2 wk ahead,Bin,percent,1.2,1.3,0.0
HHS Region 3,2 wk ahead,Bin,percent,1.3,1.4,0.0
HHS Region 3,2 wk ahead,Bin,percent,1.4,1.5,4.33917995587e-246
HHS Region 3,2 wk ahead,Bin,percent,1.5,1.6,1.35511260699e-176
HHS Region 3,2 wk ahead,Bin,percent,1.6,1.7,1.03644423993e-118
HHS Region 3,2 wk ahead,Bin,percent,1.7,1.8,1.97469812134e-72
HHS Region 3,2 wk ahead,Bin,percent,1.8,1.9,9.69809625274e-38
HHS Region 3,2 wk ahead,Bin,percent,1.9,2,1.3383957641e-14
HHS Region 3,2 wk ahead,Bin,percent,2,2.1,0.00736026959421
HHS Region 3,2 wk ahead,Bin,percent,2.1,2.2,0.989517839253
HHS Region 3,2 wk ahead,Bin,percent,2.2,2.3,0.00312189115284
HHS Region 3,2 wk ahead,Bin,percent,2.3,2.4,1.33226762955e-15
HHS Region 3,2 wk ahead,Bin,percent,2.4,2.5,0.0
HHS Region 3,2 wk ahead,Bin,percent,2.5,2.6,0.0
HHS Region 3,2 wk ahead,Bin,percent,2.6,2.7,0.0
HHS Region 3,2 wk ahead,Bin,percent,2.7,2.8,0.0
HHS Region 3,2 wk ahead,Bin,percent,2.8,2.9,0.0
HHS Region 3,2 wk ahead,Bin,percent,2.9,3,0.0
HHS Region 3,2 wk ahead,Bin,percent,3,3.1,0.0
HHS Region 3,2 wk ahead,Bin,percent,3.1,3.2,0.0
HHS Region 3,2 wk ahead,Bin,percent,3.2,3.3,0.0
HHS Region 3,2 wk ahead,Bin,percent,3.3,3.4,0.0
HHS Region 3,2 wk ahead,Bin,percent,3.4,3.5,0.0
HHS Region 3,2 wk ahead,Bin,percent,3.5,3.6,0.0
HHS Region 3,2 wk ahead,Bin,percent,3.6,3.7,0.0
HHS Region 3,2 wk ahead,Bin,percent,3.7,3.8,0.0
HHS Region 3,2 wk ahead,Bin,percent,3.8,3.9,0.0
HHS Region 3,2 wk ahead,Bin,percent,3.9,4,0.0
HHS Region 3,2 wk ahead,Bin,percent,4,4.1,0.0
HHS Region 3,2 wk ahead,Bin,percent,4.1,4.2,0.0
HHS Region 3,2 wk ahead,Bin,percent,4.2,4.3,0.0
HHS Region 3,2 wk ahead,Bin,percent,4.3,4.4,0.0
HHS Region 3,2 wk ahead,Bin,percent,4.4,4.5,0.0
HHS Region 3,2 wk ahead,Bin,percent,4.5,4.6,0.0
HHS Region 3,2 wk ahead,Bin,percent,4.6,4.7,0.0
HHS Region 3,2 wk ahead,Bin,percent,4.7,4.8,0.0
HHS Region 3,2 wk ahead,Bin,percent,4.8,4.9,0.0
HHS Region 3,2 wk ahead,Bin,percent,4.9,5,0.0
HHS Region 3,2 wk ahead,Bin,percent,5,5.1,0.0
HHS Region 3,2 wk ahead,Bin,percent,5.1,5.2,0.0
HHS Region 3,2 wk ahead,Bin,percent,5.2,5.3,0.0
HHS Region 3,2 wk ahead,Bin,percent,5.3,5.4,0.0
HHS Region 3,2 wk ahead,Bin,percent,5.4,5.5,0.0
HHS Region 3,2 wk ahead,Bin,percent,5.5,5.6,0.0
HHS Region 3,2 wk ahead,Bin,percent,5.6,5.7,0.0
HHS Region 3,2 wk ahead,Bin,percent,5.7,5.8,0.0
HHS Region 3,2 wk ahead,Bin,percent,5.8,5.9,0.0
HHS Region 3,2 wk ahead,Bin,percent,5.9,6,0.0
HHS Region 3,2 wk ahead,Bin,percent,6,6.1,0.0
HHS Region 3,2 wk ahead,Bin,percent,6.1,6.2,0.0
HHS Region 3,2 wk ahead,Bin,percent,6.2,6.3,0.0
HHS Region 3,2 wk ahead,Bin,percent,6.3,6.4,0.0
HHS Region 3,2 wk ahead,Bin,percent,6.4,6.5,0.0
HHS Region 3,2 wk ahead,Bin,percent,6.5,6.6,0.0
HHS Region 3,2 wk ahead,Bin,percent,6.6,6.7,0.0
HHS Region 3,2 wk ahead,Bin,percent,6.7,6.8,0.0
HHS Region 3,2 wk ahead,Bin,percent,6.8,6.9,0.0
HHS Region 3,2 wk ahead,Bin,percent,6.9,7,0.0
HHS Region 3,2 wk ahead,Bin,percent,7,7.1,0.0
HHS Region 3,2 wk ahead,Bin,percent,7.1,7.2,0.0
HHS Region 3,2 wk ahead,Bin,percent,7.2,7.3,0.0
HHS Region 3,2 wk ahead,Bin,percent,7.3,7.4,0.0
HHS Region 3,2 wk ahead,Bin,percent,7.4,7.5,0.0
HHS Region 3,2 wk ahead,Bin,percent,7.5,7.6,0.0
HHS Region 3,2 wk ahead,Bin,percent,7.6,7.7,0.0
HHS Region 3,2 wk ahead,Bin,percent,7.7,7.8,0.0
HHS Region 3,2 wk ahead,Bin,percent,7.8,7.9,0.0
HHS Region 3,2 wk ahead,Bin,percent,7.9,8,0.0
HHS Region 3,2 wk ahead,Bin,percent,8,8.1,0.0
HHS Region 3,2 wk ahead,Bin,percent,8.1,8.2,0.0
HHS Region 3,2 wk ahead,Bin,percent,8.2,8.3,0.0
HHS Region 3,2 wk ahead,Bin,percent,8.3,8.4,0.0
HHS Region 3,2 wk ahead,Bin,percent,8.4,8.5,0.0
HHS Region 3,2 wk ahead,Bin,percent,8.5,8.6,0.0
HHS Region 3,2 wk ahead,Bin,percent,8.6,8.7,0.0
HHS Region 3,2 wk ahead,Bin,percent,8.7,8.8,0.0
HHS Region 3,2 wk ahead,Bin,percent,8.8,8.9,0.0
HHS Region 3,2 wk ahead,Bin,percent,8.9,9,0.0
HHS Region 3,2 wk ahead,Bin,percent,9,9.1,0.0
HHS Region 3,2 wk ahead,Bin,percent,9.1,9.2,0.0
HHS Region 3,2 wk ahead,Bin,percent,9.2,9.3,0.0
HHS Region 3,2 wk ahead,Bin,percent,9.3,9.4,0.0
HHS Region 3,2 wk ahead,Bin,percent,9.4,9.5,0.0
HHS Region 3,2 wk ahead,Bin,percent,9.5,9.6,0.0
HHS Region 3,2 wk ahead,Bin,percent,9.6,9.7,0.0
HHS Region 3,2 wk ahead,Bin,percent,9.7,9.8,0.0
HHS Region 3,2 wk ahead,Bin,percent,9.8,9.9,0.0
HHS Region 3,2 wk ahead,Bin,percent,9.9,10,0.0
HHS Region 3,2 wk ahead,Bin,percent,10,10.1,0.0
HHS Region 3,2 wk ahead,Bin,percent,10.1,10.2,0.0
HHS Region 3,2 wk ahead,Bin,percent,10.2,10.3,0.0
HHS Region 3,2 wk ahead,Bin,percent,10.3,10.4,0.0
HHS Region 3,2 wk ahead,Bin,percent,10.4,10.5,0.0
HHS Region 3,2 wk ahead,Bin,percent,10.5,10.6,0.0
HHS Region 3,2 wk ahead,Bin,percent,10.6,10.7,0.0
HHS Region 3,2 wk ahead,Bin,percent,10.7,10.8,0.0
HHS Region 3,2 wk ahead,Bin,percent,10.8,10.9,0.0
HHS Region 3,2 wk ahead,Bin,percent,10.9,11,0.0
HHS Region 3,2 wk ahead,Bin,percent,11,11.1,0.0
HHS Region 3,2 wk ahead,Bin,percent,11.1,11.2,0.0
HHS Region 3,2 wk ahead,Bin,percent,11.2,11.3,0.0
HHS Region 3,2 wk ahead,Bin,percent,11.3,11.4,0.0
HHS Region 3,2 wk ahead,Bin,percent,11.4,11.5,0.0
HHS Region 3,2 wk ahead,Bin,percent,11.5,11.6,0.0
HHS Region 3,2 wk ahead,Bin,percent,11.6,11.7,0.0
HHS Region 3,2 wk ahead,Bin,percent,11.7,11.8,0.0
HHS Region 3,2 wk ahead,Bin,percent,11.8,11.9,0.0
HHS Region 3,2 wk ahead,Bin,percent,11.9,12,0.0
HHS Region 3,2 wk ahead,Bin,percent,12,12.1,0.0
HHS Region 3,2 wk ahead,Bin,percent,12.1,12.2,0.0
HHS Region 3,2 wk ahead,Bin,percent,12.2,12.3,0.0
HHS Region 3,2 wk ahead,Bin,percent,12.3,12.4,0.0
HHS Region 3,2 wk ahead,Bin,percent,12.4,12.5,0.0
HHS Region 3,2 wk ahead,Bin,percent,12.5,12.6,0.0
HHS Region 3,2 wk ahead,Bin,percent,12.6,12.7,0.0
HHS Region 3,2 wk ahead,Bin,percent,12.7,12.8,0.0
HHS Region 3,2 wk ahead,Bin,percent,12.8,12.9,0.0
HHS Region 3,2 wk ahead,Bin,percent,12.9,13,0.0
HHS Region 3,2 wk ahead,Bin,percent,13,100,0.0
HHS Region 3,3 wk ahead,Point,percent,,,1.5
HHS Region 3,3 wk ahead,Bin,percent,0,0.1,0.007633588
HHS Region 3,3 wk ahead,Bin,percent,0.1,0.2,0.0
HHS Region 3,3 wk ahead,Bin,percent,0.2,0.3,0.0
HHS Region 3,3 wk ahead,Bin,percent,0.3,0.4,0.0
HHS Region 3,3 wk ahead,Bin,percent,0.4,0.5,0.0
HHS Region 3,3 wk ahead,Bin,percent,0.5,0.6,0.0
HHS Region 3,3 wk ahead,Bin,percent,0.6,0.7,0.0
HHS Region 3,3 wk ahead,Bin,percent,0.7,0.8,0.0
HHS Region 3,3 wk ahead,Bin,percent,0.8,0.9,0.0
HHS Region 3,3 wk ahead,Bin,percent,0.9,1,0.0
HHS Region 3,3 wk ahead,Bin,percent,1,1.1,0.0
HHS Region 3,3 wk ahead,Bin,percent,1.1,1.2,0.0
HHS Region 3,3 wk ahead,Bin,percent,1.2,1.3,0.0
HHS Region 3,3 wk ahead,Bin,percent,1.3,1.4,0.0
HHS Region 3,3 wk ahead,Bin,percent,1.4,1.5,0.0
HHS Region 3,3 wk ahead,Bin,percent,1.5,1.6,0.0
HHS Region 3,3 wk ahead,Bin,percent,1.6,1.7,3.49943660589e-302
HHS Region 3,3 wk ahead,Bin,percent,1.7,1.8,8.08178597491e-226
HHS Region 3,3 wk ahead,Bin,percent,1.8,1.9,1.21280018674e-160
HHS Region 3,3 wk ahead,Bin,percent,1.9,2,1.19509770906e-106
HHS Region 3,3 wk ahead,Bin,percent,2,2.1,7.87950350165e-64
HHS Region 3,3 wk ahead,Bin,percent,2.1,2.2,3.6134370784e-32
HHS Region 3,3 wk ahead,Bin,percent,2.2,2.3,1.27749403976e-11
HHS Region 3,3 wk ahead,Bin,percent,2.3,2.4,0.0556584929248
HHS Region 3,3 wk ahead,Bin,percent,2.4,2.5,0.944095963998
HHS Region 3,3 wk ahead,Bin,percent,2.5,2.6,0.000245543064177
HHS Region 3,3 wk ahead,Bin,percent,2.6,2.7,0.0
HHS Region 3,3 wk ahead,Bin,percent,2.7,2.8,0.0
HHS Region 3,3 wk ahead,Bin,percent,2.8,2.9,0.0
HHS Region 3,3 wk ahead,Bin,percent,2.9,3,0.0
HHS Region 3,3 wk ahead,Bin,percent,3,3.1,0.0
HHS Region 3,3 wk ahead,Bin,percent,3.1,3.2,0.0
HHS Region 3,3 wk ahead,Bin,percent,3.2,3.3,0.0
HHS Region 3,3 wk ahead,Bin,percent,3.3,3.4,0.0
HHS Region 3,3 wk ahead,Bin,percent,3.4,3.5,0.0
HHS Region 3,3 wk ahead,Bin,percent,3.5,3.6,0.0
HHS Region 3,3 wk ahead,Bin,percent,3.6,3.7,0.0
HHS Region 3,3 wk ahead,Bin,percent,3.7,3.8,0.0
HHS Region 3,3 wk ahead,Bin,percent,3.8,3.9,0.0
HHS Region 3,3 wk ahead,Bin,percent,3.9,4,0.0
HHS Region 3,3 wk ahead,Bin,percent,4,4.1,0.0
HHS Region 3,3 wk ahead,Bin,percent,4.1,4.2,0.0
HHS Region 3,3 wk ahead,Bin,percent,4.2,4.3,0.0
HHS Region 3,3 wk ahead,Bin,percent,4.3,4.4,0.0
HHS Region 3,3 wk ahead,Bin,percent,4.4,4.5,0.0
HHS Region 3,3 wk ahead,Bin,percent,4.5,4.6,0.0
HHS Region 3,3 wk ahead,Bin,percent,4.6,4.7,0.0
HHS Region 3,3 wk ahead,Bin,percent,4.7,4.8,0.0
HHS Region 3,3 wk ahead,Bin,percent,4.8,4.9,0.0
HHS Region 3,3 wk ahead,Bin,percent,4.9,5,0.0
HHS Region 3,3 wk ahead,Bin,percent,5,5.1,0.0
HHS Region 3,3 wk ahead,Bin,percent,5.1,5.2,0.0
HHS Region 3,3 wk ahead,Bin,percent,5.2,5.3,0.0
HHS Region 3,3 wk ahead,Bin,percent,5.3,5.4,0.0
HHS Region 3,3 wk ahead,Bin,percent,5.4,5.5,0.0
HHS Region 3,3 wk ahead,Bin,percent,5.5,5.6,0.0
HHS Region 3,3 wk ahead,Bin,percent,5.6,5.7,0.0
HHS Region 3,3 wk ahead,Bin,percent,5.7,5.8,0.0
HHS Region 3,3 wk ahead,Bin,percent,5.8,5.9,0.0
HHS Region 3,3 wk ahead,Bin,percent,5.9,6,0.0
HHS Region 3,3 wk ahead,Bin,percent,6,6.1,0.0
HHS Region 3,3 wk ahead,Bin,percent,6.1,6.2,0.0
HHS Region 3,3 wk ahead,Bin,percent,6.2,6.3,0.0
HHS Region 3,3 wk ahead,Bin,percent,6.3,6.4,0.0
HHS Region 3,3 wk ahead,Bin,percent,6.4,6.5,0.0
HHS Region 3,3 wk ahead,Bin,percent,6.5,6.6,0.0
HHS Region 3,3 wk ahead,Bin,percent,6.6,6.7,0.0
HHS Region 3,3 wk ahead,Bin,percent,6.7,6.8,0.0
HHS Region 3,3 wk ahead,Bin,percent,6.8,6.9,0.0
HHS Region 3,3 wk ahead,Bin,percent,6.9,7,0.0
HHS Region 3,3 wk ahead,Bin,percent,7,7.1,0.0
HHS Region 3,3 wk ahead,Bin,percent,7.1,7.2,0.0
HHS Region 3,3 wk ahead,Bin,percent,7.2,7.3,0.0
HHS Region 3,3 wk ahead,Bin,percent,7.3,7.4,0.0
HHS Region 3,3 wk ahead,Bin,percent,7.4,7.5,0.0
HHS Region 3,3 wk ahead,Bin,percent,7.5,7.6,0.0
HHS Region 3,3 wk ahead,Bin,percent,7.6,7.7,0.0
HHS Region 3,3 wk ahead,Bin,percent,7.7,7.8,0.0
HHS Region 3,3 wk ahead,Bin,percent,7.8,7.9,0.0
HHS Region 3,3 wk ahead,Bin,percent,7.9,8,0.0
HHS Region 3,3 wk ahead,Bin,percent,8,8.1,0.0
HHS Region 3,3 wk ahead,Bin,percent,8.1,8.2,0.0
HHS Region 3,3 wk ahead,Bin,percent,8.2,8.3,0.0
HHS Region 3,3 wk ahead,Bin,percent,8.3,8.4,0.0
HHS Region 3,3 wk ahead,Bin,percent,8.4,8.5,0.0
HHS Region 3,3 wk ahead,Bin,percent,8.5,8.6,0.0
HHS Region 3,3 wk ahead,Bin,percent,8.6,8.7,0.0
HHS Region 3,3 wk ahead,Bin,percent,8.7,8.8,0.0
HHS Region 3,3 wk ahead,Bin,percent,8.8,8.9,0.0
HHS Region 3,3 wk ahead,Bin,percent,8.9,9,0.0
HHS Region 3,3 wk ahead,Bin,percent,9,9.1,0.0
HHS Region 3,3 wk ahead,Bin,percent,9.1,9.2,0.0
HHS Region 3,3 wk ahead,Bin,percent,9.2,9.3,0.0
HHS Region 3,3 wk ahead,Bin,percent,9.3,9.4,0.0
HHS Region 3,3 wk ahead,Bin,percent,9.4,9.5,0.0
HHS Region 3,3 wk ahead,Bin,percent,9.5,9.6,0.0
HHS Region 3,3 wk ahead,Bin,percent,9.6,9.7,0.0
HHS Region 3,3 wk ahead,Bin,percent,9.7,9.8,0.0
HHS Region 3,3 wk ahead,Bin,percent,9.8,9.9,0.0
HHS Region 3,3 wk ahead,Bin,percent,9.9,10,0.0
HHS Region 3,3 wk ahead,Bin,percent,10,10.1,0.0
HHS Region 3,3 wk ahead,Bin,percent,10.1,10.2,0.0
HHS Region 3,3 wk ahead,Bin,percent,10.2,10.3,0.0
HHS Region 3,3 wk ahead,Bin,percent,10.3,10.4,0.0
HHS Region 3,3 wk ahead,Bin,percent,10.4,10.5,0.0
HHS Region 3,3 wk ahead,Bin,percent,10.5,10.6,0.0
HHS Region 3,3 wk ahead,Bin,percent,10.6,10.7,0.0
HHS Region 3,3 wk ahead,Bin,percent,10.7,10.8,0.0
HHS Region 3,3 wk ahead,Bin,percent,10.8,10.9,0.0
HHS Region 3,3 wk ahead,Bin,percent,10.9,11,0.0
HHS Region 3,3 wk ahead,Bin,percent,11,11.1,0.0
HHS Region 3,3 wk ahead,Bin,percent,11.1,11.2,0.0
HHS Region 3,3 wk ahead,Bin,percent,11.2,11.3,0.0
HHS Region 3,3 wk ahead,Bin,percent,11.3,11.4,0.0
HHS Region 3,3 wk ahead,Bin,percent,11.4,11.5,0.0
HHS Region 3,3 wk ahead,Bin,percent,11.5,11.6,0.0
HHS Region 3,3 wk ahead,Bin,percent,11.6,11.7,0.0
HHS Region 3,3 wk ahead,Bin,percent,11.7,11.8,0.0
HHS Region 3,3 wk ahead,Bin,percent,11.8,11.9,0.0
HHS Region 3,3 wk ahead,Bin,percent,11.9,12,0.0
HHS Region 3,3 wk ahead,Bin,percent,12,12.1,0.0
HHS Region 3,3 wk ahead,Bin,percent,12.1,12.2,0.0
HHS Region 3,3 wk ahead,Bin,percent,12.2,12.3,0.0
HHS Region 3,3 wk ahead,Bin,percent,12.3,12.4,0.0
HHS Region 3,3 wk ahead,Bin,percent,12.4,12.5,0.0
HHS Region 3,3 wk ahead,Bin,percent,12.5,12.6,0.0
HHS Region 3,3 wk ahead,Bin,percent,12.6,12.7,0.0
HHS Region 3,3 wk ahead,Bin,percent,12.7,12.8,0.0
HHS Region 3,3 wk ahead,Bin,percent,12.8,12.9,0.0
HHS Region 3,3 wk ahead,Bin,percent,12.9,13,0.0
HHS Region 3,3 wk ahead,Bin,percent,13,100,0.0
HHS Region 3,4 wk ahead,Point,percent,,,1.5
HHS Region 3,4 wk ahead,Bin,percent,0,0.1,0.007633588
HHS Region 3,4 wk ahead,Bin,percent,0.1,0.2,0.0
HHS Region 3,4 wk ahead,Bin,percent,0.2,0.3,0.0
HHS Region 3,4 wk ahead,Bin,percent,0.3,0.4,0.0
HHS Region 3,4 wk ahead,Bin,percent,0.4,0.5,0.0
HHS Region 3,4 wk ahead,Bin,percent,0.5,0.6,0.0
HHS Region 3,4 wk ahead,Bin,percent,0.6,0.7,0.0
HHS Region 3,4 wk ahead,Bin,percent,0.7,0.8,0.0
HHS Region 3,4 wk ahead,Bin,percent,0.8,0.9,0.0
HHS Region 3,4 wk ahead,Bin,percent,0.9,1,0.0
HHS Region 3,4 wk ahead,Bin,percent,1,1.1,0.0
HHS Region 3,4 wk ahead,Bin,percent,1.1,1.2,0.0
HHS Region 3,4 wk ahead,Bin,percent,1.2,1.3,0.0
HHS Region 3,4 wk ahead,Bin,percent,1.3,1.4,0.0
HHS Region 3,4 wk ahead,Bin,percent,1.4,1.5,0.0
HHS Region 3,4 wk ahead,Bin,percent,1.5,1.6,0.0
HHS Region 3,4 wk ahead,Bin,percent,1.6,1.7,0.0
HHS Region 3,4 wk ahead,Bin,percent,1.7,1.8,0.0
HHS Region 3,4 wk ahead,Bin,percent,1.8,1.9,0.0
HHS Region 3,4 wk ahead,Bin,percent,1.9,2,6.10602400958e-275
HHS Region 3,4 wk ahead,Bin,percent,2,2.1,4.54337566111e-203
HHS Region 3,4 wk ahead,Bin,percent,2.1,2.2,3.71859381513e-142
HHS Region 3,4 wk ahead,Bin,percent,2.2,2.3,3.38865496449e-92
HHS Region 3,4 wk ahead,Bin,percent,2.3,2.4,3.51603376306e-53
HHS Region 3,4 wk ahead,Bin,percent,2.4,2.5,4.36165375338e-25
HHS Region 3,4 wk ahead,Bin,percent,2.5,2.6,7.46438011134e-08
HHS Region 3,4 wk ahead,Bin,percent,2.6,2.7,0.41004383319
HHS Region 3,4 wk ahead,Bin,percent,2.7,2.8,0.589955293162
HHS Region 3,4 wk ahead,Bin,percent,2.8,2.9,7.9900473926e-07
HHS Region 3,4 wk ahead,Bin,percent,2.9,3,0.0
HHS Region 3,4 wk ahead,Bin,percent,3,3.1,0.0
HHS Region 3,4 wk ahead,Bin,percent,3.1,3.2,0.0
HHS Region 3,4 wk ahead,Bin,percent,3.2,3.3,0.0
HHS Region 3,4 wk ahead,Bin,percent,3.3,3.4,0.0
HHS Region 3,4 wk ahead,Bin,percent,3.4,3.5,0.0
HHS Region 3,4 wk ahead,Bin,percent,3.5,3.6,0.0
HHS Region 3,4 wk ahead,Bin,percent,3.6,3.7,0.0
HHS Region 3,4 wk ahead,Bin,percent,3.7,3.8,0.0
HHS Region 3,4 wk ahead,Bin,percent,3.8,3.9,0.0
HHS Region 3,4 wk ahead,Bin,percent,3.9,4,0.0
HHS Region 3,4 wk ahead,Bin,percent,4,4.1,0.0
HHS Region 3,4 wk ahead,Bin,percent,4.1,4.2,0.0
HHS Region 3,4 wk ahead,Bin,percent,4.2,4.3,0.0
HHS Region 3,4 wk ahead,Bin,percent,4.3,4.4,0.0
HHS Region 3,4 wk ahead,Bin,percent,4.4,4.5,0.0
HHS Region 3,4 wk ahead,Bin,percent,4.5,4.6,0.0
HHS Region 3,4 wk ahead,Bin,percent,4.6,4.7,0.0
HHS Region 3,4 wk ahead,Bin,percent,4.7,4.8,0.0
HHS Region 3,4 wk ahead,Bin,percent,4.8,4.9,0.0
HHS Region 3,4 wk ahead,Bin,percent,4.9,5,0.0
HHS Region 3,4 wk ahead,Bin,percent,5,5.1,0.0
HHS Region 3,4 wk ahead,Bin,percent,5.1,5.2,0.0
HHS Region 3,4 wk ahead,Bin,percent,5.2,5.3,0.0
HHS Region 3,4 wk ahead,Bin,percent,5.3,5.4,0.0
HHS Region 3,4 wk ahead,Bin,percent,5.4,5.5,0.0
HHS Region 3,4 wk ahead,Bin,percent,5.5,5.6,0.0
HHS Region 3,4 wk ahead,Bin,percent,5.6,5.7,0.0
HHS Region 3,4 wk ahead,Bin,percent,5.7,5.8,0.0
HHS Region 3,4 wk ahead,Bin,percent,5.8,5.9,0.0
HHS Region 3,4 wk ahead,Bin,percent,5.9,6,0.0
HHS Region 3,4 wk ahead,Bin,percent,6,6.1,0.0
HHS Region 3,4 wk ahead,Bin,percent,6.1,6.2,0.0
HHS Region 3,4 wk ahead,Bin,percent,6.2,6.3,0.0
HHS Region 3,4 wk ahead,Bin,percent,6.3,6.4,0.0
HHS Region 3,4 wk ahead,Bin,percent,6.4,6.5,0.0
HHS Region 3,4 wk ahead,Bin,percent,6.5,6.6,0.0
HHS Region 3,4 wk ahead,Bin,percent,6.6,6.7,0.0
HHS Region 3,4 wk ahead,Bin,percent,6.7,6.8,0.0
HHS Region 3,4 wk ahead,Bin,percent,6.8,6.9,0.0
HHS Region 3,4 wk ahead,Bin,percent,6.9,7,0.0
HHS Region 3,4 wk ahead,Bin,percent,7,7.1,0.0
HHS Region 3,4 wk ahead,Bin,percent,7.1,7.2,0.0
HHS Region 3,4 wk ahead,Bin,percent,7.2,7.3,0.0
HHS Region 3,4 wk ahead,Bin,percent,7.3,7.4,0.0
HHS Region 3,4 wk ahead,Bin,percent,7.4,7.5,0.0
HHS Region 3,4 wk ahead,Bin,percent,7.5,7.6,0.0
HHS Region 3,4 wk ahead,Bin,percent,7.6,7.7,0.0
HHS Region 3,4 wk ahead,Bin,percent,7.7,7.8,0.0
HHS Region 3,4 wk ahead,Bin,percent,7.8,7.9,0.0
HHS Region 3,4 wk ahead,Bin,percent,7.9,8,0.0
HHS Region 3,4 wk ahead,Bin,percent,8,8.1,0.0
HHS Region 3,4 wk ahead,Bin,percent,8.1,8.2,0.0
HHS Region 3,4 wk ahead,Bin,percent,8.2,8.3,0.0
HHS Region 3,4 wk ahead,Bin,percent,8.3,8.4,0.0
HHS Region 3,4 wk ahead,Bin,percent,8.4,8.5,0.0
HHS Region 3,4 wk ahead,Bin,percent,8.5,8.6,0.0
HHS Region 3,4 wk ahead,Bin,percent,8.6,8.7,0.0
HHS Region 3,4 wk ahead,Bin,percent,8.7,8.8,0.0
HHS Region 3,4 wk ahead,Bin,percent,8.8,8.9,0.0
HHS Region 3,4 wk ahead,Bin,percent,8.9,9,0.0
HHS Region 3,4 wk ahead,Bin,percent,9,9.1,0.0
HHS Region 3,4 wk ahead,Bin,percent,9.1,9.2,0.0
HHS Region 3,4 wk ahead,Bin,percent,9.2,9.3,0.0
HHS Region 3,4 wk ahead,Bin,percent,9.3,9.4,0.0
HHS Region 3,4 wk ahead,Bin,percent,9.4,9.5,0.0
HHS Region 3,4 wk ahead,Bin,percent,9.5,9.6,0.0
HHS Region 3,4 wk ahead,Bin,percent,9.6,9.7,0.0
HHS Region 3,4 wk ahead,Bin,percent,9.7,9.8,0.0
HHS Region 3,4 wk ahead,Bin,percent,9.8,9.9,0.0
HHS Region 3,4 wk ahead,Bin,percent,9.9,10,0.0
HHS Region 3,4 wk ahead,Bin,percent,10,10.1,0.0
HHS Region 3,4 wk ahead,Bin,percent,10.1,10.2,0.0
HHS Region 3,4 wk ahead,Bin,percent,10.2,10.3,0.0
HHS Region 3,4 wk ahead,Bin,percent,10.3,10.4,0.0
HHS Region 3,4 wk ahead,Bin,percent,10.4,10.5,0.0
HHS Region 3,4 wk ahead,Bin,percent,10.5,10.6,0.0
HHS Region 3,4 wk ahead,Bin,percent,10.6,10.7,0.0
HHS Region 3,4 wk ahead,Bin,percent,10.7,10.8,0.0
HHS Region 3,4 wk ahead,Bin,percent,10.8,10.9,0.0
HHS Region 3,4 wk ahead,Bin,percent,10.9,11,0.0
HHS Region 3,4 wk ahead,Bin,percent,11,11.1,0.0
HHS Region 3,4 wk ahead,Bin,percent,11.1,11.2,0.0
HHS Region 3,4 wk ahead,Bin,percent,11.2,11.3,0.0
HHS Region 3,4 wk ahead,Bin,percent,11.3,11.4,0.0
HHS Region 3,4 wk ahead,Bin,percent,11.4,11.5,0.0
HHS Region 3,4 wk ahead,Bin,percent,11.5,11.6,0.0
HHS Region 3,4 wk ahead,Bin,percent,11.6,11.7,0.0
HHS Region 3,4 wk ahead,Bin,percent,11.7,11.8,0.0
HHS Region 3,4 wk ahead,Bin,percent,11.8,11.9,0.0
HHS Region 3,4 wk ahead,Bin,percent,11.9,12,0.0
HHS Region 3,4 wk ahead,Bin,percent,12,12.1,0.0
HHS Region 3,4 wk ahead,Bin,percent,12.1,12.2,0.0
HHS Region 3,4 wk ahead,Bin,percent,12.2,12.3,0.0
HHS Region 3,4 wk ahead,Bin,percent,12.3,12.4,0.0
HHS Region 3,4 wk ahead,Bin,percent,12.4,12.5,0.0
HHS Region 3,4 wk ahead,Bin,percent,12.5,12.6,0.0
HHS Region 3,4 wk ahead,Bin,percent,12.6,12.7,0.0
HHS Region 3,4 wk ahead,Bin,percent,12.7,12.8,0.0
HHS Region 3,4 wk ahead,Bin,percent,12.8,12.9,0.0
HHS Region 3,4 wk ahead,Bin,percent,12.9,13,0.0
HHS Region 3,4 wk ahead,Bin,percent,13,100,0.0
