Location,Target,Type,Unit,Bin_start_incl,Bin_end_notincl,Value
HHS Region 7,Season onset,Point,week,,,51.0
HHS Region 7,Season onset,Bin,week,40,41,0.0
HHS Region 7,Season onset,Bin,week,41,42,0.0
HHS Region 7,Season onset,Bin,week,42,43,0.0
HHS Region 7,Season onset,Bin,week,43,44,0.0
HHS Region 7,Season onset,Bin,week,44,45,2.09046753928e-198
HHS Region 7,Season onset,Bin,week,45,46,4.97671607486e-82
HHS Region 7,Season onset,Bin,week,46,47,6.77202258771e-17
HHS Region 7,Season onset,Bin,week,47,48,0.995488280591
HHS Region 7,Season onset,Bin,week,48,49,0.00451171940904
HHS Region 7,Season onset,Bin,week,49,50,0.0
HHS Region 7,Season onset,Bin,week,50,51,0.0
HHS Region 7,Season onset,Bin,week,51,52,0.0
HHS Region 7,Season onset,Bin,week,52,53,0.0
HHS Region 7,Season onset,Bin,week,1,2,0.0
HHS Region 7,Season onset,Bin,week,2,3,0.0
HHS Region 7,Season onset,Bin,week,3,4,0.0
HHS Region 7,Season onset,Bin,week,4,5,0.0
HHS Region 7,Season onset,Bin,week,5,6,0.0
HHS Region 7,Season onset,Bin,week,6,7,0.0
HHS Region 7,Season onset,Bin,week,7,8,0.0
HHS Region 7,Season onset,Bin,week,8,9,0.0
HHS Region 7,Season onset,Bin,week,9,10,0.0
HHS Region 7,Season onset,Bin,week,10,11,0.0
HHS Region 7,Season onset,Bin,week,11,12,0.0
HHS Region 7,Season onset,Bin,week,12,13,0.0
HHS Region 7,Season onset,Bin,week,13,14,0.0
HHS Region 7,Season onset,Bin,week,14,15,0.0
HHS Region 7,Season onset,Bin,week,15,16,0.0
HHS Region 7,Season onset,Bin,week,16,17,0.0
HHS Region 7,Season onset,Bin,week,17,18,0.0
HHS Region 7,Season onset,Bin,week,18,19,0.0
HHS Region 7,Season onset,Bin,week,19,20,0.0
HHS Region 7,Season onset,Bin,week,20,21,0.029411765
HHS Region 7,Season onset,Bin,week,none,none,0.029411765
HHS Region 7,Season peak week,Point,week,,,51.0
HHS Region 7,Season peak week,Bin,week,40,41,0.0
HHS Region 7,Season peak week,Bin,week,41,42,0.0
HHS Region 7,Season peak week,Bin,week,42,43,0.0
HHS Region 7,Season peak week,Bin,week,43,44,0.0
HHS Region 7,Season peak week,Bin,week,44,45,0.0
HHS Region 7,Season peak week,Bin,week,45,46,0.0
HHS Region 7,Season peak week,Bin,week,46,47,0.0
HHS Region 7,Season peak week,Bin,week,47,48,8.03893692672e-274
HHS Region 7,Season peak week,Bin,week,48,49,5.38398596121e-182
HHS Region 7,Season peak week,Bin,week,49,50,5.06401798309e-109
HHS Region 7,Season peak week,Bin,week,50,51,6.94743689749e-55
HHS Region 7,Season peak week,Bin,week,51,52,1.5371769208e-19
HHS Region 7,Season peak week,Bin,week,52,53,0.00881360903413
HHS Region 7,Season peak week,Bin,week,1,2,0.991174137936
HHS Region 7,Season peak week,Bin,week,2,3,1.22530295251e-05
HHS Region 7,Season peak week,Bin,week,3,4,0.0
HHS Region 7,Season peak week,Bin,week,4,5,0.0
HHS Region 7,Season peak week,Bin,week,5,6,0.0
HHS Region 7,Season peak week,Bin,week,6,7,0.0
HHS Region 7,Season peak week,Bin,week,7,8,0.0
HHS Region 7,Season peak week,Bin,week,8,9,0.0
HHS Region 7,Season peak week,Bin,week,9,10,0.0
HHS Region 7,Season peak week,Bin,week,10,11,0.0
HHS Region 7,Season peak week,Bin,week,11,12,0.0
HHS Region 7,Season peak week,Bin,week,12,13,0.0
HHS Region 7,Season peak week,Bin,week,13,14,0.0
HHS Region 7,Season peak week,Bin,week,14,15,0.0
HHS Region 7,Season peak week,Bin,week,15,16,0.0
HHS Region 7,Season peak week,Bin,week,16,17,0.0
HHS Region 7,Season peak week,Bin,week,17,18,0.0
HHS Region 7,Season peak week,Bin,week,18,19,0.0
HHS Region 7,Season peak week,Bin,week,19,20,0.0
HHS Region 7,Season peak week,Bin,week,20,21,0.03030303
HHS Region 7,Season peak percentage,Point,percent,,,1.5
HHS Region 7,Season peak percentage,Bin,percent,0,0.1,0.007633588
HHS Region 7,Season peak percentage,Bin,percent,0.1,0.2,0.0
HHS Region 7,Season peak percentage,Bin,percent,0.2,0.3,0.0
HHS Region 7,Season peak percentage,Bin,percent,0.3,0.4,0.0
HHS Region 7,Season peak percentage,Bin,percent,0.4,0.5,0.0
HHS Region 7,Season peak percentage,Bin,percent,0.5,0.6,0.0
HHS Region 7,Season peak percentage,Bin,percent,0.6,0.7,0.0
HHS Region 7,Season peak percentage,Bin,percent,0.7,0.8,0.0
HHS Region 7,Season peak percentage,Bin,percent,0.8,0.9,0.0
HHS Region 7,Season peak percentage,Bin,percent,0.9,1,0.0
HHS Region 7,Season peak percentage,Bin,percent,1,1.1,0.0
HHS Region 7,Season peak percentage,Bin,percent,1.1,1.2,0.0
HHS Region 7,Season peak percentage,Bin,percent,1.2,1.3,0.0
HHS Region 7,Season peak percentage,Bin,percent,1.3,1.4,0.0
HHS Region 7,Season peak percentage,Bin,percent,1.4,1.5,0.0
HHS Region 7,Season peak percentage,Bin,percent,1.5,1.6,0.0
HHS Region 7,Season peak percentage,Bin,percent,1.6,1.7,0.0
HHS Region 7,Season peak percentage,Bin,percent,1.7,1.8,0.0
HHS Region 7,Season peak percentage,Bin,percent,1.8,1.9,0.0
HHS Region 7,Season peak percentage,Bin,percent,1.9,2,0.0
HHS Region 7,Season peak percentage,Bin,percent,2,2.1,0.0
HHS Region 7,Season peak percentage,Bin,percent,2.1,2.2,0.0
HHS Region 7,Season peak percentage,Bin,percent,2.2,2.3,0.0
HHS Region 7,Season peak percentage,Bin,percent,2.3,2.4,0.0
HHS Region 7,Season peak percentage,Bin,percent,2.4,2.5,0.0
HHS Region 7,Season peak percentage,Bin,percent,2.5,2.6,0.0
HHS Region 7,Season peak percentage,Bin,percent,2.6,2.7,0.0
HHS Region 7,Season peak percentage,Bin,percent,2.7,2.8,0.0
HHS Region 7,Season peak percentage,Bin,percent,2.8,2.9,0.0
HHS Region 7,Season peak percentage,Bin,percent,2.9,3,1.15810869693e-268
HHS Region 7,Season peak percentage,Bin,percent,3,3.1,1.28718515444e-193
HHS Region 7,Season peak percentage,Bin,percent,3.1,3.2,6.11102419479e-131
HHS Region 7,Season peak percentage,Bin,percent,3.2,3.3,1.25947820108e-80
HHS Region 7,Season peak percentage,Bin,percent,3.3,3.4,1.16362408498e-42
HHS Region 7,Season peak percentage,Bin,percent,3.4,3.5,5.21651741086e-17
HHS Region 7,Season peak percentage,Bin,percent,3.5,3.6,0.0015388616415
HHS Region 7,Season peak percentage,Bin,percent,3.6,3.7,0.989805225808
HHS Region 7,Season peak percentage,Bin,percent,3.7,3.8,0.00865591255015
HHS Region 7,Season peak percentage,Bin,percent,3.8,3.9,5.77315972805e-15
HHS Region 7,Season peak percentage,Bin,percent,3.9,4,0.0
HHS Region 7,Season peak percentage,Bin,percent,4,4.1,0.0
HHS Region 7,Season peak percentage,Bin,percent,4.1,4.2,0.0
HHS Region 7,Season peak percentage,Bin,percent,4.2,4.3,0.0
HHS Region 7,Season peak percentage,Bin,percent,4.3,4.4,0.0
HHS Region 7,Season peak percentage,Bin,percent,4.4,4.5,0.0
HHS Region 7,Season peak percentage,Bin,percent,4.5,4.6,0.0
HHS Region 7,Season peak percentage,Bin,percent,4.6,4.7,0.0
HHS Region 7,Season peak percentage,Bin,percent,4.7,4.8,0.0
HHS Region 7,Season peak percentage,Bin,percent,4.8,4.9,0.0
HHS Region 7,Season peak percentage,Bin,percent,4.9,5,0.0
HHS Region 7,Season peak percentage,Bin,percent,5,5.1,0.0
HHS Region 7,Season peak percentage,Bin,percent,5.1,5.2,0.0
HHS Region 7,Season peak percentage,Bin,percent,5.2,5.3,0.0
HHS Region 7,Season peak percentage,Bin,percent,5.3,5.4,0.0
HHS Region 7,Season peak percentage,Bin,percent,5.4,5.5,0.0
HHS Region 7,Season peak percentage,Bin,percent,5.5,5.6,0.0
HHS Region 7,Season peak percentage,Bin,percent,5.6,5.7,0.0
HHS Region 7,Season peak percentage,Bin,percent,5.7,5.8,0.0
HHS Region 7,Season peak percentage,Bin,percent,5.8,5.9,0.0
HHS Region 7,Season peak percentage,Bin,percent,5.9,6,0.0
HHS Region 7,Season peak percentage,Bin,percent,6,6.1,0.0
HHS Region 7,Season peak percentage,Bin,percent,6.1,6.2,0.0
HHS Region 7,Season peak percentage,Bin,percent,6.2,6.3,0.0
HHS Region 7,Season peak percentage,Bin,percent,6.3,6.4,0.0
HHS Region 7,Season peak percentage,Bin,percent,6.4,6.5,0.0
HHS Region 7,Season peak percentage,Bin,percent,6.5,6.6,0.0
HHS Region 7,Season peak percentage,Bin,percent,6.6,6.7,0.0
HHS Region 7,Season peak percentage,Bin,percent,6.7,6.8,0.0
HHS Region 7,Season peak percentage,Bin,percent,6.8,6.9,0.0
HHS Region 7,Season peak percentage,Bin,percent,6.9,7,0.0
HHS Region 7,Season peak percentage,Bin,percent,7,7.1,0.0
HHS Region 7,Season peak percentage,Bin,percent,7.1,7.2,0.0
HHS Region 7,Season peak percentage,Bin,percent,7.2,7.3,0.0
HHS Region 7,Season peak percentage,Bin,percent,7.3,7.4,0.0
HHS Region 7,Season peak percentage,Bin,percent,7.4,7.5,0.0
HHS Region 7,Season peak percentage,Bin,percent,7.5,7.6,0.0
HHS Region 7,Season peak percentage,Bin,percent,7.6,7.7,0.0
HHS Region 7,Season peak percentage,Bin,percent,7.7,7.8,0.0
HHS Region 7,Season peak percentage,Bin,percent,7.8,7.9,0.0
HHS Region 7,Season peak percentage,Bin,percent,7.9,8,0.0
HHS Region 7,Season peak percentage,Bin,percent,8,8.1,0.0
HHS Region 7,Season peak percentage,Bin,percent,8.1,8.2,0.0
HHS Region 7,Season peak percentage,Bin,percent,8.2,8.3,0.0
HHS Region 7,Season peak percentage,Bin,percent,8.3,8.4,0.0
HHS Region 7,Season peak percentage,Bin,percent,8.4,8.5,0.0
HHS Region 7,Season peak percentage,Bin,percent,8.5,8.6,0.0
HHS Region 7,Season peak percentage,Bin,percent,8.6,8.7,0.0
HHS Region 7,Season peak percentage,Bin,percent,8.7,8.8,0.0
HHS Region 7,Season peak percentage,Bin,percent,8.8,8.9,0.0
HHS Region 7,Season peak percentage,Bin,percent,8.9,9,0.0
HHS Region 7,Season peak percentage,Bin,percent,9,9.1,0.0
HHS Region 7,Season peak percentage,Bin,percent,9.1,9.2,0.0
HHS Region 7,Season peak percentage,Bin,percent,9.2,9.3,0.0
HHS Region 7,Season peak percentage,Bin,percent,9.3,9.4,0.0
HHS Region 7,Season peak percentage,Bin,percent,9.4,9.5,0.0
HHS Region 7,Season peak percentage,Bin,percent,9.5,9.6,0.0
HHS Region 7,Season peak percentage,Bin,percent,9.6,9.7,0.0
HHS Region 7,Season peak percentage,Bin,percent,9.7,9.8,0.0
HHS Region 7,Season peak percentage,Bin,percent,9.8,9.9,0.0
HHS Region 7,Season peak percentage,Bin,percent,9.9,10,0.0
HHS Region 7,Season peak percentage,Bin,percent,10,10.1,0.0
HHS Region 7,Season peak percentage,Bin,percent,10.1,10.2,0.0
HHS Region 7,Season peak percentage,Bin,percent,10.2,10.3,0.0
HHS Region 7,Season peak percentage,Bin,percent,10.3,10.4,0.0
HHS Region 7,Season peak percentage,Bin,percent,10.4,10.5,0.0
HHS Region 7,Season peak percentage,Bin,percent,10.5,10.6,0.0
HHS Region 7,Season peak percentage,Bin,percent,10.6,10.7,0.0
HHS Region 7,Season peak percentage,Bin,percent,10.7,10.8,0.0
HHS Region 7,Season peak percentage,Bin,percent,10.8,10.9,0.0
HHS Region 7,Season peak percentage,Bin,percent,10.9,11,0.0
HHS Region 7,Season peak percentage,Bin,percent,11,11.1,0.0
HHS Region 7,Season peak percentage,Bin,percent,11.1,11.2,0.0
HHS Region 7,Season peak percentage,Bin,percent,11.2,11.3,0.0
HHS Region 7,Season peak percentage,Bin,percent,11.3,11.4,0.0
HHS Region 7,Season peak percentage,Bin,percent,11.4,11.5,0.0
HHS Region 7,Season peak percentage,Bin,percent,11.5,11.6,0.0
HHS Region 7,Season peak percentage,Bin,percent,11.6,11.7,0.0
HHS Region 7,Season peak percentage,Bin,percent,11.7,11.8,0.0
HHS Region 7,Season peak percentage,Bin,percent,11.8,11.9,0.0
HHS Region 7,Season peak percentage,Bin,percent,11.9,12,0.0
HHS Region 7,Season peak percentage,Bin,percent,12,12.1,0.0
HHS Region 7,Season peak percentage,Bin,percent,12.1,12.2,0.0
HHS Region 7,Season peak percentage,Bin,percent,12.2,12.3,0.0
HHS Region 7,Season peak percentage,Bin,percent,12.3,12.4,0.0
HHS Region 7,Season peak percentage,Bin,percent,12.4,12.5,0.0
HHS Region 7,Season peak percentage,Bin,percent,12.5,12.6,0.0
HHS Region 7,Season peak percentage,Bin,percent,12.6,12.7,0.0
HHS Region 7,Season peak percentage,Bin,percent,12.7,12.8,0.0
HHS Region 7,Season peak percentage,Bin,percent,12.8,12.9,0.0
HHS Region 7,Season peak percentage,Bin,percent,12.9,13,0.0
HHS Region 7,Season peak percentage,Bin,percent,13,100,0.0
HHS Region 7,1 wk ahead,Point,percent,,,1.5
HHS Region 7,1 wk ahead,Bin,percent,0,0.1,0.007633588
HHS Region 7,1 wk ahead,Bin,percent,0.1,0.2,0.0
HHS Region 7,1 wk ahead,Bin,percent,0.2,0.3,0.0
HHS Region 7,1 wk ahead,Bin,percent,0.3,0.4,0.0
HHS Region 7,1 wk ahead,Bin,percent,0.4,0.5,0.0
HHS Region 7,1 wk ahead,Bin,percent,0.5,0.6,0.0
HHS Region 7,1 wk ahead,Bin,percent,0.6,0.7,0.0
HHS Region 7,1 wk ahead,Bin,percent,0.7,0.8,0.0
HHS Region 7,1 wk ahead,Bin,percent,0.8,0.9,0.0
HHS Region 7,1 wk ahead,Bin,percent,0.9,1,0.0
HHS Region 7,1 wk ahead,Bin,percent,1,1.1,0.0
HHS Region 7,1 wk ahead,Bin,percent,1.1,1.2,0.0
HHS Region 7,1 wk ahead,Bin,percent,1.2,1.3,0.0
HHS Region 7,1 wk ahead,Bin,percent,1.3,1.4,0.0
HHS Region 7,1 wk ahead,Bin,percent,1.4,1.5,0.0
HHS Region 7,1 wk ahead,Bin,percent,1.5,1.6,0.0
HHS Region 7,1 wk ahead,Bin,percent,1.6,1.7,5.61369289492e-266
HHS Region 7,1 wk ahead,Bin,percent,1.7,1.8,1.90758664291e-174
HHS Region 7,1 wk ahead,Bin,percent,1.8,1.9,2.55303940751e-102
HHS Region 7,1 wk ahead,Bin,percent,1.9,2,1.4051084435e-49
HHS Region 7,1 wk ahead,Bin,percent,2,2.1,3.58997361506e-16
HHS Region 7,1 wk ahead,Bin,percent,2.1,2.2,0.0839894223599
HHS Region 7,1 wk ahead,Bin,percent,2.2,2.3,0.916010522817
HHS Region 7,1 wk ahead,Bin,percent,2.3,2.4,5.4823161344e-08
HHS Region 7,1 wk ahead,Bin,percent,2.4,2.5,0.0
HHS Region 7,1 wk ahead,Bin,percent,2.5,2.6,0.0
HHS Region 7,1 wk ahead,Bin,percent,2.6,2.7,0.0
HHS Region 7,1 wk ahead,Bin,percent,2.7,2.8,0.0
HHS Region 7,1 wk ahead,Bin,percent,2.8,2.9,0.0
HHS Region 7,1 wk ahead,Bin,percent,2.9,3,0.0
HHS Region 7,1 wk ahead,Bin,percent,3,3.1,0.0
HHS Region 7,1 wk ahead,Bin,percent,3.1,3.2,0.0
HHS Region 7,1 wk ahead,Bin,percent,3.2,3.3,0.0
HHS Region 7,1 wk ahead,Bin,percent,3.3,3.4,0.0
HHS Region 7,1 wk ahead,Bin,percent,3.4,3.5,0.0
HHS Region 7,1 wk ahead,Bin,percent,3.5,3.6,0.0
HHS Region 7,1 wk ahead,Bin,percent,3.6,3.7,0.0
HHS Region 7,1 wk ahead,Bin,percent,3.7,3.8,0.0
HHS Region 7,1 wk ahead,Bin,percent,3.8,3.9,0.0
HHS Region 7,1 wk ahead,Bin,percent,3.9,4,0.0
HHS Region 7,1 wk ahead,Bin,percent,4,4.1,0.0
HHS Region 7,1 wk ahead,Bin,percent,4.1,4.2,0.0
HHS Region 7,1 wk ahead,Bin,percent,4.2,4.3,0.0
HHS Region 7,1 wk ahead,Bin,percent,4.3,4.4,0.0
HHS Region 7,1 wk ahead,Bin,percent,4.4,4.5,0.0
HHS Region 7,1 wk ahead,Bin,percent,4.5,4.6,0.0
HHS Region 7,1 wk ahead,Bin,percent,4.6,4.7,0.0
HHS Region 7,1 wk ahead,Bin,percent,4.7,4.8,0.0
HHS Region 7,1 wk ahead,Bin,percent,4.8,4.9,0.0
HHS Region 7,1 wk ahead,Bin,percent,4.9,5,0.0
HHS Region 7,1 wk ahead,Bin,percent,5,5.1,0.0
HHS Region 7,1 wk ahead,Bin,percent,5.1,5.2,0.0
HHS Region 7,1 wk ahead,Bin,percent,5.2,5.3,0.0
HHS Region 7,1 wk ahead,Bin,percent,5.3,5.4,0.0
HHS Region 7,1 wk ahead,Bin,percent,5.4,5.5,0.0
HHS Region 7,1 wk ahead,Bin,percent,5.5,5.6,0.0
HHS Region 7,1 wk ahead,Bin,percent,5.6,5.7,0.0
HHS Region 7,1 wk ahead,Bin,percent,5.7,5.8,0.0
HHS Region 7,1 wk ahead,Bin,percent,5.8,5.9,0.0
HHS Region 7,1 wk ahead,Bin,percent,5.9,6,0.0
HHS Region 7,1 wk ahead,Bin,percent,6,6.1,0.0
HHS Region 7,1 wk ahead,Bin,percent,6.1,6.2,0.0
HHS Region 7,1 wk ahead,Bin,percent,6.2,6.3,0.0
HHS Region 7,1 wk ahead,Bin,percent,6.3,6.4,0.0
HHS Region 7,1 wk ahead,Bin,percent,6.4,6.5,0.0
HHS Region 7,1 wk ahead,Bin,percent,6.5,6.6,0.0
HHS Region 7,1 wk ahead,Bin,percent,6.6,6.7,0.0
HHS Region 7,1 wk ahead,Bin,percent,6.7,6.8,0.0
HHS Region 7,1 wk ahead,Bin,percent,6.8,6.9,0.0
HHS Region 7,1 wk ahead,Bin,percent,6.9,7,0.0
HHS Region 7,1 wk ahead,Bin,percent,7,7.1,0.0
HHS Region 7,1 wk ahead,Bin,percent,7.1,7.2,0.0
HHS Region 7,1 wk ahead,Bin,percent,7.2,7.3,0.0
HHS Region 7,1 wk ahead,Bin,percent,7.3,7.4,0.0
HHS Region 7,1 wk ahead,Bin,percent,7.4,7.5,0.0
HHS Region 7,1 wk ahead,Bin,percent,7.5,7.6,0.0
HHS Region 7,1 wk ahead,Bin,percent,7.6,7.7,0.0
HHS Region 7,1 wk ahead,Bin,percent,7.7,7.8,0.0
HHS Region 7,1 wk ahead,Bin,percent,7.8,7.9,0.0
HHS Region 7,1 wk ahead,Bin,percent,7.9,8,0.0
HHS Region 7,1 wk ahead,Bin,percent,8,8.1,0.0
HHS Region 7,1 wk ahead,Bin,percent,8.1,8.2,0.0
HHS Region 7,1 wk ahead,Bin,percent,8.2,8.3,0.0
HHS Region 7,1 wk ahead,Bin,percent,8.3,8.4,0.0
HHS Region 7,1 wk ahead,Bin,percent,8.4,8.5,0.0
HHS Region 7,1 wk ahead,Bin,percent,8.5,8.6,0.0
HHS Region 7,1 wk ahead,Bin,percent,8.6,8.7,0.0
HHS Region 7,1 wk ahead,Bin,percent,8.7,8.8,0.0
HHS Region 7,1 wk ahead,Bin,percent,8.8,8.9,0.0
HHS Region 7,1 wk ahead,Bin,percent,8.9,9,0.0
HHS Region 7,1 wk ahead,Bin,percent,9,9.1,0.0
HHS Region 7,1 wk ahead,Bin,percent,9.1,9.2,0.0
HHS Region 7,1 wk ahead,Bin,percent,9.2,9.3,0.0
HHS Region 7,1 wk ahead,Bin,percent,9.3,9.4,0.0
HHS Region 7,1 wk ahead,Bin,percent,9.4,9.5,0.0
HHS Region 7,1 wk ahead,Bin,percent,9.5,9.6,0.0
HHS Region 7,1 wk ahead,Bin,percent,9.6,9.7,0.0
HHS Region 7,1 wk ahead,Bin,percent,9.7,9.8,0.0
HHS Region 7,1 wk ahead,Bin,percent,9.8,9.9,0.0
HHS Region 7,1 wk ahead,Bin,percent,9.9,10,0.0
HHS Region 7,1 wk ahead,Bin,percent,10,10.1,0.0
HHS Region 7,1 wk ahead,Bin,percent,10.1,10.2,0.0
HHS Region 7,1 wk ahead,Bin,percent,10.2,10.3,0.0
HHS Region 7,1 wk ahead,Bin,percent,10.3,10.4,0.0
HHS Region 7,1 wk ahead,Bin,percent,10.4,10.5,0.0
HHS Region 7,1 wk ahead,Bin,percent,10.5,10.6,0.0
HHS Region 7,1 wk ahead,Bin,percent,10.6,10.7,0.0
HHS Region 7,1 wk ahead,Bin,percent,10.7,10.8,0.0
HHS Region 7,1 wk ahead,Bin,percent,10.8,10.9,0.0
HHS Region 7,1 wk ahead,Bin,percent,10.9,11,0.0
HHS Region 7,1 wk ahead,Bin,percent,11,11.1,0.0
HHS Region 7,1 wk ahead,Bin,percent,11.1,11.2,0.0
HHS Region 7,1 wk ahead,Bin,percent,11.2,11.3,0.0
HHS Region 7,1 wk ahead,Bin,percent,11.3,11.4,0.0
HHS Region 7,1 wk ahead,Bin,percent,11.4,11.5,0.0
HHS Region 7,1 wk ahead,Bin,percent,11.5,11.6,0.0
HHS Region 7,1 wk ahead,Bin,percent,11.6,11.7,0.0
HHS Region 7,1 wk ahead,Bin,percent,11.7,11.8,0.0
HHS Region 7,1 wk ahead,Bin,percent,11.8,11.9,0.0
HHS Region 7,1 wk ahead,Bin,percent,11.9,12,0.0
HHS Region 7,1 wk ahead,Bin,percent,12,12.1,0.0
HHS Region 7,1 wk ahead,Bin,percent,12.1,12.2,0.0
HHS Region 7,1 wk ahead,Bin,percent,12.2,12.3,0.0
HHS Region 7,1 wk ahead,Bin,percent,12.3,12.4,0.0
HHS Region 7,1 wk ahead,Bin,percent,12.4,12.5,0.0
HHS Region 7,1 wk ahead,Bin,percent,12.5,12.6,0.0
HHS Region 7,1 wk ahead,Bin,percent,12.6,12.7,0.0
HHS Region 7,1 wk ahead,Bin,percent,12.7,12.8,0.0
HHS Region 7,1 wk ahead,Bin,percent,12.8,12.9,0.0
HHS Region 7,1 wk ahead,Bin,percent,12.9,13,0.0
HHS Region 7,1 wk ahead,Bin,percent,13,100,0.0
HHS Region 7,2 wk ahead,Point,percent,,,1.5
HHS Region 7,2 wk ahead,Bin,percent,0,0.1,0.007633588
HHS Region 7,2 wk ahead,Bin,percent,0.1,0.2,0.0
HHS Region 7,2 wk ahead,Bin,percent,0.2,0.3,0.0
HHS Region 7,2 wk ahead,Bin,percent,0.3,0.4,0.0
HHS Region 7,2 wk ahead,Bin,percent,0.4,0.5,0.0
HHS Region 7,2 wk ahead,Bin,percent,0.5,0.6,0.0
HHS Region 7,2 wk ahead,Bin,percent,0.6,0.7,0.0
HHS Region 7,2 wk ahead,Bin,percent,0.7,0.8,0.0
HHS Region 7,2 wk ahead,Bin,percent,0.8,0.9,0.0
HHS Region 7,2 wk ahead,Bin,percent,0.9,1,0.0
HHS Region 7,2 wk ahead,Bin,percent,1,1.1,0.0
HHS Region 7,2 wk ahead,Bin,percent,1.1,1.2,0.0
HHS Region 7,2 wk ahead,Bin,percent,1.2,1.3,0.0
HHS Region 7,2 wk ahead,Bin,percent,1.3,1.4,0.0
HHS Region 7,2 wk ahead,Bin,percent,1.4,1.5,0.0
HHS Region 7,2 wk ahead,Bin,percent,1.5,1.6,0.0
HHS Region 7,2 wk ahead,Bin,percent,1.6,1.7,0.0
HHS Region 7,2 wk ahead,Bin,percent,1.7,1.8,0.0
HHS Region 7,2 wk ahead,Bin,percent,1.8,1.9,0.0
HHS Region 7,2 wk ahead,Bin,percent,1.9,2,1.99242315039e-249
HHS Region 7,2 wk ahead,Bin,percent,2,2.1,3.84342039636e-182
HHS Region 7,2 wk ahead,Bin,percent,2.1,2.2,1.6551215177e-125
HHS Region 7,2 wk ahead,Bin,percent,2.2,2.3,1.61345850429e-79
HHS Region 7,2 wk ahead,Bin,percent,2.3,2.4,3.65617221267e-44
HHS Region 7,2 wk ahead,Bin,percent,2.4,2.5,2.04716141098e-19
HHS Region 7,2 wk ahead,Bin,percent,2.5,2.6,3.45938549319e-05
HHS Region 7,2 wk ahead,Bin,percent,2.6,2.7,0.83549899178
HHS Region 7,2 wk ahead,Bin,percent,2.7,2.8,0.164466412865
HHS Region 7,2 wk ahead,Bin,percent,2.8,2.9,1.50004508814e-09
HHS Region 7,2 wk ahead,Bin,percent,2.9,3,0.0
HHS Region 7,2 wk ahead,Bin,percent,3,3.1,0.0
HHS Region 7,2 wk ahead,Bin,percent,3.1,3.2,0.0
HHS Region 7,2 wk ahead,Bin,percent,3.2,3.3,0.0
HHS Region 7,2 wk ahead,Bin,percent,3.3,3.4,0.0
HHS Region 7,2 wk ahead,Bin,percent,3.4,3.5,0.0
HHS Region 7,2 wk ahead,Bin,percent,3.5,3.6,0.0
HHS Region 7,2 wk ahead,Bin,percent,3.6,3.7,0.0
HHS Region 7,2 wk ahead,Bin,percent,3.7,3.8,0.0
HHS Region 7,2 wk ahead,Bin,percent,3.8,3.9,0.0
HHS Region 7,2 wk ahead,Bin,percent,3.9,4,0.0
HHS Region 7,2 wk ahead,Bin,percent,4,4.1,0.0
HHS Region 7,2 wk ahead,Bin,percent,4.1,4.2,0.0
HHS Region 7,2 wk ahead,Bin,percent,4.2,4.3,0.0
HHS Region 7,2 wk ahead,Bin,percent,4.3,4.4,0.0
HHS Region 7,2 wk ahead,Bin,percent,4.4,4.5,0.0
HHS Region 7,2 wk ahead,Bin,percent,4.5,4.6,0.0
HHS Region 7,2 wk ahead,Bin,percent,4.6,4.7,0.0
HHS Region 7,2 wk ahead,Bin,percent,4.7,4.8,0.0
HHS Region 7,2 wk ahead,Bin,percent,4.8,4.9,0.0
HHS Region 7,2 wk ahead,Bin,percent,4.9,5,0.0
HHS Region 7,2 wk ahead,Bin,percent,5,5.1,0.0
HHS Region 7,2 wk ahead,Bin,percent,5.1,5.2,0.0
HHS Region 7,2 wk ahead,Bin,percent,5.2,5.3,0.0
HHS Region 7,2 wk ahead,Bin,percent,5.3,5.4,0.0
HHS Region 7,2 wk ahead,Bin,percent,5.4,5.5,0.0
HHS Region 7,2 wk ahead,Bin,percent,5.5,5.6,0.0
HHS Region 7,2 wk ahead,Bin,percent,5.6,5.7,0.0
HHS Region 7,2 wk ahead,Bin,percent,5.7,5.8,0.0
HHS Region 7,2 wk ahead,Bin,percent,5.8,5.9,0.0
HHS Region 7,2 wk ahead,Bin,percent,5.9,6,0.0
HHS Region 7,2 wk ahead,Bin,percent,6,6.1,0.0
HHS Region 7,2 wk ahead,Bin,percent,6.1,6.2,0.0
HHS Region 7,2 wk ahead,Bin,percent,6.2,6.3,0.0
HHS Region 7,2 wk ahead,Bin,percent,6.3,6.4,0.0
HHS Region 7,2 wk ahead,Bin,percent,6.4,6.5,0.0
HHS Region 7,2 wk ahead,Bin,percent,6.5,6.6,0.0
HHS Region 7,2 wk ahead,Bin,percent,6.6,6.7,0.0
HHS Region 7,2 wk ahead,Bin,percent,6.7,6.8,0.0
HHS Region 7,2 wk ahead,Bin,percent,6.8,6.9,0.0
HHS Region 7,2 wk ahead,Bin,percent,6.9,7,0.0
HHS Region 7,2 wk ahead,Bin,percent,7,7.1,0.0
HHS Region 7,2 wk ahead,Bin,percent,7.1,7.2,0.0
HHS Region 7,2 wk ahead,Bin,percent,7.2,7.3,0.0
HHS Region 7,2 wk ahead,Bin,percent,7.3,7.4,0.0
HHS Region 7,2 wk ahead,Bin,percent,7.4,7.5,0.0
HHS Region 7,2 wk ahead,Bin,percent,7.5,7.6,0.0
HHS Region 7,2 wk ahead,Bin,percent,7.6,7.7,0.0
HHS Region 7,2 wk ahead,Bin,percent,7.7,7.8,0.0
HHS Region 7,2 wk ahead,Bin,percent,7.8,7.9,0.0
HHS Region 7,2 wk ahead,Bin,percent,7.9,8,0.0
HHS Region 7,2 wk ahead,Bin,percent,8,8.1,0.0
HHS Region 7,2 wk ahead,Bin,percent,8.1,8.2,0.0
HHS Region 7,2 wk ahead,Bin,percent,8.2,8.3,0.0
HHS Region 7,2 wk ahead,Bin,percent,8.3,8.4,0.0
HHS Region 7,2 wk ahead,Bin,percent,8.4,8.5,0.0
HHS Region 7,2 wk ahead,Bin,percent,8.5,8.6,0.0
HHS Region 7,2 wk ahead,Bin,percent,8.6,8.7,0.0
HHS Region 7,2 wk ahead,Bin,percent,8.7,8.8,0.0
HHS Region 7,2 wk ahead,Bin,percent,8.8,8.9,0.0
HHS Region 7,2 wk ahead,Bin,percent,8.9,9,0.0
HHS Region 7,2 wk ahead,Bin,percent,9,9.1,0.0
HHS Region 7,2 wk ahead,Bin,percent,9.1,9.2,0.0
HHS Region 7,2 wk ahead,Bin,percent,9.2,9.3,0.0
HHS Region 7,2 wk ahead,Bin,percent,9.3,9.4,0.0
HHS Region 7,2 wk ahead,Bin,percent,9.4,9.5,0.0
HHS Region 7,2 wk ahead,Bin,percent,9.5,9.6,0.0
HHS Region 7,2 wk ahead,Bin,percent,9.6,9.7,0.0
HHS Region 7,2 wk ahead,Bin,percent,9.7,9.8,0.0
HHS Region 7,2 wk ahead,Bin,percent,9.8,9.9,0.0
HHS Region 7,2 wk ahead,Bin,percent,9.9,10,0.0
HHS Region 7,2 wk ahead,Bin,percent,10,10.1,0.0
HHS Region 7,2 wk ahead,Bin,percent,10.1,10.2,0.0
HHS Region 7,2 wk ahead,Bin,percent,10.2,10.3,0.0
HHS Region 7,2 wk ahead,Bin,percent,10.3,10.4,0.0
HHS Region 7,2 wk ahead,Bin,percent,10.4,10.5,0.0
HHS Region 7,2 wk ahead,Bin,percent,10.5,10.6,0.0
HHS Region 7,2 wk ahead,Bin,percent,10.6,10.7,0.0
HHS Region 7,2 wk ahead,Bin,percent,10.7,10.8,0.0
HHS Region 7,2 wk ahead,Bin,percent,10.8,10.9,0.0
HHS Region 7,2 wk ahead,Bin,percent,10.9,11,0.0
HHS Region 7,2 wk ahead,Bin,percent,11,11.1,0.0
HHS Region 7,2 wk ahead,Bin,percent,11.1,11.2,0.0
HHS Region 7,2 wk ahead,Bin,percent,11.2,11.3,0.0
HHS Region 7,2 wk ahead,Bin,percent,11.3,11.4,0.0
HHS Region 7,2 wk ahead,Bin,percent,11.4,11.5,0.0
HHS Region 7,2 wk ahead,Bin,percent,11.5,11.6,0.0
HHS Region 7,2 wk ahead,Bin,percent,11.6,11.7,0.0
HHS Region 7,2 wk ahead,Bin,percent,11.7,11.8,0.0
HHS Region 7,2 wk ahead,Bin,percent,11.8,11.9,0.0
HHS Region 7,2 wk ahead,Bin,percent,11.9,12,0.0
HHS Region 7,2 wk ahead,Bin,percent,12,12.1,0.0
HHS Region 7,2 wk ahead,Bin,percent,12.1,12.2,0.0
HHS Region 7,2 wk ahead,Bin,percent,12.2,12.3,0.0
HHS Region 7,2 wk ahead,Bin,percent,12.3,12.4,0.0
HHS Region 7,2 wk ahead,Bin,percent,12.4,12.5,0.0
HHS Region 7,2 wk ahead,Bin,percent,12.5,12.6,0.0
HHS Region 7,2 wk ahead,Bin,percent,12.6,12.7,0.0
HHS Region 7,2 wk ahead,Bin,percent,12.7,12.8,0.0
HHS Region 7,2 wk ahead,Bin,percent,12.8,12.9,0.0
HHS Region 7,2 wk ahead,Bin,percent,12.9,13,0.0
HHS Region 7,2 wk ahead,Bin,percent,13,100,0.0
HHS Region 7,3 wk ahead,Point,percent,,,1.5
HHS Region 7,3 wk ahead,Bin,percent,0,0.1,0.007633588
HHS Region 7,3 wk ahead,Bin,percent,0.1,0.2,0.0
HHS Region 7,3 wk ahead,Bin,percent,0.2,0.3,0.0
HHS Region 7,3 wk ahead,Bin,percent,0.3,0.4,0.0
HHS Region 7,3 wk ahead,Bin,percent,0.4,0.5,0.0
HHS Region 7,3 wk ahead,Bin,percent,0.5,0.6,0.0
HHS Region 7,3 wk ahead,Bin,percent,0.6,0.7,0.0
HHS Region 7,3 wk ahead,Bin,percent,0.7,0.8,0.0
HHS Region 7,3 wk ahead,Bin,percent,0.8,0.9,0.0
HHS Region 7,3 wk ahead,Bin,percent,0.9,1,0.0
HHS Region 7,3 wk ahead,Bin,percent,1,1.1,0.0
HHS Region 7,3 wk ahead,Bin,percent,1.1,1.2,0.0
HHS Region 7,3 wk ahead,Bin,percent,1.2,1.3,0.0
HHS Region 7,3 wk ahead,Bin,percent,1.3,1.4,0.0
HHS Region 7,3 wk ahead,Bin,percent,1.4,1.5,0.0
HHS Region 7,3 wk ahead,Bin,percent,1.5,1.6,0.0
HHS Region 7,3 wk ahead,Bin,percent,1.6,1.7,0.0
HHS Region 7,3 wk ahead,Bin,percent,1.7,1.8,0.0
HHS Region 7,3 wk ahead,Bin,percent,1.8,1.9,0.0
HHS Region 7,3 wk ahead,Bin,percent,1.9,2,0.0
HHS Region 7,3 wk ahead,Bin,percent,2,2.1,0.0
HHS Region 7,3 wk ahead,Bin,percent,2.1,2.2,0.0
HHS Region 7,3 wk ahead,Bin,percent,2.2,2.3,2.14943206979e-297
HHS Region 7,3 wk ahead,Bin,percent,2.3,2.4,5.85678010486e-225
HHS Region 7,3 wk ahead,Bin,percent,2.4,2.5,1.07613246927e-162
HHS Region 7,3 wk ahead,Bin,percent,2.5,2.6,1.34541941377e-110
HHS Region 7,3 wk ahead,Bin,percent,2.6,2.7,1.16252878744e-68
HHS Region 7,3 wk ahead,Bin,percent,2.7,2.8,7.15805511221e-37
HHS Region 7,3 wk ahead,Bin,percent,2.8,2.9,3.38180248072e-15
HHS Region 7,3 wk ahead,Bin,percent,2.9,3,0.00160418336952
HHS Region 7,3 wk ahead,Bin,percent,3,3.1,0.969333251239
HHS Region 7,3 wk ahead,Bin,percent,3.1,3.2,0.0290625653837
HHS Region 7,3 wk ahead,Bin,percent,3.2,3.3,8.11006817258e-12
HHS Region 7,3 wk ahead,Bin,percent,3.3,3.4,0.0
HHS Region 7,3 wk ahead,Bin,percent,3.4,3.5,0.0
HHS Region 7,3 wk ahead,Bin,percent,3.5,3.6,0.0
HHS Region 7,3 wk ahead,Bin,percent,3.6,3.7,0.0
HHS Region 7,3 wk ahead,Bin,percent,3.7,3.8,0.0
HHS Region 7,3 wk ahead,Bin,percent,3.8,3.9,0.0
HHS Region 7,3 wk ahead,Bin,percent,3.9,4,0.0
HHS Region 7,3 wk ahead,Bin,percent,4,4.1,0.0
HHS Region 7,3 wk ahead,Bin,percent,4.1,4.2,0.0
HHS Region 7,3 wk ahead,Bin,percent,4.2,4.3,0.0
HHS Region 7,3 wk ahead,Bin,percent,4.3,4.4,0.0
HHS Region 7,3 wk ahead,Bin,percent,4.4,4.5,0.0
HHS Region 7,3 wk ahead,Bin,percent,4.5,4.6,0.0
HHS Region 7,3 wk ahead,Bin,percent,4.6,4.7,0.0
HHS Region 7,3 wk ahead,Bin,percent,4.7,4.8,0.0
HHS Region 7,3 wk ahead,Bin,percent,4.8,4.9,0.0
HHS Region 7,3 wk ahead,Bin,percent,4.9,5,0.0
HHS Region 7,3 wk ahead,Bin,percent,5,5.1,0.0
HHS Region 7,3 wk ahead,Bin,percent,5.1,5.2,0.0
HHS Region 7,3 wk ahead,Bin,percent,5.2,5.3,0.0
HHS Region 7,3 wk ahead,Bin,percent,5.3,5.4,0.0
HHS Region 7,3 wk ahead,Bin,percent,5.4,5.5,0.0
HHS Region 7,3 wk ahead,Bin,percent,5.5,5.6,0.0
HHS Region 7,3 wk ahead,Bin,percent,5.6,5.7,0.0
HHS Region 7,3 wk ahead,Bin,percent,5.7,5.8,0.0
HHS Region 7,3 wk ahead,Bin,percent,5.8,5.9,0.0
HHS Region 7,3 wk ahead,Bin,percent,5.9,6,0.0
HHS Region 7,3 wk ahead,Bin,percent,6,6.1,0.0
HHS Region 7,3 wk ahead,Bin,percent,6.1,6.2,0.0
HHS Region 7,3 wk ahead,Bin,percent,6.2,6.3,0.0
HHS Region 7,3 wk ahead,Bin,percent,6.3,6.4,0.0
HHS Region 7,3 wk ahead,Bin,percent,6.4,6.5,0.0
HHS Region 7,3 wk ahead,Bin,percent,6.5,6.6,0.0
HHS Region 7,3 wk ahead,Bin,percent,6.6,6.7,0.0
HHS Region 7,3 wk ahead,Bin,percent,6.7,6.8,0.0
HHS Region 7,3 wk ahead,Bin,percent,6.8,6.9,0.0
HHS Region 7,3 wk ahead,Bin,percent,6.9,7,0.0
HHS Region 7,3 wk ahead,Bin,percent,7,7.1,0.0
HHS Region 7,3 wk ahead,Bin,percent,7.1,7.2,0.0
HHS Region 7,3 wk ahead,Bin,percent,7.2,7.3,0.0
HHS Region 7,3 wk ahead,Bin,percent,7.3,7.4,0.0
HHS Region 7,3 wk ahead,Bin,percent,7.4,7.5,0.0
HHS Region 7,3 wk ahead,Bin,percent,7.5,7.6,0.0
HHS Region 7,3 wk ahead,Bin,percent,7.6,7.7,0.0
HHS Region 7,3 wk ahead,Bin,percent,7.7,7.8,0.0
HHS Region 7,3 wk ahead,Bin,percent,7.8,7.9,0.0
HHS Region 7,3 wk ahead,Bin,percent,7.9,8,0.0
HHS Region 7,3 wk ahead,Bin,percent,8,8.1,0.0
HHS Region 7,3 wk ahead,Bin,percent,8.1,8.2,0.0
HHS Region 7,3 wk ahead,Bin,percent,8.2,8.3,0.0
HHS Region 7,3 wk ahead,Bin,percent,8.3,8.4,0.0
HHS Region 7,3 wk ahead,Bin,percent,8.4,8.5,0.0
HHS Region 7,3 wk ahead,Bin,percent,8.5,8.6,0.0
HHS Region 7,3 wk ahead,Bin,percent,8.6,8.7,0.0
HHS Region 7,3 wk ahead,Bin,percent,8.7,8.8,0.0
HHS Region 7,3 wk ahead,Bin,percent,8.8,8.9,0.0
HHS Region 7,3 wk ahead,Bin,percent,8.9,9,0.0
HHS Region 7,3 wk ahead,Bin,percent,9,9.1,0.0
HHS Region 7,3 wk ahead,Bin,percent,9.1,9.2,0.0
HHS Region 7,3 wk ahead,Bin,percent,9.2,9.3,0.0
HHS Region 7,3 wk ahead,Bin,percent,9.3,9.4,0.0
HHS Region 7,3 wk ahead,Bin,percent,9.4,9.5,0.0
HHS Region 7,3 wk ahead,Bin,percent,9.5,9.6,0.0
HHS Region 7,3 wk ahead,Bin,percent,9.6,9.7,0.0
HHS Region 7,3 wk ahead,Bin,percent,9.7,9.8,0.0
HHS Region 7,3 wk ahead,Bin,percent,9.8,9.9,0.0
HHS Region 7,3 wk ahead,Bin,percent,9.9,10,0.0
HHS Region 7,3 wk ahead,Bin,percent,10,10.1,0.0
HHS Region 7,3 wk ahead,Bin,percent,10.1,10.2,0.0
HHS Region 7,3 wk ahead,Bin,percent,10.2,10.3,0.0
HHS Region 7,3 wk ahead,Bin,percent,10.3,10.4,0.0
HHS Region 7,3 wk ahead,Bin,percent,10.4,10.5,0.0
HHS Region 7,3 wk ahead,Bin,percent,10.5,10.6,0.0
HHS Region 7,3 wk ahead,Bin,percent,10.6,10.7,0.0
HHS Region 7,3 wk ahead,Bin,percent,10.7,10.8,0.0
HHS Region 7,3 wk ahead,Bin,percent,10.8,10.9,0.0
HHS Region 7,3 wk ahead,Bin,percent,10.9,11,0.0
HHS Region 7,3 wk ahead,Bin,percent,11,11.1,0.0
HHS Region 7,3 wk ahead,Bin,percent,11.1,11.2,0.0
HHS Region 7,3 wk ahead,Bin,percent,11.2,11.3,0.0
HHS Region 7,3 wk ahead,Bin,percent,11.3,11.4,0.0
HHS Region 7,3 wk ahead,Bin,percent,11.4,11.5,0.0
HHS Region 7,3 wk ahead,Bin,percent,11.5,11.6,0.0
HHS Region 7,3 wk ahead,Bin,percent,11.6,11.7,0.0
HHS Region 7,3 wk ahead,Bin,percent,11.7,11.8,0.0
HHS Region 7,3 wk ahead,Bin,percent,11.8,11.9,0.0
HHS Region 7,3 wk ahead,Bin,percent,11.9,12,0.0
HHS Region 7,3 wk ahead,Bin,percent,12,12.1,0.0
HHS Region 7,3 wk ahead,Bin,percent,12.1,12.2,0.0
HHS Region 7,3 wk ahead,Bin,percent,12.2,12.3,0.0
HHS Region 7,3 wk ahead,Bin,percent,12.3,12.4,0.0
HHS Region 7,3 wk ahead,Bin,percent,12.4,12.5,0.0
HHS Region 7,3 wk ahead,Bin,percent,12.5,12.6,0.0
HHS Region 7,3 wk ahead,Bin,percent,12.6,12.7,0.0
HHS Region 7,3 wk ahead,Bin,percent,12.7,12.8,0.0
HHS Region 7,3 wk ahead,Bin,percent,12.8,12.9,0.0
HHS Region 7,3 wk ahead,Bin,percent,12.9,13,0.0
HHS Region 7,3 wk ahead,Bin,percent,13,100,0.0
HHS Region 7,4 wk ahead,Point,percent,,,1.5
HHS Region 7,4 wk ahead,Bin,percent,0,0.1,0.007633588
HHS Region 7,4 wk ahead,Bin,percent,0.1,0.2,0.0
HHS Region 7,4 wk ahead,Bin,percent,0.2,0.3,0.0
HHS Region 7,4 wk ahead,Bin,percent,0.3,0.4,0.0
HHS Region 7,4 wk ahead,Bin,percent,0.4,0.5,0.0
HHS Region 7,4 wk ahead,Bin,percent,0.5,0.6,0.0
HHS Region 7,4 wk ahead,Bin,percent,0.6,0.7,0.0
HHS Region 7,4 wk ahead,Bin,percent,0.7,0.8,0.0
HHS Region 7,4 wk ahead,Bin,percent,0.8,0.9,0.0
HHS Region 7,4 wk ahead,Bin,percent,0.9,1,0.0
HHS Region 7,4 wk ahead,Bin,percent,1,1.1,0.0
HHS Region 7,4 wk ahead,Bin,percent,1.1,1.2,0.0
HHS Region 7,4 wk ahead,Bin,percent,1.2,1.3,0.0
HHS Region 7,4 wk ahead,Bin,percent,1.3,1.4,0.0
HHS Region 7,4 wk ahead,Bin,percent,1.4,1.5,0.0
HHS Region 7,4 wk ahead,Bin,percent,1.5,1.6,0.0
HHS Region 7,4 wk ahead,Bin,percent,1.6,1.7,0.0
HHS Region 7,4 wk ahead,Bin,percent,1.7,1.8,0.0
HHS Region 7,4 wk ahead,Bin,percent,1.8,1.9,0.0
HHS Region 7,4 wk ahead,Bin,percent,1.9,2,0.0
HHS Region 7,4 wk ahead,Bin,percent,2,2.1,0.0
HHS Region 7,4 wk ahead,Bin,percent,2.1,2.2,0.0
HHS Region 7,4 wk ahead,Bin,percent,2.2,2.3,0.0
HHS Region 7,4 wk ahead,Bin,percent,2.3,2.4,0.0
HHS Region 7,4 wk ahead,Bin,percent,2.4,2.5,0.0
HHS Region 7,4 wk ahead,Bin,percent,2.5,2.6,0.0
HHS Region 7,4 wk ahead,Bin,percent,2.6,2.7,1.52070662114e-274
HHS Region 7,4 wk ahead,Bin,percent,2.7,2.8,1.30168684246e-198
HHS Region 7,4 wk ahead,Bin,percent,2.8,2.9,4.77227452372e-135
HHS Region 7,4 wk ahead,Bin,percent,2.9,3,7.61066952054e-84
HHS Region 7,4 wk ahead,Bin,percent,3,3.1,5.44236447995e-45
HHS Region 7,4 wk ahead,Bin,percent,3.1,3.2,1.87802212563e-18
HHS Region 7,4 wk ahead,Bin,percent,3.2,3.3,0.000409349034057
HHS Region 7,4 wk ahead,Bin,percent,3.3,3.4,0.976468496101
HHS Region 7,4 wk ahead,Bin,percent,3.4,3.5,0.0231221548648
HHS Region 7,4 wk ahead,Bin,percent,3.5,3.6,1.12798659302e-13
HHS Region 7,4 wk ahead,Bin,percent,3.6,3.7,0.0
HHS Region 7,4 wk ahead,Bin,percent,3.7,3.8,0.0
HHS Region 7,4 wk ahead,Bin,percent,3.8,3.9,0.0
HHS Region 7,4 wk ahead,Bin,percent,3.9,4,0.0
HHS Region 7,4 wk ahead,Bin,percent,4,4.1,0.0
HHS Region 7,4 wk ahead,Bin,percent,4.1,4.2,0.0
HHS Region 7,4 wk ahead,Bin,percent,4.2,4.3,0.0
HHS Region 7,4 wk ahead,Bin,percent,4.3,4.4,0.0
HHS Region 7,4 wk ahead,Bin,percent,4.4,4.5,0.0
HHS Region 7,4 wk ahead,Bin,percent,4.5,4.6,0.0
HHS Region 7,4 wk ahead,Bin,percent,4.6,4.7,0.0
HHS Region 7,4 wk ahead,Bin,percent,4.7,4.8,0.0
HHS Region 7,4 wk ahead,Bin,percent,4.8,4.9,0.0
HHS Region 7,4 wk ahead,Bin,percent,4.9,5,0.0
HHS Region 7,4 wk ahead,Bin,percent,5,5.1,0.0
HHS Region 7,4 wk ahead,Bin,percent,5.1,5.2,0.0
HHS Region 7,4 wk ahead,Bin,percent,5.2,5.3,0.0
HHS Region 7,4 wk ahead,Bin,percent,5.3,5.4,0.0
HHS Region 7,4 wk ahead,Bin,percent,5.4,5.5,0.0
HHS Region 7,4 wk ahead,Bin,percent,5.5,5.6,0.0
HHS Region 7,4 wk ahead,Bin,percent,5.6,5.7,0.0
HHS Region 7,4 wk ahead,Bin,percent,5.7,5.8,0.0
HHS Region 7,4 wk ahead,Bin,percent,5.8,5.9,0.0
HHS Region 7,4 wk ahead,Bin,percent,5.9,6,0.0
HHS Region 7,4 wk ahead,Bin,percent,6,6.1,0.0
HHS Region 7,4 wk ahead,Bin,percent,6.1,6.2,0.0
HHS Region 7,4 wk ahead,Bin,percent,6.2,6.3,0.0
HHS Region 7,4 wk ahead,Bin,percent,6.3,6.4,0.0
HHS Region 7,4 wk ahead,Bin,percent,6.4,6.5,0.0
HHS Region 7,4 wk ahead,Bin,percent,6.5,6.6,0.0
HHS Region 7,4 wk ahead,Bin,percent,6.6,6.7,0.0
HHS Region 7,4 wk ahead,Bin,percent,6.7,6.8,0.0
HHS Region 7,4 wk ahead,Bin,percent,6.8,6.9,0.0
HHS Region 7,4 wk ahead,Bin,percent,6.9,7,0.0
HHS Region 7,4 wk ahead,Bin,percent,7,7.1,0.0
HHS Region 7,4 wk ahead,Bin,percent,7.1,7.2,0.0
HHS Region 7,4 wk ahead,Bin,percent,7.2,7.3,0.0
HHS Region 7,4 wk ahead,Bin,percent,7.3,7.4,0.0
HHS Region 7,4 wk ahead,Bin,percent,7.4,7.5,0.0
HHS Region 7,4 wk ahead,Bin,percent,7.5,7.6,0.0
HHS Region 7,4 wk ahead,Bin,percent,7.6,7.7,0.0
HHS Region 7,4 wk ahead,Bin,percent,7.7,7.8,0.0
HHS Region 7,4 wk ahead,Bin,percent,7.8,7.9,0.0
HHS Region 7,4 wk ahead,Bin,percent,7.9,8,0.0
HHS Region 7,4 wk ahead,Bin,percent,8,8.1,0.0
HHS Region 7,4 wk ahead,Bin,percent,8.1,8.2,0.0
HHS Region 7,4 wk ahead,Bin,percent,8.2,8.3,0.0
HHS Region 7,4 wk ahead,Bin,percent,8.3,8.4,0.0
HHS Region 7,4 wk ahead,Bin,percent,8.4,8.5,0.0
HHS Region 7,4 wk ahead,Bin,percent,8.5,8.6,0.0
HHS Region 7,4 wk ahead,Bin,percent,8.6,8.7,0.0
HHS Region 7,4 wk ahead,Bin,percent,8.7,8.8,0.0
HHS Region 7,4 wk ahead,Bin,percent,8.8,8.9,0.0
HHS Region 7,4 wk ahead,Bin,percent,8.9,9,0.0
HHS Region 7,4 wk ahead,Bin,percent,9,9.1,0.0
HHS Region 7,4 wk ahead,Bin,percent,9.1,9.2,0.0
HHS Region 7,4 wk ahead,Bin,percent,9.2,9.3,0.0
HHS Region 7,4 wk ahead,Bin,percent,9.3,9.4,0.0
HHS Region 7,4 wk ahead,Bin,percent,9.4,9.5,0.0
HHS Region 7,4 wk ahead,Bin,percent,9.5,9.6,0.0
HHS Region 7,4 wk ahead,Bin,percent,9.6,9.7,0.0
HHS Region 7,4 wk ahead,Bin,percent,9.7,9.8,0.0
HHS Region 7,4 wk ahead,Bin,percent,9.8,9.9,0.0
HHS Region 7,4 wk ahead,Bin,percent,9.9,10,0.0
HHS Region 7,4 wk ahead,Bin,percent,10,10.1,0.0
HHS Region 7,4 wk ahead,Bin,percent,10.1,10.2,0.0
HHS Region 7,4 wk ahead,Bin,percent,10.2,10.3,0.0
HHS Region 7,4 wk ahead,Bin,percent,10.3,10.4,0.0
HHS Region 7,4 wk ahead,Bin,percent,10.4,10.5,0.0
HHS Region 7,4 wk ahead,Bin,percent,10.5,10.6,0.0
HHS Region 7,4 wk ahead,Bin,percent,10.6,10.7,0.0
HHS Region 7,4 wk ahead,Bin,percent,10.7,10.8,0.0
HHS Region 7,4 wk ahead,Bin,percent,10.8,10.9,0.0
HHS Region 7,4 wk ahead,Bin,percent,10.9,11,0.0
HHS Region 7,4 wk ahead,Bin,percent,11,11.1,0.0
HHS Region 7,4 wk ahead,Bin,percent,11.1,11.2,0.0
HHS Region 7,4 wk ahead,Bin,percent,11.2,11.3,0.0
HHS Region 7,4 wk ahead,Bin,percent,11.3,11.4,0.0
HHS Region 7,4 wk ahead,Bin,percent,11.4,11.5,0.0
HHS Region 7,4 wk ahead,Bin,percent,11.5,11.6,0.0
HHS Region 7,4 wk ahead,Bin,percent,11.6,11.7,0.0
HHS Region 7,4 wk ahead,Bin,percent,11.7,11.8,0.0
HHS Region 7,4 wk ahead,Bin,percent,11.8,11.9,0.0
HHS Region 7,4 wk ahead,Bin,percent,11.9,12,0.0
HHS Region 7,4 wk ahead,Bin,percent,12,12.1,0.0
HHS Region 7,4 wk ahead,Bin,percent,12.1,12.2,0.0
HHS Region 7,4 wk ahead,Bin,percent,12.2,12.3,0.0
HHS Region 7,4 wk ahead,Bin,percent,12.3,12.4,0.0
HHS Region 7,4 wk ahead,Bin,percent,12.4,12.5,0.0
HHS Region 7,4 wk ahead,Bin,percent,12.5,12.6,0.0
HHS Region 7,4 wk ahead,Bin,percent,12.6,12.7,0.0
HHS Region 7,4 wk ahead,Bin,percent,12.7,12.8,0.0
HHS Region 7,4 wk ahead,Bin,percent,12.8,12.9,0.0
HHS Region 7,4 wk ahead,Bin,percent,12.9,13,0.0
HHS Region 7,4 wk ahead,Bin,percent,13,100,0.0
