year,ew,wili,actual_ew
2012,1.0,0.6011788,21
2012,2.0,0.8122957,22
2012,3.0,0.6655158,23
2012,4.0,0.5937503,24
2012,5.0,0.5624539,25
2012,6.0,0.4912325,26
2012,7.0,0.4515845,27
2012,8.0,0.4471224,28
2012,9.0,0.4699446,29
2012,10.0,0.5121495,30
2012,11.0,0.5034745,31
2012,12.0,0.4465386,32
2012,13.0,0.5279554,33
2012,14.0,0.5318485,34
2012,15.0,0.579134,35
2012,16.0,0.728831,36
2012,17.0,0.6775475,37
2012,18.0,0.5816391,38
2012,19.0,0.7120535,39
2012,20.0,0.7763985,40
2012,21.0,0.7985926,41
2012,22.0,0.8034689,42
2012,23.0,0.7298081,43
2012,24.0,0.9201274,44
2012,25.0,0.9336205,45
2012,26.0,1.024951,46
2012,27.0,1.416999,47
2012,28.0,1.329101,48
2012,29.0,1.689361,49
2012,30.0,2.423365,50
2012,31.0,3.182998,51
2012,32.0,4.095475,52
2013,33.0,3.745691,1
2013,34.0,3.853717,2
2013,35.0,4.137283,3
2013,36.0,3.975883,4
2013,37.0,3.443497,5
2013,38.0,2.974001,6
2013,39.0,2.630495,7
2013,40.0,2.173898,8
2013,41.0,2.100842,9
2013,42.0,1.801028,10
2013,43.0,1.751022,11
2013,44.0,1.214675,12
2013,45.0,1.248249,13
2013,46.0,1.167129,14
2013,47.0,1.015195,15
2013,48.0,1.014042,16
2013,49.0,1.008771,17
2013,50.0,1.002436,18
2013,51.0,0.9300008,19
2013,52.0,0.7384212,20
