year,ew,wili,actual_ew
2014,1.0,0.621652,21
2014,2.0,0.5496871,22
2014,3.0,0.3221297,23
2014,4.0,0.5658034,24
2014,5.0,0.4273296,25
2014,6.0,0.5963542,26
2014,7.0,0.6481242,27
2014,8.0,0.4079477,28
2014,9.0,0.4085322,29
2014,10.0,0.4647051,30
2014,11.0,0.4265569,31
2014,12.0,0.4488888,32
2014,13.0,0.5685424,33
2014,14.0,0.5526526,34
2014,15.0,0.6071584,35
2014,16.0,0.5021686,36
2014,17.0,0.7203104,37
2014,18.0,0.6199188,38
2014,19.0,0.5857518,39
2014,20.0,0.6259563,40
2014,21.0,0.6591688,41
2014,22.0,0.7016188,42
2014,23.0,0.7586304,43
2014,24.0,0.7779546,44
2014,25.0,0.7914822,45
2014,26.0,0.7832252,46
2014,27.0,0.7582666,47
2014,28.0,0.9755854,48
2014,29.0,1.333,49
2014,30.0,1.82076,50
2014,31.0,2.42912,51
2014,32.0,3.77074,52
2015,33.0,3.41779,1
2015,34.0,3.33509,2
2015,35.0,3.19303,3
2015,36.0,3.01885,4
2015,37.0,2.77271,5
2015,38.0,2.08662,6
2015,39.0,1.97377,7
2015,40.0,1.53776,8
2015,41.0,1.49836,9
2015,42.0,1.46641,10
2015,43.0,1.50392,11
2015,44.0,1.17146,12
2015,45.0,1.21885,13
2015,46.0,0.9903066,14
2015,47.0,0.9960002,15
2015,48.0,0.9373692,16
2015,49.0,0.8519136,17
2015,50.0,0.8638963,18
2015,51.0,0.6822779,19
2015,52.0,0.554809,20
