year,ew,wili,actual_ew
2010,1.0,1.063671,21
2010,2.0,1.133071,22
2010,3.0,0.9733785,23
2010,4.0,1.07417,24
2010,5.0,0.8804421,25
2010,6.0,0.9076442,26
2010,7.0,0.8828185,27
2010,8.0,0.7879562,28
2010,9.0,0.8986341,29
2010,10.0,0.7714338,30
2010,11.0,0.9119174,31
2010,12.0,0.8327582,32
2010,13.0,0.8665876,33
2010,14.0,0.8462629,34
2010,15.0,1.053041,35
2010,16.0,1.241793,36
2010,17.0,1.085178,37
2010,18.0,1.277221,38
2010,19.0,1.14342,39
2010,20.0,1.020218,40
2010,21.0,1.292922,41
2010,22.0,1.138692,42
2010,23.0,1.081508,43
2010,24.0,1.223882,44
2010,25.0,1.292588,45
2010,26.0,1.271598,46
2010,27.0,1.484182,47
2010,28.0,1.475476,48
2010,29.0,1.452156,49
2010,30.0,1.620896,50
2010,31.0,2.178926,51
2010,32.0,2.613436,52
2011,33.0,2.202572,1
2011,34.0,2.453788,2
2011,35.0,3.281588,3
2011,36.0,4.049278,4
2011,37.0,4.415814,5
2011,38.0,4.055884,6
2011,39.0,3.965288,7
2011,40.0,3.567298,8
2011,41.0,2.959078,9
2011,42.0,2.584242,10
2011,43.0,2.039242,11
2011,44.0,1.674708,12
2011,45.0,1.542218,13
2011,46.0,1.503084,14
2011,47.0,1.425794,15
2011,48.0,1.193214,16
2011,49.0,0.9440292,17
2011,50.0,0.9748928,18
2011,51.0,0.9320021,19
2011,52.0,0.966346,20
