year,ew,wili,actual_ew
2015,1.0,1.586518,21
2015,2.0,1.245668,22
2015,3.0,1.346273,23
2015,4.0,1.204314,24
2015,5.0,1.250755,25
2015,6.0,1.166605,26
2015,7.0,1.301678,27
2015,8.0,1.12228,28
2015,9.0,1.01941,29
2015,10.0,0.9989868,30
2015,11.0,0.8813802,31
2015,12.0,1.07907,32
2015,13.0,0.9254665,33
2015,14.0,0.7966012,34
2015,15.0,1.068508,35
2015,16.0,1.12362,36
2015,17.0,1.17381,37
2015,18.0,1.213308,38
2015,19.0,1.096505,39
2015,20.0,1.217455,40
2015,21.0,1.260555,41
2015,22.0,1.533065,42
2015,23.0,1.395652,43
2015,24.0,1.53434,44
2015,25.0,1.57574,45
2015,26.0,1.720312,46
2015,27.0,2.173795,47
2015,28.0,1.840305,48
2015,29.0,2.019885,49
2015,30.0,2.278672,50
2015,31.0,2.81498,51
2015,32.0,2.97693,52
2016,33.0,2.383952,1
2016,34.0,2.327115,2
2016,35.0,2.284375,3
2016,36.0,2.237125,4
2016,37.0,1.954845,5
2016,38.0,2.258895,6
2016,39.0,2.578545,7
2016,40.0,2.927165,8
2016,41.0,3.288415,9
2016,42.0,3.982175,10
2016,43.0,3.213142,11
2016,44.0,2.99593,12
2016,45.0,2.50979,13
2016,46.0,2.087069,14
2016,47.0,2.181917,15
2016,48.0,2.281506,16
2016,49.0,2.174949,17
2016,50.0,1.883884,18
2016,51.0,1.725592,19
2016,52.0,1.662092,20
